Test for Bad_Good
To import-> Hits: 2093, Tracks: 358 Events: 1
To bad->good: Hits: 2093, Tracks: 358 Events: 1
Filter with Bad_Good method
Time CPU total Bad_Good Events: 1 Tracks: 358 Hits: 2093 = 1.008511e-04 s

Test for Bad
To import-> Hits: 2093, Tracks: 358 Events: 1
Filter with Bad method
Time CPU total Bad Events: 1 Tracks: 358 Hits: 2093 = 1.559258e-04 s

Test for Good
To import-> Hits: 2093, Tracks: 358 Events: 1
Filter with Cuda 2
Time GPU Kernel Cuda2 Events: 1 Tracks: 358 Hits: 2093 = 8.563200e-05 s
Time CPU Kernel Cuda2 Events: 1 Tracks: 358 Hits: 2093 = 8.201599e-05 s
Time CPU total Cuda2 Events: 1 Tracks: 358 Hits: 2093 = 7.312770e-01 s

Test for Good
To import-> Hits: 2093, Tracks: 358 Events: 1
Filter with Cuda 1
Time GPU Kernel Cuda1 Events: 1 Tracks: 358 Hits: 2093 = 1.103040e-04 s
Time CPU Kernel Cuda1 Events: 1 Tracks: 358 Hits: 2093 = 1.070499e-04 s
Time CPU total Cuda1 Events: 1 Tracks: 358 Hits: 2093 = 6.910050e-01 s

Test for Good
To import-> Hits: 2093, Tracks: 358 Events: 1
Filter with Good method
Time CPU total Good Events: 1 Tracks: 358 Hits: 2093 = 5.602837e-05 s

Test for OpenCL
To import-> Hits: 2093, Tracks: 358 Events: 1
Filter with OpenCL 2
Time GPU Kernel OpenCl2 Events: 1 Tracks: 358 Hits: 2093 = 4.5568e-05 s
Time CPU Kernel OpenCl2 Events: 1 Tracks: 358 Hits: 2093 = 7.20024e-05 s
Time CPU total OpenCl2 Events: 1 Tracks: 358 Hits: 2093 = 7.534490e-01 s

Test for OpenCL
To import-> Hits: 2093, Tracks: 358 Events: 1
Filter with OpenCL 1
Time GPU Kernel OpenCl1 Events: 1 Tracks: 358 Hits: 2093 = 5.5232e-05 s
Time CPU Kernel OpenCl1 Events: 1 Tracks: 358 Hits: 2093 = 8.39233e-05 s
Time CPU total OpenCl1 Events: 1 Tracks: 358 Hits: 2093 = 7.246480e-01 s

-----------------------------
Test for Bad_Good
To import-> Hits: 3158, Tracks: 532 Events: 2
To bad->good: Hits: 3158, Tracks: 532 Events: 2
Filter with Bad_Good method
Time CPU total Bad_Good Events: 2 Tracks: 532 Hits: 3158 = 1.559258e-04 s

Test for Bad
To import-> Hits: 3158, Tracks: 532 Events: 2
Filter with Bad method
Time CPU total Bad Events: 2 Tracks: 532 Hits: 3158 = 1.950264e-04 s

Test for Good
To import-> Hits: 3158, Tracks: 532 Events: 2
Filter with Cuda 2
Time GPU Kernel Cuda2 Events: 2 Tracks: 532 Hits: 3158 = 8.265601e-05 s
Time CPU Kernel Cuda2 Events: 2 Tracks: 532 Hits: 3158 = 7.891655e-05 s
Time CPU total Cuda2 Events: 2 Tracks: 532 Hits: 3158 = 6.766481e-01 s

Test for Good
To import-> Hits: 3158, Tracks: 532 Events: 2
Filter with Cuda 1
Time GPU Kernel Cuda1 Events: 2 Tracks: 532 Hits: 3158 = 1.110080e-04 s
Time CPU Kernel Cuda1 Events: 2 Tracks: 532 Hits: 3158 = 1.080036e-04 s
Time CPU total Cuda1 Events: 2 Tracks: 532 Hits: 3158 = 6.855249e-01 s

Test for Good
To import-> Hits: 3158, Tracks: 532 Events: 2
Filter with Good method
Time CPU total Good Events: 2 Tracks: 532 Hits: 3158 = 8.296967e-05 s

Test for OpenCL
To import-> Hits: 3158, Tracks: 532 Events: 2
Filter with OpenCL 2
Time GPU Kernel OpenCl2 Events: 2 Tracks: 532 Hits: 3158 = 4.7072e-05 s
Time CPU Kernel OpenCl2 Events: 2 Tracks: 532 Hits: 3158 = 7.48634e-05 s
Time CPU total OpenCl2 Events: 2 Tracks: 532 Hits: 3158 = 7.188931e-01 s

Test for OpenCL
To import-> Hits: 3158, Tracks: 532 Events: 2
Filter with OpenCL 1
Time GPU Kernel OpenCl1 Events: 2 Tracks: 532 Hits: 3158 = 5.2928e-05 s
Time CPU Kernel OpenCl1 Events: 2 Tracks: 532 Hits: 3158 = 8.32081e-05 s
Time CPU total OpenCl1 Events: 2 Tracks: 532 Hits: 3158 = 7.197530e-01 s

-----------------------------
Test for Bad_Good
To import-> Hits: 4741, Tracks: 779 Events: 3
To bad->good: Hits: 4741, Tracks: 779 Events: 3
Filter with Bad_Good method
Time CPU total Bad_Good Events: 3 Tracks: 779 Hits: 4741 = 2.450943e-04 s

Test for Bad
To import-> Hits: 4741, Tracks: 779 Events: 3
Filter with Bad method
Time CPU total Bad Events: 3 Tracks: 779 Hits: 4741 = 2.639294e-04 s

Test for Good
To import-> Hits: 4741, Tracks: 779 Events: 3
Filter with Cuda 2
Time GPU Kernel Cuda2 Events: 3 Tracks: 779 Hits: 4741 = 8.345601e-05 s
Time CPU Kernel Cuda2 Events: 3 Tracks: 779 Hits: 4741 = 8.010864e-05 s
Time CPU total Cuda2 Events: 3 Tracks: 779 Hits: 4741 = 6.846311e-01 s

Test for Good
To import-> Hits: 4741, Tracks: 779 Events: 3
Filter with Cuda 1
Time GPU Kernel Cuda1 Events: 3 Tracks: 779 Hits: 4741 = 1.119680e-04 s
Time CPU Kernel Cuda1 Events: 3 Tracks: 779 Hits: 4741 = 1.089573e-04 s
Time CPU total Cuda1 Events: 3 Tracks: 779 Hits: 4741 = 6.853399e-01 s

Test for Good
To import-> Hits: 4741, Tracks: 779 Events: 3
Filter with Good method
Time CPU total Good Events: 3 Tracks: 779 Hits: 4741 = 1.230240e-04 s

Test for OpenCL
To import-> Hits: 4741, Tracks: 779 Events: 3
Filter with OpenCL 2
Time GPU Kernel OpenCl2 Events: 3 Tracks: 779 Hits: 4741 = 4.7328e-05 s
Time CPU Kernel OpenCl2 Events: 3 Tracks: 779 Hits: 4741 = 7.41482e-05 s
Time CPU total OpenCl2 Events: 3 Tracks: 779 Hits: 4741 = 7.200010e-01 s

Test for OpenCL
To import-> Hits: 4741, Tracks: 779 Events: 3
Filter with OpenCL 1
Time GPU Kernel OpenCl1 Events: 3 Tracks: 779 Hits: 4741 = 5.6288e-05 s
Time CPU Kernel OpenCl1 Events: 3 Tracks: 779 Hits: 4741 = 8.39233e-05 s
Time CPU total OpenCl1 Events: 3 Tracks: 779 Hits: 4741 = 7.253320e-01 s

-----------------------------
Test for Bad_Good
To import-> Hits: 8061, Tracks: 1300 Events: 4
To bad->good: Hits: 8061, Tracks: 1300 Events: 4
Filter with Bad_Good method
Time CPU total Bad_Good Events: 4 Tracks: 1300 Hits: 8061 = 4.150867e-04 s

Test for Bad
To import-> Hits: 8061, Tracks: 1300 Events: 4
Filter with Bad method
Time CPU total Bad Events: 4 Tracks: 1300 Hits: 8061 = 5.240440e-04 s

Test for Good
To import-> Hits: 8061, Tracks: 1300 Events: 4
Filter with Cuda 2
Time GPU Kernel Cuda2 Events: 4 Tracks: 1300 Hits: 8061 = 8.572800e-05 s
Time CPU Kernel Cuda2 Events: 4 Tracks: 1300 Hits: 8061 = 8.010864e-05 s
Time CPU total Cuda2 Events: 4 Tracks: 1300 Hits: 8061 = 6.824150e-01 s

Test for Good
To import-> Hits: 8061, Tracks: 1300 Events: 4
Filter with Cuda 1
Time GPU Kernel Cuda1 Events: 4 Tracks: 1300 Hits: 8061 = 1.152960e-04 s
Time CPU Kernel Cuda1 Events: 4 Tracks: 1300 Hits: 8061 = 1.120567e-04 s
Time CPU total Cuda1 Events: 4 Tracks: 1300 Hits: 8061 = 6.841109e-01 s

Test for Good
To import-> Hits: 8061, Tracks: 1300 Events: 4
Filter with Good method
Time CPU total Good Events: 4 Tracks: 1300 Hits: 8061 = 2.150536e-04 s

Test for OpenCL
To import-> Hits: 8061, Tracks: 1300 Events: 4
Filter with OpenCL 2
Time GPU Kernel OpenCl2 Events: 4 Tracks: 1300 Hits: 8061 = 5.0336e-05 s
Time CPU Kernel OpenCl2 Events: 4 Tracks: 1300 Hits: 8061 = 8.08239e-05 s
Time CPU total OpenCl2 Events: 4 Tracks: 1300 Hits: 8061 = 7.230668e-01 s

Test for OpenCL
To import-> Hits: 8061, Tracks: 1300 Events: 4
Filter with OpenCL 1
Time GPU Kernel OpenCl1 Events: 4 Tracks: 1300 Hits: 8061 = 5.8432e-05 s
Time CPU Kernel OpenCl1 Events: 4 Tracks: 1300 Hits: 8061 = 8.51154e-05 s
Time CPU total OpenCl1 Events: 4 Tracks: 1300 Hits: 8061 = 7.172470e-01 s

-----------------------------
Test for Bad_Good
To import-> Hits: 11850, Tracks: 1914 Events: 5
To bad->good: Hits: 11850, Tracks: 1914 Events: 5
Filter with Bad_Good method
Time CPU total Bad_Good Events: 5 Tracks: 1914 Hits: 11850 = 5.910397e-04 s

Test for Bad
To import-> Hits: 11850, Tracks: 1914 Events: 5
Filter with Bad method
Time CPU total Bad Events: 5 Tracks: 1914 Hits: 11850 = 7.941723e-04 s

Test for Good
To import-> Hits: 11850, Tracks: 1914 Events: 5
Filter with Cuda 2
Time GPU Kernel Cuda2 Events: 5 Tracks: 1914 Hits: 11850 = 8.979200e-05 s
Time CPU Kernel Cuda2 Events: 5 Tracks: 1914 Hits: 11850 = 8.606911e-05 s
Time CPU total Cuda2 Events: 5 Tracks: 1914 Hits: 11850 = 6.831400e-01 s

Test for Good
To import-> Hits: 11850, Tracks: 1914 Events: 5
Filter with Cuda 1
Time GPU Kernel Cuda1 Events: 5 Tracks: 1914 Hits: 11850 = 1.157760e-04 s
Time CPU Kernel Cuda1 Events: 5 Tracks: 1914 Hits: 11850 = 1.130104e-04 s
Time CPU total Cuda1 Events: 5 Tracks: 1914 Hits: 11850 = 6.827300e-01 s

Test for Good
To import-> Hits: 11850, Tracks: 1914 Events: 5
Filter with Good method
Time CPU total Good Events: 5 Tracks: 1914 Hits: 11850 = 3.149509e-04 s

Test for OpenCL
To import-> Hits: 11850, Tracks: 1914 Events: 5
Filter with OpenCL 2
Time GPU Kernel OpenCl2 Events: 5 Tracks: 1914 Hits: 11850 = 5.4944e-05 s
Time CPU Kernel OpenCl2 Events: 5 Tracks: 1914 Hits: 11850 = 8.2016e-05 s
Time CPU total OpenCl2 Events: 5 Tracks: 1914 Hits: 11850 = 7.181971e-01 s

Test for OpenCL
To import-> Hits: 11850, Tracks: 1914 Events: 5
Filter with OpenCL 1
Time GPU Kernel OpenCl1 Events: 5 Tracks: 1914 Hits: 11850 = 5.9552e-05 s
Time CPU Kernel OpenCl1 Events: 5 Tracks: 1914 Hits: 11850 = 8.98838e-05 s
Time CPU total OpenCl1 Events: 5 Tracks: 1914 Hits: 11850 = 7.234330e-01 s

-----------------------------
Test for Bad_Good
To import-> Hits: 12849, Tracks: 2089 Events: 6
To bad->good: Hits: 12849, Tracks: 2089 Events: 6
Filter with Bad_Good method
Time CPU total Bad_Good Events: 6 Tracks: 2089 Hits: 12849 = 6.639957e-04 s

Test for Bad
To import-> Hits: 12849, Tracks: 2089 Events: 6
Filter with Bad method
Time CPU total Bad Events: 6 Tracks: 2089 Hits: 12849 = 7.700920e-04 s

Test for Good
To import-> Hits: 12849, Tracks: 2089 Events: 6
Filter with Cuda 2
Time GPU Kernel Cuda2 Events: 6 Tracks: 2089 Hits: 12849 = 9.100801e-05 s
Time CPU Kernel Cuda2 Events: 6 Tracks: 2089 Hits: 12849 = 8.702278e-05 s
Time CPU total Cuda2 Events: 6 Tracks: 2089 Hits: 12849 = 6.858552e-01 s

Test for Good
To import-> Hits: 12849, Tracks: 2089 Events: 6
Filter with Cuda 1
Time GPU Kernel Cuda1 Events: 6 Tracks: 2089 Hits: 12849 = 1.183040e-04 s
Time CPU Kernel Cuda1 Events: 6 Tracks: 2089 Hits: 12849 = 1.139641e-04 s
Time CPU total Cuda1 Events: 6 Tracks: 2089 Hits: 12849 = 6.782770e-01 s

Test for Good
To import-> Hits: 12849, Tracks: 2089 Events: 6
Filter with Good method
Time CPU total Good Events: 6 Tracks: 2089 Hits: 12849 = 3.399849e-04 s

Test for OpenCL
To import-> Hits: 12849, Tracks: 2089 Events: 6
Filter with OpenCL 2
Time GPU Kernel OpenCl2 Events: 6 Tracks: 2089 Hits: 12849 = 5.5648e-05 s
Time CPU Kernel OpenCl2 Events: 6 Tracks: 2089 Hits: 12849 = 8.2016e-05 s
Time CPU total OpenCl2 Events: 6 Tracks: 2089 Hits: 12849 = 7.195101e-01 s

Test for OpenCL
To import-> Hits: 12849, Tracks: 2089 Events: 6
Filter with OpenCL 1
Time GPU Kernel OpenCl1 Events: 6 Tracks: 2089 Hits: 12849 = 5.888e-05 s
Time CPU Kernel OpenCl1 Events: 6 Tracks: 2089 Hits: 12849 = 8.89301e-05 s
Time CPU total OpenCl1 Events: 6 Tracks: 2089 Hits: 12849 = 7.239099e-01 s

-----------------------------
Test for Bad_Good
To import-> Hits: 14812, Tracks: 2418 Events: 7
To bad->good: Hits: 14812, Tracks: 2418 Events: 7
Filter with Bad_Good method
Time CPU total Bad_Good Events: 7 Tracks: 2418 Hits: 14812 = 7.669926e-04 s

Test for Bad
To import-> Hits: 14812, Tracks: 2418 Events: 7
Filter with Bad method
Time CPU total Bad Events: 7 Tracks: 2418 Hits: 14812 = 9.710789e-04 s

Test for Good
To import-> Hits: 14812, Tracks: 2418 Events: 7
Filter with Cuda 2
Time GPU Kernel Cuda2 Events: 7 Tracks: 2418 Hits: 14812 = 1.007040e-04 s
Time CPU Kernel Cuda2 Events: 7 Tracks: 2418 Hits: 14812 = 9.703636e-05 s
Time CPU total Cuda2 Events: 7 Tracks: 2418 Hits: 14812 = 6.848478e-01 s

Test for Good
To import-> Hits: 14812, Tracks: 2418 Events: 7
Filter with Cuda 1
Time GPU Kernel Cuda1 Events: 7 Tracks: 2418 Hits: 14812 = 1.268160e-04 s
Time CPU Kernel Cuda1 Events: 7 Tracks: 2418 Hits: 14812 = 1.220703e-04 s
Time CPU total Cuda1 Events: 7 Tracks: 2418 Hits: 14812 = 6.828618e-01 s

Test for Good
To import-> Hits: 14812, Tracks: 2418 Events: 7
Filter with Good method
Time CPU total Good Events: 7 Tracks: 2418 Hits: 14812 = 3.919601e-04 s

Test for OpenCL
To import-> Hits: 14812, Tracks: 2418 Events: 7
Filter with OpenCL 2
Time GPU Kernel OpenCl2 Events: 7 Tracks: 2418 Hits: 14812 = 6.2176e-05 s
Time CPU Kernel OpenCl2 Events: 7 Tracks: 2418 Hits: 14812 = 9.01222e-05 s
Time CPU total OpenCl2 Events: 7 Tracks: 2418 Hits: 14812 = 7.186570e-01 s

Test for OpenCL
To import-> Hits: 14812, Tracks: 2418 Events: 7
Filter with OpenCL 1
Time GPU Kernel OpenCl1 Events: 7 Tracks: 2418 Hits: 14812 = 6.4704e-05 s
Time CPU Kernel OpenCl1 Events: 7 Tracks: 2418 Hits: 14812 = 9.48906e-05 s
Time CPU total OpenCl1 Events: 7 Tracks: 2418 Hits: 14812 = 7.138309e-01 s

-----------------------------
Test for Bad_Good
To import-> Hits: 15814, Tracks: 2586 Events: 8
To bad->good: Hits: 15814, Tracks: 2586 Events: 8
Filter with Bad_Good method
Time CPU total Bad_Good Events: 8 Tracks: 2586 Hits: 15814 = 8.468628e-04 s

Test for Bad
To import-> Hits: 15814, Tracks: 2586 Events: 8
Filter with Bad method
Time CPU total Bad Events: 8 Tracks: 2586 Hits: 15814 = 9.400845e-04 s

Test for Good
To import-> Hits: 15814, Tracks: 2586 Events: 8
Filter with Cuda 2
Time GPU Kernel Cuda2 Events: 8 Tracks: 2586 Hits: 15814 = 1.004160e-04 s
Time CPU Kernel Cuda2 Events: 8 Tracks: 2586 Hits: 15814 = 9.608269e-05 s
Time CPU total Cuda2 Events: 8 Tracks: 2586 Hits: 15814 = 6.749659e-01 s

Test for Good
To import-> Hits: 15814, Tracks: 2586 Events: 8
Filter with Cuda 1
Time GPU Kernel Cuda1 Events: 8 Tracks: 2586 Hits: 15814 = 1.314560e-04 s
Time CPU Kernel Cuda1 Events: 8 Tracks: 2586 Hits: 15814 = 1.280308e-04 s
Time CPU total Cuda1 Events: 8 Tracks: 2586 Hits: 15814 = 6.832380e-01 s

Test for Good
To import-> Hits: 15814, Tracks: 2586 Events: 8
Filter with Good method
Time CPU total Good Events: 8 Tracks: 2586 Hits: 15814 = 4.141331e-04 s

Test for OpenCL
To import-> Hits: 15814, Tracks: 2586 Events: 8
Filter with OpenCL 2
Time GPU Kernel OpenCl2 Events: 8 Tracks: 2586 Hits: 15814 = 6.0864e-05 s
Time CPU Kernel OpenCl2 Events: 8 Tracks: 2586 Hits: 15814 = 9.10759e-05 s
Time CPU total OpenCl2 Events: 8 Tracks: 2586 Hits: 15814 = 7.130070e-01 s

Test for OpenCL
To import-> Hits: 15814, Tracks: 2586 Events: 8
Filter with OpenCL 1
Time GPU Kernel OpenCl1 Events: 8 Tracks: 2586 Hits: 15814 = 6.3008e-05 s
Time CPU Kernel OpenCl1 Events: 8 Tracks: 2586 Hits: 15814 = 8.89301e-05 s
Time CPU total OpenCl1 Events: 8 Tracks: 2586 Hits: 15814 = 7.189641e-01 s

-----------------------------
Test for Bad_Good
To import-> Hits: 16842, Tracks: 2764 Events: 9
To bad->good: Hits: 16842, Tracks: 2764 Events: 9
Filter with Bad_Good method
Time CPU total Bad_Good Events: 9 Tracks: 2764 Hits: 16842 = 8.339882e-04 s

Test for Bad
To import-> Hits: 16842, Tracks: 2764 Events: 9
Filter with Bad method
Time CPU total Bad Events: 9 Tracks: 2764 Hits: 16842 = 8.029938e-04 s

Test for Good
To import-> Hits: 16842, Tracks: 2764 Events: 9
Filter with Cuda 2
Time GPU Kernel Cuda2 Events: 9 Tracks: 2764 Hits: 16842 = 1.043200e-04 s
Time CPU Kernel Cuda2 Events: 9 Tracks: 2764 Hits: 16842 = 1.001358e-04 s
Time CPU total Cuda2 Events: 9 Tracks: 2764 Hits: 16842 = 6.531742e-01 s

Test for Good
To import-> Hits: 16842, Tracks: 2764 Events: 9
Filter with Cuda 1
Time GPU Kernel Cuda1 Events: 9 Tracks: 2764 Hits: 16842 = 1.294400e-04 s
Time CPU Kernel Cuda1 Events: 9 Tracks: 2764 Hits: 16842 = 1.249313e-04 s
Time CPU total Cuda1 Events: 9 Tracks: 2764 Hits: 16842 = 6.491618e-01 s

Test for Good
To import-> Hits: 16842, Tracks: 2764 Events: 9
Filter with Good method
Time CPU total Good Events: 9 Tracks: 2764 Hits: 16842 = 4.398823e-04 s

Test for OpenCL
To import-> Hits: 16842, Tracks: 2764 Events: 9
Filter with OpenCL 2
Time GPU Kernel OpenCl2 Events: 9 Tracks: 2764 Hits: 16842 = 6.3872e-05 s
Time CPU Kernel OpenCl2 Events: 9 Tracks: 2764 Hits: 16842 = 9.29832e-05 s
Time CPU total OpenCl2 Events: 9 Tracks: 2764 Hits: 16842 = 7.272990e-01 s

Test for OpenCL
To import-> Hits: 16842, Tracks: 2764 Events: 9
Filter with OpenCL 1
Time GPU Kernel OpenCl1 Events: 9 Tracks: 2764 Hits: 16842 = 6.6432e-05 s
Time CPU Kernel OpenCl1 Events: 9 Tracks: 2764 Hits: 16842 = 9.5129e-05 s
Time CPU total OpenCl1 Events: 9 Tracks: 2764 Hits: 16842 = 7.244811e-01 s

-----------------------------
Test for Bad_Good
To import-> Hits: 18940, Tracks: 3094 Events: 10
To bad->good: Hits: 18940, Tracks: 3094 Events: 10
Filter with Bad_Good method
Time CPU total Bad_Good Events: 10 Tracks: 3094 Hits: 18940 = 9.241104e-04 s

Test for Bad
To import-> Hits: 18940, Tracks: 3094 Events: 10
Filter with Bad method
Time CPU total Bad Events: 10 Tracks: 3094 Hits: 18940 = 9.078979e-04 s

Test for Good
To import-> Hits: 18940, Tracks: 3094 Events: 10
Filter with Cuda 2
Time GPU Kernel Cuda2 Events: 10 Tracks: 3094 Hits: 18940 = 1.056000e-04 s
Time CPU Kernel Cuda2 Events: 10 Tracks: 3094 Hits: 18940 = 1.020432e-04 s
Time CPU total Cuda2 Events: 10 Tracks: 3094 Hits: 18940 = 6.869090e-01 s

Test for Good
To import-> Hits: 18940, Tracks: 3094 Events: 10
Filter with Cuda 1
Time GPU Kernel Cuda1 Events: 10 Tracks: 3094 Hits: 18940 = 1.300480e-04 s
Time CPU Kernel Cuda1 Events: 10 Tracks: 3094 Hits: 18940 = 1.258850e-04 s
Time CPU total Cuda1 Events: 10 Tracks: 3094 Hits: 18940 = 6.834040e-01 s

Test for Good
To import-> Hits: 18940, Tracks: 3094 Events: 10
Filter with Good method
Time CPU total Good Events: 10 Tracks: 3094 Hits: 18940 = 4.940033e-04 s

Test for OpenCL
To import-> Hits: 18940, Tracks: 3094 Events: 10
Filter with OpenCL 2
Time GPU Kernel OpenCl2 Events: 10 Tracks: 3094 Hits: 18940 = 6.8128e-05 s
Time CPU Kernel OpenCl2 Events: 10 Tracks: 3094 Hits: 18940 = 9.5129e-05 s
Time CPU total OpenCl2 Events: 10 Tracks: 3094 Hits: 18940 = 7.183251e-01 s

Test for OpenCL
To import-> Hits: 18940, Tracks: 3094 Events: 10
Filter with OpenCL 1
Time GPU Kernel OpenCl1 Events: 10 Tracks: 3094 Hits: 18940 = 6.944e-05 s
Time CPU Kernel OpenCl1 Events: 10 Tracks: 3094 Hits: 18940 = 9.70364e-05 s
Time CPU total OpenCl1 Events: 10 Tracks: 3094 Hits: 18940 = 7.220621e-01 s

-----------------------------
Test for Bad_Good
To import-> Hits: 22010, Tracks: 3613 Events: 11
To bad->good: Hits: 22010, Tracks: 3613 Events: 11
Filter with Bad_Good method
Time CPU total Bad_Good Events: 11 Tracks: 3613 Hits: 22010 = 1.085043e-03 s

Test for Bad
To import-> Hits: 22010, Tracks: 3613 Events: 11
Filter with Bad method
Time CPU total Bad Events: 11 Tracks: 3613 Hits: 22010 = 1.295090e-03 s

Test for Good
To import-> Hits: 22010, Tracks: 3613 Events: 11
Filter with Cuda 2
Time GPU Kernel Cuda2 Events: 11 Tracks: 3613 Hits: 22010 = 1.126720e-04 s
Time CPU Kernel Cuda2 Events: 11 Tracks: 3613 Hits: 22010 = 1.089573e-04 s
Time CPU total Cuda2 Events: 11 Tracks: 3613 Hits: 22010 = 6.817641e-01 s

Test for Good
To import-> Hits: 22010, Tracks: 3613 Events: 11
Filter with Cuda 1
Time GPU Kernel Cuda1 Events: 11 Tracks: 3613 Hits: 22010 = 1.384640e-04 s
Time CPU Kernel Cuda1 Events: 11 Tracks: 3613 Hits: 22010 = 1.327991e-04 s
Time CPU total Cuda1 Events: 11 Tracks: 3613 Hits: 22010 = 6.832271e-01 s

Test for Good
To import-> Hits: 22010, Tracks: 3613 Events: 11
Filter with Good method
Time CPU total Good Events: 11 Tracks: 3613 Hits: 22010 = 5.738735e-04 s

Test for OpenCL
To import-> Hits: 22010, Tracks: 3613 Events: 11
Filter with OpenCL 2
Time GPU Kernel OpenCl2 Events: 11 Tracks: 3613 Hits: 22010 = 7.184e-05 s
Time CPU Kernel OpenCl2 Events: 11 Tracks: 3613 Hits: 22010 = 9.89437e-05 s
Time CPU total OpenCl2 Events: 11 Tracks: 3613 Hits: 22010 = 7.222540e-01 s

Test for OpenCL
To import-> Hits: 22010, Tracks: 3613 Events: 11
Filter with OpenCL 1
Time GPU Kernel OpenCl1 Events: 11 Tracks: 3613 Hits: 22010 = 7.4048e-05 s
Time CPU Kernel OpenCl1 Events: 11 Tracks: 3613 Hits: 22010 = 0.000103951 s
Time CPU total OpenCl1 Events: 11 Tracks: 3613 Hits: 22010 = 7.238078e-01 s

-----------------------------
Test for Bad_Good
To import-> Hits: 22930, Tracks: 3745 Events: 12
To bad->good: Hits: 22930, Tracks: 3745 Events: 12
Filter with Bad_Good method
Time CPU total Bad_Good Events: 12 Tracks: 3745 Hits: 22930 = 1.144886e-03 s

Test for Bad
To import-> Hits: 22930, Tracks: 3745 Events: 12
Filter with Bad method
Time CPU total Bad Events: 12 Tracks: 3745 Hits: 22930 = 1.359940e-03 s

Test for Good
To import-> Hits: 22930, Tracks: 3745 Events: 12
Filter with Cuda 2
Time GPU Kernel Cuda2 Events: 12 Tracks: 3745 Hits: 22930 = 1.196480e-04 s
Time CPU Kernel Cuda2 Events: 12 Tracks: 3745 Hits: 22930 = 1.149178e-04 s
Time CPU total Cuda2 Events: 12 Tracks: 3745 Hits: 22930 = 6.872640e-01 s

Test for Good
To import-> Hits: 22930, Tracks: 3745 Events: 12
Filter with Cuda 1
Time GPU Kernel Cuda1 Events: 12 Tracks: 3745 Hits: 22930 = 1.398400e-04 s
Time CPU Kernel Cuda1 Events: 12 Tracks: 3745 Hits: 22930 = 1.368523e-04 s
Time CPU total Cuda1 Events: 12 Tracks: 3745 Hits: 22930 = 6.865261e-01 s

Test for Good
To import-> Hits: 22930, Tracks: 3745 Events: 12
Filter with Good method
Time CPU total Good Events: 12 Tracks: 3745 Hits: 22930 = 6.129742e-04 s

Test for OpenCL
To import-> Hits: 22930, Tracks: 3745 Events: 12
Filter with OpenCL 2
Time GPU Kernel OpenCl2 Events: 12 Tracks: 3745 Hits: 22930 = 7.7696e-05 s
Time CPU Kernel OpenCl2 Events: 12 Tracks: 3745 Hits: 22930 = 0.000104904 s
Time CPU total OpenCl2 Events: 12 Tracks: 3745 Hits: 22930 = 7.237730e-01 s

Test for OpenCL
To import-> Hits: 22930, Tracks: 3745 Events: 12
Filter with OpenCL 1
Time GPU Kernel OpenCl1 Events: 12 Tracks: 3745 Hits: 22930 = 7.4848e-05 s
Time CPU Kernel OpenCl1 Events: 12 Tracks: 3745 Hits: 22930 = 0.000101805 s
Time CPU total OpenCl1 Events: 12 Tracks: 3745 Hits: 22930 = 7.247570e-01 s

-----------------------------
Test for Bad_Good
To import-> Hits: 27034, Tracks: 4414 Events: 13
To bad->good: Hits: 27034, Tracks: 4414 Events: 13
Filter with Bad_Good method
Time CPU total Bad_Good Events: 13 Tracks: 4414 Hits: 27034 = 1.417160e-03 s

Test for Bad
To import-> Hits: 27034, Tracks: 4414 Events: 13
Filter with Bad method
Time CPU total Bad Events: 13 Tracks: 4414 Hits: 27034 = 1.709938e-03 s

Test for Good
To import-> Hits: 27034, Tracks: 4414 Events: 13
Filter with Cuda 2
Time GPU Kernel Cuda2 Events: 13 Tracks: 4414 Hits: 27034 = 1.213440e-04 s
Time CPU Kernel Cuda2 Events: 13 Tracks: 4414 Hits: 27034 = 1.170635e-04 s
Time CPU total Cuda2 Events: 13 Tracks: 4414 Hits: 27034 = 6.861289e-01 s

Test for Good
To import-> Hits: 27034, Tracks: 4414 Events: 13
Filter with Cuda 1
Time GPU Kernel Cuda1 Events: 13 Tracks: 4414 Hits: 27034 = 1.458880e-04 s
Time CPU Kernel Cuda1 Events: 13 Tracks: 4414 Hits: 27034 = 1.411438e-04 s
Time CPU total Cuda1 Events: 13 Tracks: 4414 Hits: 27034 = 6.849191e-01 s

Test for Good
To import-> Hits: 27034, Tracks: 4414 Events: 13
Filter with Good method
Time CPU total Good Events: 13 Tracks: 4414 Hits: 27034 = 7.090569e-04 s

Test for OpenCL
To import-> Hits: 27034, Tracks: 4414 Events: 13
Filter with OpenCL 2
Time GPU Kernel OpenCl2 Events: 13 Tracks: 4414 Hits: 27034 = 8.9952e-05 s
Time CPU Kernel OpenCl2 Events: 13 Tracks: 4414 Hits: 27034 = 0.000119925 s
Time CPU total OpenCl2 Events: 13 Tracks: 4414 Hits: 27034 = 7.220740e-01 s

Test for OpenCL
To import-> Hits: 27034, Tracks: 4414 Events: 13
Filter with OpenCL 1
Time GPU Kernel OpenCl1 Events: 13 Tracks: 4414 Hits: 27034 = 8.9312e-05 s
Time CPU Kernel OpenCl1 Events: 13 Tracks: 4414 Hits: 27034 = 0.000117064 s
Time CPU total OpenCl1 Events: 13 Tracks: 4414 Hits: 27034 = 7.249432e-01 s

-----------------------------
Test for Bad_Good
To import-> Hits: 28064, Tracks: 4587 Events: 14
To bad->good: Hits: 28064, Tracks: 4587 Events: 14
Filter with Bad_Good method
Time CPU total Bad_Good Events: 14 Tracks: 4587 Hits: 28064 = 1.462936e-03 s

Test for Bad
To import-> Hits: 28064, Tracks: 4587 Events: 14
Filter with Bad method
Time CPU total Bad Events: 14 Tracks: 4587 Hits: 28064 = 1.738071e-03 s

Test for Good
To import-> Hits: 28064, Tracks: 4587 Events: 14
Filter with Cuda 2
Time GPU Kernel Cuda2 Events: 14 Tracks: 4587 Hits: 28064 = 1.319360e-04 s
Time CPU Kernel Cuda2 Events: 14 Tracks: 4587 Hits: 28064 = 1.289845e-04 s
Time CPU total Cuda2 Events: 14 Tracks: 4587 Hits: 28064 = 6.876171e-01 s

Test for Good
To import-> Hits: 28064, Tracks: 4587 Events: 14
Filter with Cuda 1
Time GPU Kernel Cuda1 Events: 14 Tracks: 4587 Hits: 28064 = 1.461440e-04 s
Time CPU Kernel Cuda1 Events: 14 Tracks: 4587 Hits: 28064 = 1.420975e-04 s
Time CPU total Cuda1 Events: 14 Tracks: 4587 Hits: 28064 = 6.898482e-01 s

Test for Good
To import-> Hits: 28064, Tracks: 4587 Events: 14
Filter with Good method
Time CPU total Good Events: 14 Tracks: 4587 Hits: 28064 = 7.479191e-04 s

Test for OpenCL
To import-> Hits: 28064, Tracks: 4587 Events: 14
Filter with OpenCL 2
Time GPU Kernel OpenCl2 Events: 14 Tracks: 4587 Hits: 28064 = 8.6368e-05 s
Time CPU Kernel OpenCl2 Events: 14 Tracks: 4587 Hits: 28064 = 0.000117064 s
Time CPU total OpenCl2 Events: 14 Tracks: 4587 Hits: 28064 = 7.267461e-01 s

Test for OpenCL
To import-> Hits: 28064, Tracks: 4587 Events: 14
Filter with OpenCL 1
Time GPU Kernel OpenCl1 Events: 14 Tracks: 4587 Hits: 28064 = 8.7136e-05 s
Time CPU Kernel OpenCl1 Events: 14 Tracks: 4587 Hits: 28064 = 0.000114918 s
Time CPU total OpenCl1 Events: 14 Tracks: 4587 Hits: 28064 = 7.190959e-01 s

-----------------------------
Test for Bad_Good
To import-> Hits: 30895, Tracks: 5044 Events: 15
To bad->good: Hits: 30895, Tracks: 5044 Events: 15
Filter with Bad_Good method
Time CPU total Bad_Good Events: 15 Tracks: 5044 Hits: 30895 = 1.618862e-03 s

Test for Bad
To import-> Hits: 30895, Tracks: 5044 Events: 15
Filter with Bad method
Time CPU total Bad Events: 15 Tracks: 5044 Hits: 30895 = 1.817942e-03 s

Test for Good
To import-> Hits: 30895, Tracks: 5044 Events: 15
Filter with Cuda 2
Time GPU Kernel Cuda2 Events: 15 Tracks: 5044 Hits: 30895 = 1.344000e-04 s
Time CPU Kernel Cuda2 Events: 15 Tracks: 5044 Hits: 30895 = 1.301765e-04 s
Time CPU total Cuda2 Events: 15 Tracks: 5044 Hits: 30895 = 6.884151e-01 s

Test for Good
To import-> Hits: 30895, Tracks: 5044 Events: 15
Filter with Cuda 1
Time GPU Kernel Cuda1 Events: 15 Tracks: 5044 Hits: 30895 = 1.574400e-04 s
Time CPU Kernel Cuda1 Events: 15 Tracks: 5044 Hits: 30895 = 1.530647e-04 s
Time CPU total Cuda1 Events: 15 Tracks: 5044 Hits: 30895 = 6.853290e-01 s

Test for Good
To import-> Hits: 30895, Tracks: 5044 Events: 15
Filter with Good method
Time CPU total Good Events: 15 Tracks: 5044 Hits: 30895 = 8.299351e-04 s

Test for OpenCL
To import-> Hits: 30895, Tracks: 5044 Events: 15
Filter with OpenCL 2
Time GPU Kernel OpenCl2 Events: 15 Tracks: 5044 Hits: 30895 = 9.376e-05 s
Time CPU Kernel OpenCl2 Events: 15 Tracks: 5044 Hits: 30895 = 0.000121117 s
Time CPU total OpenCl2 Events: 15 Tracks: 5044 Hits: 30895 = 7.302821e-01 s

Test for OpenCL
To import-> Hits: 30895, Tracks: 5044 Events: 15
Filter with OpenCL 1
Time GPU Kernel OpenCl1 Events: 15 Tracks: 5044 Hits: 30895 = 9.1776e-05 s
Time CPU Kernel OpenCl1 Events: 15 Tracks: 5044 Hits: 30895 = 0.000123024 s
Time CPU total OpenCl1 Events: 15 Tracks: 5044 Hits: 30895 = 7.194078e-01 s

-----------------------------
Test for Bad_Good
To import-> Hits: 31449, Tracks: 5141 Events: 16
To bad->good: Hits: 31449, Tracks: 5141 Events: 16
Filter with Bad_Good method
Time CPU total Bad_Good Events: 16 Tracks: 5141 Hits: 31449 = 1.629114e-03 s

Test for Bad
To import-> Hits: 31449, Tracks: 5141 Events: 16
Filter with Bad method
Time CPU total Bad Events: 16 Tracks: 5141 Hits: 31449 = 1.924992e-03 s

Test for Good
To import-> Hits: 31449, Tracks: 5141 Events: 16
Filter with Cuda 2
Time GPU Kernel Cuda2 Events: 16 Tracks: 5141 Hits: 31449 = 1.336000e-04 s
Time CPU Kernel Cuda2 Events: 16 Tracks: 5141 Hits: 31449 = 1.299381e-04 s
Time CPU total Cuda2 Events: 16 Tracks: 5141 Hits: 31449 = 6.839690e-01 s

Test for Good
To import-> Hits: 31449, Tracks: 5141 Events: 16
Filter with Cuda 1
Time GPU Kernel Cuda1 Events: 16 Tracks: 5141 Hits: 31449 = 1.546880e-04 s
Time CPU Kernel Cuda1 Events: 16 Tracks: 5141 Hits: 31449 = 1.518726e-04 s
Time CPU total Cuda1 Events: 16 Tracks: 5141 Hits: 31449 = 6.815319e-01 s

Test for Good
To import-> Hits: 31449, Tracks: 5141 Events: 16
Filter with Good method
Time CPU total Good Events: 16 Tracks: 5141 Hits: 31449 = 8.378029e-04 s

Test for OpenCL
To import-> Hits: 31449, Tracks: 5141 Events: 16
Filter with OpenCL 2
Time GPU Kernel OpenCl2 Events: 16 Tracks: 5141 Hits: 31449 = 9.2096e-05 s
Time CPU Kernel OpenCl2 Events: 16 Tracks: 5141 Hits: 31449 = 0.00012517 s
Time CPU total OpenCl2 Events: 16 Tracks: 5141 Hits: 31449 = 7.236960e-01 s

Test for OpenCL
To import-> Hits: 31449, Tracks: 5141 Events: 16
Filter with OpenCL 1
Time GPU Kernel OpenCl1 Events: 16 Tracks: 5141 Hits: 31449 = 9.0688e-05 s
Time CPU Kernel OpenCl1 Events: 16 Tracks: 5141 Hits: 31449 = 0.000118017 s
Time CPU total OpenCl1 Events: 16 Tracks: 5141 Hits: 31449 = 7.172201e-01 s

-----------------------------
Test for Bad_Good
To import-> Hits: 32810, Tracks: 5353 Events: 17
To bad->good: Hits: 32810, Tracks: 5353 Events: 17
Filter with Bad_Good method
Time CPU total Bad_Good Events: 17 Tracks: 5353 Hits: 32810 = 1.401901e-03 s

Test for Bad
To import-> Hits: 32810, Tracks: 5353 Events: 17
Filter with Bad method
Time CPU total Bad Events: 17 Tracks: 5353 Hits: 32810 = 1.582861e-03 s

Test for Good
To import-> Hits: 32810, Tracks: 5353 Events: 17
Filter with Cuda 2
Time GPU Kernel Cuda2 Events: 17 Tracks: 5353 Hits: 32810 = 1.367680e-04 s
Time CPU Kernel Cuda2 Events: 17 Tracks: 5353 Hits: 32810 = 1.330376e-04 s
Time CPU total Cuda2 Events: 17 Tracks: 5353 Hits: 32810 = 6.876571e-01 s

Test for Good
To import-> Hits: 32810, Tracks: 5353 Events: 17
Filter with Cuda 1
Time GPU Kernel Cuda1 Events: 17 Tracks: 5353 Hits: 32810 = 1.628800e-04 s
Time CPU Kernel Cuda1 Events: 17 Tracks: 5353 Hits: 32810 = 1.590252e-04 s
Time CPU total Cuda1 Events: 17 Tracks: 5353 Hits: 32810 = 6.833191e-01 s

Test for Good
To import-> Hits: 32810, Tracks: 5353 Events: 17
Filter with Good method
Time CPU total Good Events: 17 Tracks: 5353 Hits: 32810 = 8.668900e-04 s

Test for OpenCL
To import-> Hits: 32810, Tracks: 5353 Events: 17
Filter with OpenCL 2
Time GPU Kernel OpenCl2 Events: 17 Tracks: 5353 Hits: 32810 = 9.6032e-05 s
Time CPU Kernel OpenCl2 Events: 17 Tracks: 5353 Hits: 32810 = 0.000123024 s
Time CPU total OpenCl2 Events: 17 Tracks: 5353 Hits: 32810 = 7.357080e-01 s

Test for OpenCL
To import-> Hits: 32810, Tracks: 5353 Events: 17
Filter with OpenCL 1
Time GPU Kernel OpenCl1 Events: 17 Tracks: 5353 Hits: 32810 = 9.3632e-05 s
Time CPU Kernel OpenCl1 Events: 17 Tracks: 5353 Hits: 32810 = 0.00012207 s
Time CPU total OpenCl1 Events: 17 Tracks: 5353 Hits: 32810 = 7.320890e-01 s

-----------------------------
Test for Bad_Good
To import-> Hits: 35226, Tracks: 5750 Events: 18
To bad->good: Hits: 35226, Tracks: 5750 Events: 18
Filter with Bad_Good method
Time CPU total Bad_Good Events: 18 Tracks: 5750 Hits: 35226 = 1.690149e-03 s

Test for Bad
To import-> Hits: 35226, Tracks: 5750 Events: 18
Filter with Bad method
Time CPU total Bad Events: 18 Tracks: 5750 Hits: 35226 = 1.843214e-03 s

Test for Good
To import-> Hits: 35226, Tracks: 5750 Events: 18
Filter with Cuda 2
Time GPU Kernel Cuda2 Events: 18 Tracks: 5750 Hits: 35226 = 1.386880e-04 s
Time CPU Kernel Cuda2 Events: 18 Tracks: 5750 Hits: 35226 = 1.349449e-04 s
Time CPU total Cuda2 Events: 18 Tracks: 5750 Hits: 35226 = 6.884840e-01 s

Test for Good
To import-> Hits: 35226, Tracks: 5750 Events: 18
Filter with Cuda 1
Time GPU Kernel Cuda1 Events: 18 Tracks: 5750 Hits: 35226 = 1.698880e-04 s
Time CPU Kernel Cuda1 Events: 18 Tracks: 5750 Hits: 35226 = 1.659393e-04 s
Time CPU total Cuda1 Events: 18 Tracks: 5750 Hits: 35226 = 6.965539e-01 s

Test for Good
To import-> Hits: 35226, Tracks: 5750 Events: 18
Filter with Good method
Time CPU total Good Events: 18 Tracks: 5750 Hits: 35226 = 9.319782e-04 s

Test for OpenCL
To import-> Hits: 35226, Tracks: 5750 Events: 18
Filter with OpenCL 2
Time GPU Kernel OpenCl2 Events: 18 Tracks: 5750 Hits: 35226 = 9.9168e-05 s
Time CPU Kernel OpenCl2 Events: 18 Tracks: 5750 Hits: 35226 = 0.000257015 s
Time CPU total OpenCl2 Events: 18 Tracks: 5750 Hits: 35226 = 7.247930e-01 s

Test for OpenCL
To import-> Hits: 35226, Tracks: 5750 Events: 18
Filter with OpenCL 1
Time GPU Kernel OpenCl1 Events: 18 Tracks: 5750 Hits: 35226 = 9.9008e-05 s
Time CPU Kernel OpenCl1 Events: 18 Tracks: 5750 Hits: 35226 = 0.000256062 s
Time CPU total OpenCl1 Events: 18 Tracks: 5750 Hits: 35226 = 7.250021e-01 s

-----------------------------
Test for Bad_Good
To import-> Hits: 38329, Tracks: 6260 Events: 19
To bad->good: Hits: 38329, Tracks: 6260 Events: 19
Filter with Bad_Good method
Time CPU total Bad_Good Events: 19 Tracks: 6260 Hits: 38329 = 1.983881e-03 s

Test for Bad
To import-> Hits: 38329, Tracks: 6260 Events: 19
Filter with Bad method
Time CPU total Bad Events: 19 Tracks: 6260 Hits: 38329 = 1.924038e-03 s

Test for Good
To import-> Hits: 38329, Tracks: 6260 Events: 19
Filter with Cuda 2
Time GPU Kernel Cuda2 Events: 19 Tracks: 6260 Hits: 38329 = 1.420800e-04 s
Time CPU Kernel Cuda2 Events: 19 Tracks: 6260 Hits: 38329 = 1.380444e-04 s
Time CPU total Cuda2 Events: 19 Tracks: 6260 Hits: 38329 = 6.914151e-01 s

Test for Good
To import-> Hits: 38329, Tracks: 6260 Events: 19
Filter with Cuda 1
Time GPU Kernel Cuda1 Events: 19 Tracks: 6260 Hits: 38329 = 1.718720e-04 s
Time CPU Kernel Cuda1 Events: 19 Tracks: 6260 Hits: 38329 = 1.671314e-04 s
Time CPU total Cuda1 Events: 19 Tracks: 6260 Hits: 38329 = 6.860180e-01 s

Test for Good
To import-> Hits: 38329, Tracks: 6260 Events: 19
Filter with Good method
Time CPU total Good Events: 19 Tracks: 6260 Hits: 38329 = 1.013994e-03 s

Test for OpenCL
To import-> Hits: 38329, Tracks: 6260 Events: 19
Filter with OpenCL 2
Time GPU Kernel OpenCl2 Events: 19 Tracks: 6260 Hits: 38329 = 0.000103488 s
Time CPU Kernel OpenCl2 Events: 19 Tracks: 6260 Hits: 38329 = 0.000262976 s
Time CPU total OpenCl2 Events: 19 Tracks: 6260 Hits: 38329 = 7.252040e-01 s

Test for OpenCL
To import-> Hits: 38329, Tracks: 6260 Events: 19
Filter with OpenCL 1
Time GPU Kernel OpenCl1 Events: 19 Tracks: 6260 Hits: 38329 = 0.000103584 s
Time CPU Kernel OpenCl1 Events: 19 Tracks: 6260 Hits: 38329 = 0.000262022 s
Time CPU total OpenCl1 Events: 19 Tracks: 6260 Hits: 38329 = 7.248108e-01 s

-----------------------------
Test for Bad_Good
To import-> Hits: 40004, Tracks: 6560 Events: 20
To bad->good: Hits: 40004, Tracks: 6560 Events: 20
Filter with Bad_Good method
Time CPU total Bad_Good Events: 20 Tracks: 6560 Hits: 40004 = 2.074957e-03 s

Test for Bad
To import-> Hits: 40004, Tracks: 6560 Events: 20
Filter with Bad method
Time CPU total Bad Events: 20 Tracks: 6560 Hits: 40004 = 2.141953e-03 s

Test for Good
To import-> Hits: 40004, Tracks: 6560 Events: 20
Filter with Cuda 2
Time GPU Kernel Cuda2 Events: 20 Tracks: 6560 Hits: 40004 = 1.469760e-04 s
Time CPU Kernel Cuda2 Events: 20 Tracks: 6560 Hits: 40004 = 1.430511e-04 s
Time CPU total Cuda2 Events: 20 Tracks: 6560 Hits: 40004 = 6.926429e-01 s

Test for Good
To import-> Hits: 40004, Tracks: 6560 Events: 20
Filter with Cuda 1
Time GPU Kernel Cuda1 Events: 20 Tracks: 6560 Hits: 40004 = 1.787520e-04 s
Time CPU Kernel Cuda1 Events: 20 Tracks: 6560 Hits: 40004 = 1.730919e-04 s
Time CPU total Cuda1 Events: 20 Tracks: 6560 Hits: 40004 = 6.880720e-01 s

Test for Good
To import-> Hits: 40004, Tracks: 6560 Events: 20
Filter with Good method
Time CPU total Good Events: 20 Tracks: 6560 Hits: 40004 = 1.045942e-03 s

Test for OpenCL
To import-> Hits: 40004, Tracks: 6560 Events: 20
Filter with OpenCL 2
Time GPU Kernel OpenCl2 Events: 20 Tracks: 6560 Hits: 40004 = 0.000104832 s
Time CPU Kernel OpenCl2 Events: 20 Tracks: 6560 Hits: 40004 = 0.000262022 s
Time CPU total OpenCl2 Events: 20 Tracks: 6560 Hits: 40004 = 7.212920e-01 s

Test for OpenCL
To import-> Hits: 40004, Tracks: 6560 Events: 20
Filter with OpenCL 1
Time GPU Kernel OpenCl1 Events: 20 Tracks: 6560 Hits: 40004 = 0.000104864 s
Time CPU Kernel OpenCl1 Events: 20 Tracks: 6560 Hits: 40004 = 0.000262022 s
Time CPU total OpenCl1 Events: 20 Tracks: 6560 Hits: 40004 = 7.190392e-01 s

-----------------------------
Test for Bad_Good
To import-> Hits: 57158, Tracks: 9310 Events: 30
To bad->good: Hits: 57158, Tracks: 9310 Events: 30
Filter with Bad_Good method
Time CPU total Bad_Good Events: 30 Tracks: 9310 Hits: 57158 = 3.015041e-03 s

Test for Bad
To import-> Hits: 57158, Tracks: 9310 Events: 30
Filter with Bad method
Time CPU total Bad Events: 30 Tracks: 9310 Hits: 57158 = 3.202915e-03 s

Test for Good
To import-> Hits: 57158, Tracks: 9310 Events: 30
Filter with Cuda 2
Time GPU Kernel Cuda2 Events: 30 Tracks: 9310 Hits: 57158 = 1.781440e-04 s
Time CPU Kernel Cuda2 Events: 30 Tracks: 9310 Hits: 57158 = 1.721382e-04 s
Time CPU total Cuda2 Events: 30 Tracks: 9310 Hits: 57158 = 6.918070e-01 s

Test for Good
To import-> Hits: 57158, Tracks: 9310 Events: 30
Filter with Cuda 1
Time GPU Kernel Cuda1 Events: 30 Tracks: 9310 Hits: 57158 = 2.214080e-04 s
Time CPU Kernel Cuda1 Events: 30 Tracks: 9310 Hits: 57158 = 2.160072e-04 s
Time CPU total Cuda1 Events: 30 Tracks: 9310 Hits: 57158 = 6.839960e-01 s

Test for Good
To import-> Hits: 57158, Tracks: 9310 Events: 30
Filter with Good method
Time CPU total Good Events: 30 Tracks: 9310 Hits: 57158 = 1.516104e-03 s

Test for OpenCL
To import-> Hits: 57158, Tracks: 9310 Events: 30
Filter with OpenCL 2
Time GPU Kernel OpenCl2 Events: 30 Tracks: 9310 Hits: 57158 = 0.000141216 s
Time CPU Kernel OpenCl2 Events: 30 Tracks: 9310 Hits: 57158 = 0.000169039 s
Time CPU total OpenCl2 Events: 30 Tracks: 9310 Hits: 57158 = 7.260830e-01 s

Test for OpenCL
To import-> Hits: 57158, Tracks: 9310 Events: 30
Filter with OpenCL 1
Time GPU Kernel OpenCl1 Events: 30 Tracks: 9310 Hits: 57158 = 0.000128256 s
Time CPU Kernel OpenCl1 Events: 30 Tracks: 9310 Hits: 57158 = 0.000158787 s
Time CPU total OpenCl1 Events: 30 Tracks: 9310 Hits: 57158 = 7.033820e-01 s

-----------------------------
Test for Bad_Good
To import-> Hits: 75953, Tracks: 12174 Events: 40
To bad->good: Hits: 75953, Tracks: 12174 Events: 40
Filter with Bad_Good method
Time CPU total Bad_Good Events: 40 Tracks: 12174 Hits: 75953 = 3.676891e-03 s

Test for Bad
To import-> Hits: 75953, Tracks: 12174 Events: 40
Filter with Bad method
Time CPU total Bad Events: 40 Tracks: 12174 Hits: 75953 = 3.785133e-03 s

Test for Good
To import-> Hits: 75953, Tracks: 12174 Events: 40
Filter with Cuda 2
Time GPU Kernel Cuda2 Events: 40 Tracks: 12174 Hits: 75953 = 2.113920e-04 s
Time CPU Kernel Cuda2 Events: 40 Tracks: 12174 Hits: 75953 = 2.071857e-04 s
Time CPU total Cuda2 Events: 40 Tracks: 12174 Hits: 75953 = 6.955979e-01 s

Test for Good
To import-> Hits: 75953, Tracks: 12174 Events: 40
Filter with Cuda 1
Time GPU Kernel Cuda1 Events: 40 Tracks: 12174 Hits: 75953 = 2.576960e-04 s
Time CPU Kernel Cuda1 Events: 40 Tracks: 12174 Hits: 75953 = 2.539158e-04 s
Time CPU total Cuda1 Events: 40 Tracks: 12174 Hits: 75953 = 6.898360e-01 s

Test for Good
To import-> Hits: 75953, Tracks: 12174 Events: 40
Filter with Good method
Time CPU total Good Events: 40 Tracks: 12174 Hits: 75953 = 1.978159e-03 s

Test for OpenCL
To import-> Hits: 75953, Tracks: 12174 Events: 40
Filter with OpenCL 2
Time GPU Kernel OpenCl2 Events: 40 Tracks: 12174 Hits: 75953 = 0.0001744 s
Time CPU Kernel OpenCl2 Events: 40 Tracks: 12174 Hits: 75953 = 0.000202179 s
Time CPU total OpenCl2 Events: 40 Tracks: 12174 Hits: 75953 = 6.893351e-01 s

Test for OpenCL
To import-> Hits: 75953, Tracks: 12174 Events: 40
Filter with OpenCL 1
Time GPU Kernel OpenCl1 Events: 40 Tracks: 12174 Hits: 75953 = 0.000157632 s
Time CPU Kernel OpenCl1 Events: 40 Tracks: 12174 Hits: 75953 = 0.000187874 s
Time CPU total OpenCl1 Events: 40 Tracks: 12174 Hits: 75953 = 7.180071e-01 s

-----------------------------
Test for Bad_Good
To import-> Hits: 93663, Tracks: 15024 Events: 50
To bad->good: Hits: 93663, Tracks: 15024 Events: 50
Filter with Bad_Good method
Time CPU total Bad_Good Events: 50 Tracks: 15024 Hits: 93663 = 4.539013e-03 s

Test for Bad
To import-> Hits: 93663, Tracks: 15024 Events: 50
Filter with Bad method
Time CPU total Bad Events: 50 Tracks: 15024 Hits: 93663 = 5.017996e-03 s

Test for Good
To import-> Hits: 93663, Tracks: 15024 Events: 50
Filter with Cuda 2
Time GPU Kernel Cuda2 Events: 50 Tracks: 15024 Hits: 93663 = 2.283520e-04 s
Time CPU Kernel Cuda2 Events: 50 Tracks: 15024 Hits: 93663 = 2.260208e-04 s
Time CPU total Cuda2 Events: 50 Tracks: 15024 Hits: 93663 = 6.869991e-01 s

Test for Good
To import-> Hits: 93663, Tracks: 15024 Events: 50
Filter with Cuda 1
Time GPU Kernel Cuda1 Events: 50 Tracks: 15024 Hits: 93663 = 2.843840e-04 s
Time CPU Kernel Cuda1 Events: 50 Tracks: 15024 Hits: 93663 = 2.820492e-04 s
Time CPU total Cuda1 Events: 50 Tracks: 15024 Hits: 93663 = 6.913412e-01 s

Test for Good
To import-> Hits: 93663, Tracks: 15024 Events: 50
Filter with Good method
Time CPU total Good Events: 50 Tracks: 15024 Hits: 93663 = 2.519131e-03 s

Test for OpenCL
To import-> Hits: 93663, Tracks: 15024 Events: 50
Filter with OpenCL 2
Time GPU Kernel OpenCl2 Events: 50 Tracks: 15024 Hits: 93663 = 0.000192576 s
Time CPU Kernel OpenCl2 Events: 50 Tracks: 15024 Hits: 93663 = 0.000219822 s
Time CPU total OpenCl2 Events: 50 Tracks: 15024 Hits: 93663 = 7.247331e-01 s

Test for OpenCL
To import-> Hits: 93663, Tracks: 15024 Events: 50
Filter with OpenCL 1
Time GPU Kernel OpenCl1 Events: 50 Tracks: 15024 Hits: 93663 = 0.000171968 s
Time CPU Kernel OpenCl1 Events: 50 Tracks: 15024 Hits: 93663 = 0.000200033 s
Time CPU total OpenCl1 Events: 50 Tracks: 15024 Hits: 93663 = 7.259111e-01 s

-----------------------------
Test for Bad_Good
To import-> Hits: 114400, Tracks: 18356 Events: 60
To bad->good: Hits: 114400, Tracks: 18356 Events: 60
Filter with Bad_Good method
Time CPU total Bad_Good Events: 60 Tracks: 18356 Hits: 114400 = 5.934954e-03 s

Test for Bad
To import-> Hits: 114400, Tracks: 18356 Events: 60
Filter with Bad method
Time CPU total Bad Events: 60 Tracks: 18356 Hits: 114400 = 6.633043e-03 s

Test for Good
To import-> Hits: 114400, Tracks: 18356 Events: 60
Filter with Cuda 2
Time GPU Kernel Cuda2 Events: 60 Tracks: 18356 Hits: 114400 = 2.547840e-04 s
Time CPU Kernel Cuda2 Events: 60 Tracks: 18356 Hits: 114400 = 2.529621e-04 s
Time CPU total Cuda2 Events: 60 Tracks: 18356 Hits: 114400 = 6.863530e-01 s

Test for Good
To import-> Hits: 114400, Tracks: 18356 Events: 60
Filter with Cuda 1
Time GPU Kernel Cuda1 Events: 60 Tracks: 18356 Hits: 114400 = 3.132800e-04 s
Time CPU Kernel Cuda1 Events: 60 Tracks: 18356 Hits: 114400 = 3.120899e-04 s
Time CPU total Cuda1 Events: 60 Tracks: 18356 Hits: 114400 = 6.897118e-01 s

Test for Good
To import-> Hits: 114400, Tracks: 18356 Events: 60
Filter with Good method
Time CPU total Good Events: 60 Tracks: 18356 Hits: 114400 = 3.024817e-03 s

Test for OpenCL
To import-> Hits: 114400, Tracks: 18356 Events: 60
Filter with OpenCL 2
Time GPU Kernel OpenCl2 Events: 60 Tracks: 18356 Hits: 114400 = 0.000233344 s
Time CPU Kernel OpenCl2 Events: 60 Tracks: 18356 Hits: 114400 = 0.000388861 s
Time CPU total OpenCl2 Events: 60 Tracks: 18356 Hits: 114400 = 7.310102e-01 s

Test for OpenCL
To import-> Hits: 114400, Tracks: 18356 Events: 60
Filter with OpenCL 1
Time GPU Kernel OpenCl1 Events: 60 Tracks: 18356 Hits: 114400 = 0.000196096 s
Time CPU Kernel OpenCl1 Events: 60 Tracks: 18356 Hits: 114400 = 0.000351906 s
Time CPU total OpenCl1 Events: 60 Tracks: 18356 Hits: 114400 = 7.280180e-01 s

-----------------------------
Test for Bad_Good
To import-> Hits: 135212, Tracks: 21691 Events: 70
To bad->good: Hits: 135212, Tracks: 21691 Events: 70
Filter with Bad_Good method
Time CPU total Bad_Good Events: 70 Tracks: 21691 Hits: 135212 = 6.462097e-03 s

Test for Bad
To import-> Hits: 135212, Tracks: 21691 Events: 70
Filter with Bad method
Time CPU total Bad Events: 70 Tracks: 21691 Hits: 135212 = 6.526947e-03 s

Test for Good
To import-> Hits: 135212, Tracks: 21691 Events: 70
Filter with Cuda 2
Time GPU Kernel Cuda2 Events: 70 Tracks: 21691 Hits: 135212 = 2.753280e-04 s
Time CPU Kernel Cuda2 Events: 70 Tracks: 21691 Hits: 135212 = 2.758503e-04 s
Time CPU total Cuda2 Events: 70 Tracks: 21691 Hits: 135212 = 6.911089e-01 s

Test for Good
To import-> Hits: 135212, Tracks: 21691 Events: 70
Filter with Cuda 1
Time GPU Kernel Cuda1 Events: 70 Tracks: 21691 Hits: 135212 = 3.466560e-04 s
Time CPU Kernel Cuda1 Events: 70 Tracks: 21691 Hits: 135212 = 3.459454e-04 s
Time CPU total Cuda1 Events: 70 Tracks: 21691 Hits: 135212 = 6.911778e-01 s

Test for Good
To import-> Hits: 135212, Tracks: 21691 Events: 70
Filter with Good method
Time CPU total Good Events: 70 Tracks: 21691 Hits: 135212 = 3.604889e-03 s

Test for OpenCL
To import-> Hits: 135212, Tracks: 21691 Events: 70
Filter with OpenCL 2
Time GPU Kernel OpenCl2 Events: 70 Tracks: 21691 Hits: 135212 = 0.000274144 s
Time CPU Kernel OpenCl2 Events: 70 Tracks: 21691 Hits: 135212 = 0.000426054 s
Time CPU total OpenCl2 Events: 70 Tracks: 21691 Hits: 135212 = 7.285240e-01 s

Test for OpenCL
To import-> Hits: 135212, Tracks: 21691 Events: 70
Filter with OpenCL 1
Time GPU Kernel OpenCl1 Events: 70 Tracks: 21691 Hits: 135212 = 0.000218976 s
Time CPU Kernel OpenCl1 Events: 70 Tracks: 21691 Hits: 135212 = 0.000372171 s
Time CPU total OpenCl1 Events: 70 Tracks: 21691 Hits: 135212 = 7.257941e-01 s

-----------------------------
Test for Bad_Good
To import-> Hits: 155915, Tracks: 24967 Events: 80
To bad->good: Hits: 155915, Tracks: 24967 Events: 80
Filter with Bad_Good method
Time CPU total Bad_Good Events: 80 Tracks: 24967 Hits: 155915 = 7.439137e-03 s

Test for Bad
To import-> Hits: 155915, Tracks: 24967 Events: 80
Filter with Bad method
Time CPU total Bad Events: 80 Tracks: 24967 Hits: 155915 = 7.782936e-03 s

Test for Good
To import-> Hits: 155915, Tracks: 24967 Events: 80
Filter with Cuda 2
Time GPU Kernel Cuda2 Events: 80 Tracks: 24967 Hits: 155915 = 3.086400e-04 s
Time CPU Kernel Cuda2 Events: 80 Tracks: 24967 Hits: 155915 = 3.089905e-04 s
Time CPU total Cuda2 Events: 80 Tracks: 24967 Hits: 155915 = 6.853979e-01 s

Test for Good
To import-> Hits: 155915, Tracks: 24967 Events: 80
Filter with Cuda 1
Time GPU Kernel Cuda1 Events: 80 Tracks: 24967 Hits: 155915 = 3.920320e-04 s
Time CPU Kernel Cuda1 Events: 80 Tracks: 24967 Hits: 155915 = 3.929138e-04 s
Time CPU total Cuda1 Events: 80 Tracks: 24967 Hits: 155915 = 6.937339e-01 s

Test for Good
To import-> Hits: 155915, Tracks: 24967 Events: 80
Filter with Good method
Time CPU total Good Events: 80 Tracks: 24967 Hits: 155915 = 4.081964e-03 s

Test for OpenCL
To import-> Hits: 155915, Tracks: 24967 Events: 80
Filter with OpenCL 2
Time GPU Kernel OpenCl2 Events: 80 Tracks: 24967 Hits: 155915 = 0.00029456 s
Time CPU Kernel OpenCl2 Events: 80 Tracks: 24967 Hits: 155915 = 0.000453949 s
Time CPU total OpenCl2 Events: 80 Tracks: 24967 Hits: 155915 = 7.227781e-01 s

Test for OpenCL
To import-> Hits: 155915, Tracks: 24967 Events: 80
Filter with OpenCL 1
Time GPU Kernel OpenCl1 Events: 80 Tracks: 24967 Hits: 155915 = 0.000248608 s
Time CPU Kernel OpenCl1 Events: 80 Tracks: 24967 Hits: 155915 = 0.000447989 s
Time CPU total OpenCl1 Events: 80 Tracks: 24967 Hits: 155915 = 7.266612e-01 s

-----------------------------
Test for Bad_Good
To import-> Hits: 175352, Tracks: 28121 Events: 90
To bad->good: Hits: 175352, Tracks: 28121 Events: 90
Filter with Bad_Good method
Time CPU total Bad_Good Events: 90 Tracks: 28121 Hits: 175352 = 8.766174e-03 s

Test for Bad
To import-> Hits: 175352, Tracks: 28121 Events: 90
Filter with Bad method
Time CPU total Bad Events: 90 Tracks: 28121 Hits: 175352 = 9.245157e-03 s

Test for Good
To import-> Hits: 175352, Tracks: 28121 Events: 90
Filter with Cuda 2
Time GPU Kernel Cuda2 Events: 90 Tracks: 28121 Hits: 175352 = 3.312960e-04 s
Time CPU Kernel Cuda2 Events: 90 Tracks: 28121 Hits: 175352 = 3.330708e-04 s
Time CPU total Cuda2 Events: 90 Tracks: 28121 Hits: 175352 = 7.023041e-01 s

Test for Good
To import-> Hits: 175352, Tracks: 28121 Events: 90
Filter with Cuda 1
Time GPU Kernel Cuda1 Events: 90 Tracks: 28121 Hits: 175352 = 4.285760e-04 s
Time CPU Kernel Cuda1 Events: 90 Tracks: 28121 Hits: 175352 = 4.310608e-04 s
Time CPU total Cuda1 Events: 90 Tracks: 28121 Hits: 175352 = 6.979520e-01 s

Test for Good
To import-> Hits: 175352, Tracks: 28121 Events: 90
Filter with Good method
Time CPU total Good Events: 90 Tracks: 28121 Hits: 175352 = 4.661798e-03 s

Test for OpenCL
To import-> Hits: 175352, Tracks: 28121 Events: 90
Filter with OpenCL 2
Time GPU Kernel OpenCl2 Events: 90 Tracks: 28121 Hits: 175352 = 0.000341696 s
Time CPU Kernel OpenCl2 Events: 90 Tracks: 28121 Hits: 175352 = 0.000492811 s
Time CPU total OpenCl2 Events: 90 Tracks: 28121 Hits: 175352 = 7.464838e-01 s

Test for OpenCL
To import-> Hits: 175352, Tracks: 28121 Events: 90
Filter with OpenCL 1
Time GPU Kernel OpenCl1 Events: 90 Tracks: 28121 Hits: 175352 = 0.000270336 s
Time CPU Kernel OpenCl1 Events: 90 Tracks: 28121 Hits: 175352 = 0.0004251 s
Time CPU total OpenCl1 Events: 90 Tracks: 28121 Hits: 175352 = 7.343092e-01 s

-----------------------------
Test for Bad_Good
To import-> Hits: 196714, Tracks: 31506 Events: 100
To bad->good: Hits: 196714, Tracks: 31506 Events: 100
Filter with Bad_Good method
Time CPU total Bad_Good Events: 100 Tracks: 31506 Hits: 196714 = 9.659052e-03 s

Test for Bad
To import-> Hits: 196714, Tracks: 31506 Events: 100
Filter with Bad method
Time CPU total Bad Events: 100 Tracks: 31506 Hits: 196714 = 1.079988e-02 s

Test for Good
To import-> Hits: 196714, Tracks: 31506 Events: 100
Filter with Cuda 2
Time GPU Kernel Cuda2 Events: 100 Tracks: 31506 Hits: 196714 = 3.643840e-04 s
Time CPU Kernel Cuda2 Events: 100 Tracks: 31506 Hits: 196714 = 3.669262e-04 s
Time CPU total Cuda2 Events: 100 Tracks: 31506 Hits: 196714 = 6.904612e-01 s

Test for Good
To import-> Hits: 196714, Tracks: 31506 Events: 100
Filter with Cuda 1
Time GPU Kernel Cuda1 Events: 100 Tracks: 31506 Hits: 196714 = 4.688320e-04 s
Time CPU Kernel Cuda1 Events: 100 Tracks: 31506 Hits: 196714 = 4.718304e-04 s
Time CPU total Cuda1 Events: 100 Tracks: 31506 Hits: 196714 = 6.913509e-01 s

Test for Good
To import-> Hits: 196714, Tracks: 31506 Events: 100
Filter with Good method
Time CPU total Good Events: 100 Tracks: 31506 Hits: 196714 = 5.203009e-03 s

Test for OpenCL
To import-> Hits: 196714, Tracks: 31506 Events: 100
Filter with OpenCL 2
Time GPU Kernel OpenCl2 Events: 100 Tracks: 31506 Hits: 196714 = 0.00036688 s
Time CPU Kernel OpenCl2 Events: 100 Tracks: 31506 Hits: 196714 = 0.000528812 s
Time CPU total OpenCl2 Events: 100 Tracks: 31506 Hits: 196714 = 7.315409e-01 s

Test for OpenCL
To import-> Hits: 196714, Tracks: 31506 Events: 100
Filter with OpenCL 1
Time GPU Kernel OpenCl1 Events: 100 Tracks: 31506 Hits: 196714 = 0.000298176 s
Time CPU Kernel OpenCl1 Events: 100 Tracks: 31506 Hits: 196714 = 0.000455141 s
Time CPU total OpenCl1 Events: 100 Tracks: 31506 Hits: 196714 = 7.243719e-01 s

-----------------------------
Test for Bad_Good
To import-> Hits: 214801, Tracks: 34413 Events: 110
To bad->good: Hits: 214801, Tracks: 34413 Events: 110
Filter with Bad_Good method
Time CPU total Bad_Good Events: 110 Tracks: 34413 Hits: 214801 = 1.045322e-02 s

Test for Bad
To import-> Hits: 214801, Tracks: 34413 Events: 110
Filter with Bad method
Time CPU total Bad Events: 110 Tracks: 34413 Hits: 214801 = 1.217389e-02 s

Test for Good
To import-> Hits: 214801, Tracks: 34413 Events: 110
Filter with Cuda 2
Time GPU Kernel Cuda2 Events: 110 Tracks: 34413 Hits: 214801 = 3.921280e-04 s
Time CPU Kernel Cuda2 Events: 110 Tracks: 34413 Hits: 214801 = 3.960133e-04 s
Time CPU total Cuda2 Events: 110 Tracks: 34413 Hits: 214801 = 6.946919e-01 s

Test for Good
To import-> Hits: 214801, Tracks: 34413 Events: 110
Filter with Cuda 1
Time GPU Kernel Cuda1 Events: 110 Tracks: 34413 Hits: 214801 = 5.044480e-04 s
Time CPU Kernel Cuda1 Events: 110 Tracks: 34413 Hits: 214801 = 5.078316e-04 s
Time CPU total Cuda1 Events: 110 Tracks: 34413 Hits: 214801 = 6.932111e-01 s

Test for Good
To import-> Hits: 214801, Tracks: 34413 Events: 110
Filter with Good method
Time CPU total Good Events: 110 Tracks: 34413 Hits: 214801 = 5.532980e-03 s

Test for OpenCL
To import-> Hits: 214801, Tracks: 34413 Events: 110
Filter with OpenCL 2
Time GPU Kernel OpenCl2 Events: 110 Tracks: 34413 Hits: 214801 = 0.000394112 s
Time CPU Kernel OpenCl2 Events: 110 Tracks: 34413 Hits: 214801 = 0.000545025 s
Time CPU total OpenCl2 Events: 110 Tracks: 34413 Hits: 214801 = 7.243700e-01 s

Test for OpenCL
To import-> Hits: 214801, Tracks: 34413 Events: 110
Filter with OpenCL 1
Time GPU Kernel OpenCl1 Events: 110 Tracks: 34413 Hits: 214801 = 0.00032064 s
Time CPU Kernel OpenCl1 Events: 110 Tracks: 34413 Hits: 214801 = 0.00047493 s
Time CPU total OpenCl1 Events: 110 Tracks: 34413 Hits: 214801 = 7.334681e-01 s

-----------------------------
Test for Bad_Good
To import-> Hits: 233881, Tracks: 37459 Events: 120
To bad->good: Hits: 233881, Tracks: 37459 Events: 120
Filter with Bad_Good method
Time CPU total Bad_Good Events: 120 Tracks: 37459 Hits: 233881 = 1.201606e-02 s

Test for Bad
To import-> Hits: 233881, Tracks: 37459 Events: 120
Filter with Bad method
Time CPU total Bad Events: 120 Tracks: 37459 Hits: 233881 = 1.345491e-02 s

Test for Good
To import-> Hits: 233881, Tracks: 37459 Events: 120
Filter with Cuda 2
Time GPU Kernel Cuda2 Events: 120 Tracks: 37459 Hits: 233881 = 4.170240e-04 s
Time CPU Kernel Cuda2 Events: 120 Tracks: 37459 Hits: 233881 = 4.220009e-04 s
Time CPU total Cuda2 Events: 120 Tracks: 37459 Hits: 233881 = 6.974840e-01 s

Test for Good
To import-> Hits: 233881, Tracks: 37459 Events: 120
Filter with Cuda 1
Time GPU Kernel Cuda1 Events: 120 Tracks: 37459 Hits: 233881 = 5.454720e-04 s
Time CPU Kernel Cuda1 Events: 120 Tracks: 37459 Hits: 233881 = 5.497932e-04 s
Time CPU total Cuda1 Events: 120 Tracks: 37459 Hits: 233881 = 6.953380e-01 s

Test for Good
To import-> Hits: 233881, Tracks: 37459 Events: 120
Filter with Good method
Time CPU total Good Events: 120 Tracks: 37459 Hits: 233881 = 6.271839e-03 s

Test for OpenCL
To import-> Hits: 233881, Tracks: 37459 Events: 120
Filter with OpenCL 2
Time GPU Kernel OpenCl2 Events: 120 Tracks: 37459 Hits: 233881 = 0.000437248 s
Time CPU Kernel OpenCl2 Events: 120 Tracks: 37459 Hits: 233881 = 0.000592947 s
Time CPU total OpenCl2 Events: 120 Tracks: 37459 Hits: 233881 = 7.344711e-01 s

Test for OpenCL
To import-> Hits: 233881, Tracks: 37459 Events: 120
Filter with OpenCL 1
Time GPU Kernel OpenCl1 Events: 120 Tracks: 37459 Hits: 233881 = 0.000347232 s
Time CPU Kernel OpenCl1 Events: 120 Tracks: 37459 Hits: 233881 = 0.000503063 s
Time CPU total OpenCl1 Events: 120 Tracks: 37459 Hits: 233881 = 7.274089e-01 s

-----------------------------
Test for Bad_Good
To import-> Hits: 254225, Tracks: 40754 Events: 130
To bad->good: Hits: 254225, Tracks: 40754 Events: 130
Filter with Bad_Good method
Time CPU total Bad_Good Events: 130 Tracks: 40754 Hits: 254225 = 1.088786e-02 s

Test for Bad
To import-> Hits: 254225, Tracks: 40754 Events: 130
Filter with Bad method
Time CPU total Bad Events: 130 Tracks: 40754 Hits: 254225 = 1.180196e-02 s

Test for Good
To import-> Hits: 254225, Tracks: 40754 Events: 130
Filter with Cuda 2
Time GPU Kernel Cuda2 Events: 130 Tracks: 40754 Hits: 254225 = 4.467200e-04 s
Time CPU Kernel Cuda2 Events: 130 Tracks: 40754 Hits: 254225 = 4.520416e-04 s
Time CPU total Cuda2 Events: 130 Tracks: 40754 Hits: 254225 = 6.971610e-01 s

Test for Good
To import-> Hits: 254225, Tracks: 40754 Events: 130
Filter with Cuda 1
Time GPU Kernel Cuda1 Events: 130 Tracks: 40754 Hits: 254225 = 5.795840e-04 s
Time CPU Kernel Cuda1 Events: 130 Tracks: 40754 Hits: 254225 = 5.848408e-04 s
Time CPU total Cuda1 Events: 130 Tracks: 40754 Hits: 254225 = 6.981199e-01 s

Test for Good
To import-> Hits: 254225, Tracks: 40754 Events: 130
Filter with Good method
Time CPU total Good Events: 130 Tracks: 40754 Hits: 254225 = 6.712198e-03 s

Test for OpenCL
To import-> Hits: 254225, Tracks: 40754 Events: 130
Filter with OpenCL 2
Time GPU Kernel OpenCl2 Events: 130 Tracks: 40754 Hits: 254225 = 0.000479712 s
Time CPU Kernel OpenCl2 Events: 130 Tracks: 40754 Hits: 254225 = 0.000632048 s
Time CPU total OpenCl2 Events: 130 Tracks: 40754 Hits: 254225 = 7.354829e-01 s

Test for OpenCL
To import-> Hits: 254225, Tracks: 40754 Events: 130
Filter with OpenCL 1
Time GPU Kernel OpenCl1 Events: 130 Tracks: 40754 Hits: 254225 = 0.000372832 s
Time CPU Kernel OpenCl1 Events: 130 Tracks: 40754 Hits: 254225 = 0.000539064 s
Time CPU total OpenCl1 Events: 130 Tracks: 40754 Hits: 254225 = 7.365282e-01 s

-----------------------------
Test for Bad_Good
To import-> Hits: 278857, Tracks: 44705 Events: 140
To bad->good: Hits: 278857, Tracks: 44705 Events: 140
Filter with Bad_Good method
Time CPU total Bad_Good Events: 140 Tracks: 44705 Hits: 278857 = 1.300716e-02 s

Test for Bad
To import-> Hits: 278857, Tracks: 44705 Events: 140
Filter with Bad method
Time CPU total Bad Events: 140 Tracks: 44705 Hits: 278857 = 1.316094e-02 s

Test for Good
To import-> Hits: 278857, Tracks: 44705 Events: 140
Filter with Cuda 2
Time GPU Kernel Cuda2 Events: 140 Tracks: 44705 Hits: 278857 = 4.817600e-04 s
Time CPU Kernel Cuda2 Events: 140 Tracks: 44705 Hits: 278857 = 4.889965e-04 s
Time CPU total Cuda2 Events: 140 Tracks: 44705 Hits: 278857 = 6.997349e-01 s

Test for Good
To import-> Hits: 278857, Tracks: 44705 Events: 140
Filter with Cuda 1
Time GPU Kernel Cuda1 Events: 140 Tracks: 44705 Hits: 278857 = 6.383361e-04 s
Time CPU Kernel Cuda1 Events: 140 Tracks: 44705 Hits: 278857 = 6.439686e-04 s
Time CPU total Cuda1 Events: 140 Tracks: 44705 Hits: 278857 = 6.997650e-01 s

Test for Good
To import-> Hits: 278857, Tracks: 44705 Events: 140
Filter with Good method
Time CPU total Good Events: 140 Tracks: 44705 Hits: 278857 = 7.358074e-03 s

Test for OpenCL
To import-> Hits: 278857, Tracks: 44705 Events: 140
Filter with OpenCL 2
Time GPU Kernel OpenCl2 Events: 140 Tracks: 44705 Hits: 278857 = 0.00052592 s
Time CPU Kernel OpenCl2 Events: 140 Tracks: 44705 Hits: 278857 = 0.000684023 s
Time CPU total OpenCl2 Events: 140 Tracks: 44705 Hits: 278857 = 7.367909e-01 s

Test for OpenCL
To import-> Hits: 278857, Tracks: 44705 Events: 140
Filter with OpenCL 1
Time GPU Kernel OpenCl1 Events: 140 Tracks: 44705 Hits: 278857 = 0.00040416 s
Time CPU Kernel OpenCl1 Events: 140 Tracks: 44705 Hits: 278857 = 0.000561237 s
Time CPU total OpenCl1 Events: 140 Tracks: 44705 Hits: 278857 = 7.364159e-01 s

-----------------------------
Test for Bad_Good
To import-> Hits: 299938, Tracks: 48106 Events: 150
To bad->good: Hits: 299938, Tracks: 48106 Events: 150
Filter with Bad_Good method
Time CPU total Bad_Good Events: 150 Tracks: 48106 Hits: 299938 = 1.432896e-02 s

Test for Bad
To import-> Hits: 299938, Tracks: 48106 Events: 150
Filter with Bad method
Time CPU total Bad Events: 150 Tracks: 48106 Hits: 299938 = 1.430106e-02 s

Test for Good
To import-> Hits: 299938, Tracks: 48106 Events: 150
Filter with Cuda 2
Time GPU Kernel Cuda2 Events: 150 Tracks: 48106 Hits: 299938 = 5.107200e-04 s
Time CPU Kernel Cuda2 Events: 150 Tracks: 48106 Hits: 299938 = 5.190372e-04 s
Time CPU total Cuda2 Events: 150 Tracks: 48106 Hits: 299938 = 7.071512e-01 s

Test for Good
To import-> Hits: 299938, Tracks: 48106 Events: 150
Filter with Cuda 1
Time GPU Kernel Cuda1 Events: 150 Tracks: 48106 Hits: 299938 = 6.648000e-04 s
Time CPU Kernel Cuda1 Events: 150 Tracks: 48106 Hits: 299938 = 6.728172e-04 s
Time CPU total Cuda1 Events: 150 Tracks: 48106 Hits: 299938 = 7.033319e-01 s

Test for Good
To import-> Hits: 299938, Tracks: 48106 Events: 150
Filter with Good method
Time CPU total Good Events: 150 Tracks: 48106 Hits: 299938 = 7.866144e-03 s

Test for OpenCL
To import-> Hits: 299938, Tracks: 48106 Events: 150
Filter with OpenCL 2
Time GPU Kernel OpenCl2 Events: 150 Tracks: 48106 Hits: 299938 = 0.000564064 s
Time CPU Kernel OpenCl2 Events: 150 Tracks: 48106 Hits: 299938 = 0.000720024 s
Time CPU total OpenCl2 Events: 150 Tracks: 48106 Hits: 299938 = 7.447171e-01 s

Test for OpenCL
To import-> Hits: 299938, Tracks: 48106 Events: 150
Filter with OpenCL 1
Time GPU Kernel OpenCl1 Events: 150 Tracks: 48106 Hits: 299938 = 0.000431104 s
Time CPU Kernel OpenCl1 Events: 150 Tracks: 48106 Hits: 299938 = 0.000586987 s
Time CPU total OpenCl1 Events: 150 Tracks: 48106 Hits: 299938 = 7.395749e-01 s

-----------------------------
Test for Bad_Good
To import-> Hits: 321407, Tracks: 51627 Events: 160
To bad->good: Hits: 321407, Tracks: 51627 Events: 160
Filter with Bad_Good method
Time CPU total Bad_Good Events: 160 Tracks: 51627 Hits: 321407 = 1.506805e-02 s

Test for Bad
To import-> Hits: 321407, Tracks: 51627 Events: 160
Filter with Bad method
Time CPU total Bad Events: 160 Tracks: 51627 Hits: 321407 = 1.579523e-02 s

Test for Good
To import-> Hits: 321407, Tracks: 51627 Events: 160
Filter with Cuda 2
Time GPU Kernel Cuda2 Events: 160 Tracks: 51627 Hits: 321407 = 5.361920e-04 s
Time CPU Kernel Cuda2 Events: 160 Tracks: 51627 Hits: 321407 = 5.450249e-04 s
Time CPU total Cuda2 Events: 160 Tracks: 51627 Hits: 321407 = 6.947811e-01 s

Test for Good
To import-> Hits: 321407, Tracks: 51627 Events: 160
Filter with Cuda 1
Time GPU Kernel Cuda1 Events: 160 Tracks: 51627 Hits: 321407 = 7.100801e-04 s
Time CPU Kernel Cuda1 Events: 160 Tracks: 51627 Hits: 321407 = 7.190704e-04 s
Time CPU total Cuda1 Events: 160 Tracks: 51627 Hits: 321407 = 6.974771e-01 s

Test for Good
To import-> Hits: 321407, Tracks: 51627 Events: 160
Filter with Good method
Time CPU total Good Events: 160 Tracks: 51627 Hits: 321407 = 8.331060e-03 s

Test for OpenCL
To import-> Hits: 321407, Tracks: 51627 Events: 160
Filter with OpenCL 2
Time GPU Kernel OpenCl2 Events: 160 Tracks: 51627 Hits: 321407 = 0.000584512 s
Time CPU Kernel OpenCl2 Events: 160 Tracks: 51627 Hits: 321407 = 0.000735044 s
Time CPU total OpenCl2 Events: 160 Tracks: 51627 Hits: 321407 = 7.271259e-01 s

Test for OpenCL
To import-> Hits: 321407, Tracks: 51627 Events: 160
Filter with OpenCL 1
Time GPU Kernel OpenCl1 Events: 160 Tracks: 51627 Hits: 321407 = 0.000458528 s
Time CPU Kernel OpenCl1 Events: 160 Tracks: 51627 Hits: 321407 = 0.000611067 s
Time CPU total OpenCl1 Events: 160 Tracks: 51627 Hits: 321407 = 7.373919e-01 s

-----------------------------
Test for Bad_Good
To import-> Hits: 339287, Tracks: 54445 Events: 170
To bad->good: Hits: 339287, Tracks: 54445 Events: 170
Filter with Bad_Good method
Time CPU total Bad_Good Events: 170 Tracks: 54445 Hits: 339287 = 1.593208e-02 s

Test for Bad
To import-> Hits: 339287, Tracks: 54445 Events: 170
Filter with Bad method
Time CPU total Bad Events: 170 Tracks: 54445 Hits: 339287 = 1.687908e-02 s

Test for Good
To import-> Hits: 339287, Tracks: 54445 Events: 170
Filter with Cuda 2
Time GPU Kernel Cuda2 Events: 170 Tracks: 54445 Hits: 339287 = 5.642881e-04 s
Time CPU Kernel Cuda2 Events: 170 Tracks: 54445 Hits: 339287 = 5.750656e-04 s
Time CPU total Cuda2 Events: 170 Tracks: 54445 Hits: 339287 = 7.010989e-01 s

Test for Good
To import-> Hits: 339287, Tracks: 54445 Events: 170
Filter with Cuda 1
Time GPU Kernel Cuda1 Events: 170 Tracks: 54445 Hits: 339287 = 7.447040e-04 s
Time CPU Kernel Cuda1 Events: 170 Tracks: 54445 Hits: 339287 = 7.550716e-04 s
Time CPU total Cuda1 Events: 170 Tracks: 54445 Hits: 339287 = 6.925581e-01 s

Test for Good
To import-> Hits: 339287, Tracks: 54445 Events: 170
Filter with Good method
Time CPU total Good Events: 170 Tracks: 54445 Hits: 339287 = 8.956909e-03 s

Test for OpenCL
To import-> Hits: 339287, Tracks: 54445 Events: 170
Filter with OpenCL 2
Time GPU Kernel OpenCl2 Events: 170 Tracks: 54445 Hits: 339287 = 0.000620096 s
Time CPU Kernel OpenCl2 Events: 170 Tracks: 54445 Hits: 339287 = 0.000772953 s
Time CPU total OpenCl2 Events: 170 Tracks: 54445 Hits: 339287 = 1.508353e+00 s

Test for OpenCL
To import-> Hits: 339287, Tracks: 54445 Events: 170
Filter with OpenCL 1
Time GPU Kernel OpenCl1 Events: 170 Tracks: 54445 Hits: 339287 = 0.000479264 s
Time CPU Kernel OpenCl1 Events: 170 Tracks: 54445 Hits: 339287 = 0.000636101 s
Time CPU total OpenCl1 Events: 170 Tracks: 54445 Hits: 339287 = 7.278790e-01 s

-----------------------------
Test for Bad_Good
To import-> Hits: 357414, Tracks: 57335 Events: 180
To bad->good: Hits: 357414, Tracks: 57335 Events: 180
Filter with Bad_Good method
Time CPU total Bad_Good Events: 180 Tracks: 57335 Hits: 357414 = 1.686406e-02 s

Test for Bad
To import-> Hits: 357414, Tracks: 57335 Events: 180
Filter with Bad method
Time CPU total Bad Events: 180 Tracks: 57335 Hits: 357414 = 1.828504e-02 s

Test for Good
To import-> Hits: 357414, Tracks: 57335 Events: 180
Filter with Cuda 2
Time GPU Kernel Cuda2 Events: 180 Tracks: 57335 Hits: 357414 = 5.873601e-04 s
Time CPU Kernel Cuda2 Events: 180 Tracks: 57335 Hits: 357414 = 5.989075e-04 s
Time CPU total Cuda2 Events: 180 Tracks: 57335 Hits: 357414 = 6.945322e-01 s

Test for Good
To import-> Hits: 357414, Tracks: 57335 Events: 180
Filter with Cuda 1
Time GPU Kernel Cuda1 Events: 180 Tracks: 57335 Hits: 357414 = 7.769280e-04 s
Time CPU Kernel Cuda1 Events: 180 Tracks: 57335 Hits: 357414 = 7.979870e-04 s
Time CPU total Cuda1 Events: 180 Tracks: 57335 Hits: 357414 = 6.935780e-01 s

Test for Good
To import-> Hits: 357414, Tracks: 57335 Events: 180
Filter with Good method
Time CPU total Good Events: 180 Tracks: 57335 Hits: 357414 = 9.621859e-03 s

Test for OpenCL
To import-> Hits: 357414, Tracks: 57335 Events: 180
Filter with OpenCL 2
Time GPU Kernel OpenCl2 Events: 180 Tracks: 57335 Hits: 357414 = 0.000650976 s
Time CPU Kernel OpenCl2 Events: 180 Tracks: 57335 Hits: 357414 = 0.000799179 s
Time CPU total OpenCl2 Events: 180 Tracks: 57335 Hits: 357414 = 7.391729e-01 s

Test for OpenCL
To import-> Hits: 357414, Tracks: 57335 Events: 180
Filter with OpenCL 1
Time GPU Kernel OpenCl1 Events: 180 Tracks: 57335 Hits: 357414 = 0.00050224 s
Time CPU Kernel OpenCl1 Events: 180 Tracks: 57335 Hits: 357414 = 0.000652075 s
Time CPU total OpenCl1 Events: 180 Tracks: 57335 Hits: 357414 = 7.307239e-01 s

-----------------------------
Test for Bad_Good
To import-> Hits: 377316, Tracks: 60572 Events: 190
To bad->good: Hits: 377316, Tracks: 60572 Events: 190
Filter with Bad_Good method
Time CPU total Bad_Good Events: 190 Tracks: 60572 Hits: 377316 = 1.733565e-02 s

Test for Bad
To import-> Hits: 377316, Tracks: 60572 Events: 190
Filter with Bad method
Time CPU total Bad Events: 190 Tracks: 60572 Hits: 377316 = 1.991701e-02 s

Test for Good
To import-> Hits: 377316, Tracks: 60572 Events: 190
Filter with Cuda 2
Time GPU Kernel Cuda2 Events: 190 Tracks: 60572 Hits: 377316 = 6.242880e-04 s
Time CPU Kernel Cuda2 Events: 190 Tracks: 60572 Hits: 377316 = 6.361008e-04 s
Time CPU total Cuda2 Events: 190 Tracks: 60572 Hits: 377316 = 7.043679e-01 s

Test for Good
To import-> Hits: 377316, Tracks: 60572 Events: 190
Filter with Cuda 1
Time GPU Kernel Cuda1 Events: 190 Tracks: 60572 Hits: 377316 = 8.130880e-04 s
Time CPU Kernel Cuda1 Events: 190 Tracks: 60572 Hits: 377316 = 8.239746e-04 s
Time CPU total Cuda1 Events: 190 Tracks: 60572 Hits: 377316 = 6.995709e-01 s

Test for Good
To import-> Hits: 377316, Tracks: 60572 Events: 190
Filter with Good method
Time CPU total Good Events: 190 Tracks: 60572 Hits: 377316 = 9.296179e-03 s

Test for OpenCL
To import-> Hits: 377316, Tracks: 60572 Events: 190
Filter with OpenCL 2
Time GPU Kernel OpenCl2 Events: 190 Tracks: 60572 Hits: 377316 = 0.00068784 s
Time CPU Kernel OpenCl2 Events: 190 Tracks: 60572 Hits: 377316 = 0.000838041 s
Time CPU total OpenCl2 Events: 190 Tracks: 60572 Hits: 377316 = 7.479200e-01 s

Test for OpenCL
To import-> Hits: 377316, Tracks: 60572 Events: 190
Filter with OpenCL 1
Time GPU Kernel OpenCl1 Events: 190 Tracks: 60572 Hits: 377316 = 0.000519168 s
Time CPU Kernel OpenCl1 Events: 190 Tracks: 60572 Hits: 377316 = 0.000669003 s
Time CPU total OpenCl1 Events: 190 Tracks: 60572 Hits: 377316 = 7.420790e-01 s

-----------------------------
Test for Bad_Good
To import-> Hits: 398354, Tracks: 63921 Events: 200
To bad->good: Hits: 398354, Tracks: 63921 Events: 200
Filter with Bad_Good method
Time CPU total Bad_Good Events: 200 Tracks: 63921 Hits: 398354 = 1.841903e-02 s

Test for Bad
To import-> Hits: 398354, Tracks: 63921 Events: 200
Filter with Bad method
Time CPU total Bad Events: 200 Tracks: 63921 Hits: 398354 = 2.135992e-02 s

Test for Good
To import-> Hits: 398354, Tracks: 63921 Events: 200
Filter with Cuda 2
Time GPU Kernel Cuda2 Events: 200 Tracks: 63921 Hits: 398354 = 6.466880e-04 s
Time CPU Kernel Cuda2 Events: 200 Tracks: 63921 Hits: 398354 = 6.589890e-04 s
Time CPU total Cuda2 Events: 200 Tracks: 63921 Hits: 398354 = 6.784031e-01 s

Test for Good
To import-> Hits: 398354, Tracks: 63921 Events: 200
Filter with Cuda 1
Time GPU Kernel Cuda1 Events: 200 Tracks: 63921 Hits: 398354 = 8.610561e-04 s
Time CPU Kernel Cuda1 Events: 200 Tracks: 63921 Hits: 398354 = 8.749962e-04 s
Time CPU total Cuda1 Events: 200 Tracks: 63921 Hits: 398354 = 6.997070e-01 s

Test for Good
To import-> Hits: 398354, Tracks: 63921 Events: 200
Filter with Good method
Time CPU total Good Events: 200 Tracks: 63921 Hits: 398354 = 1.064396e-02 s

Test for OpenCL
To import-> Hits: 398354, Tracks: 63921 Events: 200
Filter with OpenCL 2
Time GPU Kernel OpenCl2 Events: 200 Tracks: 63921 Hits: 398354 = 0.000686464 s
Time CPU Kernel OpenCl2 Events: 200 Tracks: 63921 Hits: 398354 = 0.000838041 s
Time CPU total OpenCl2 Events: 200 Tracks: 63921 Hits: 398354 = 7.358050e-01 s

Test for OpenCL
To import-> Hits: 398354, Tracks: 63921 Events: 200
Filter with OpenCL 1
Time GPU Kernel OpenCl1 Events: 200 Tracks: 63921 Hits: 398354 = 0.000553728 s
Time CPU Kernel OpenCl1 Events: 200 Tracks: 63921 Hits: 398354 = 0.000710964 s
Time CPU total OpenCl1 Events: 200 Tracks: 63921 Hits: 398354 = 7.319791e-01 s

-----------------------------
Test for Bad_Good
To import-> Hits: 416406, Tracks: 66802 Events: 210
To bad->good: Hits: 416406, Tracks: 66802 Events: 210
Filter with Bad_Good method
Time CPU total Bad_Good Events: 210 Tracks: 66802 Hits: 416406 = 2.184510e-02 s

Test for Bad
To import-> Hits: 416406, Tracks: 66802 Events: 210
Filter with Bad method
Time CPU total Bad Events: 210 Tracks: 66802 Hits: 416406 = 2.241802e-02 s

Test for Good
To import-> Hits: 416406, Tracks: 66802 Events: 210
Filter with Cuda 2
Time GPU Kernel Cuda2 Events: 210 Tracks: 66802 Hits: 416406 = 6.752320e-04 s
Time CPU Kernel Cuda2 Events: 210 Tracks: 66802 Hits: 416406 = 6.899834e-04 s
Time CPU total Cuda2 Events: 210 Tracks: 66802 Hits: 416406 = 6.988049e-01 s

Test for Good
To import-> Hits: 416406, Tracks: 66802 Events: 210
Filter with Cuda 1
Time GPU Kernel Cuda1 Events: 210 Tracks: 66802 Hits: 416406 = 9.015040e-04 s
Time CPU Kernel Cuda1 Events: 210 Tracks: 66802 Hits: 416406 = 9.160042e-04 s
Time CPU total Cuda1 Events: 210 Tracks: 66802 Hits: 416406 = 6.973391e-01 s

Test for Good
To import-> Hits: 416406, Tracks: 66802 Events: 210
Filter with Good method
Time CPU total Good Events: 210 Tracks: 66802 Hits: 416406 = 1.101208e-02 s

Test for OpenCL
To import-> Hits: 416406, Tracks: 66802 Events: 210
Filter with OpenCL 2
Time GPU Kernel OpenCl2 Events: 210 Tracks: 66802 Hits: 416406 = 0.000751392 s
Time CPU Kernel OpenCl2 Events: 210 Tracks: 66802 Hits: 416406 = 0.000904083 s
Time CPU total OpenCl2 Events: 210 Tracks: 66802 Hits: 416406 = 7.360911e-01 s

Test for OpenCL
To import-> Hits: 416406, Tracks: 66802 Events: 210
Filter with OpenCL 1
Time GPU Kernel OpenCl1 Events: 210 Tracks: 66802 Hits: 416406 = 0.00057936 s
Time CPU Kernel OpenCl1 Events: 210 Tracks: 66802 Hits: 416406 = 0.000730991 s
Time CPU total OpenCl1 Events: 210 Tracks: 66802 Hits: 416406 = 7.310660e-01 s

-----------------------------
Test for Bad_Good
To import-> Hits: 435132, Tracks: 69786 Events: 220
To bad->good: Hits: 435132, Tracks: 69786 Events: 220
Filter with Bad_Good method
Time CPU total Bad_Good Events: 220 Tracks: 69786 Hits: 435132 = 2.106214e-02 s

Test for Bad
To import-> Hits: 435132, Tracks: 69786 Events: 220
Filter with Bad method
Time CPU total Bad Events: 220 Tracks: 69786 Hits: 435132 = 2.369595e-02 s

Test for Good
To import-> Hits: 435132, Tracks: 69786 Events: 220
Filter with Cuda 2
Time GPU Kernel Cuda2 Events: 220 Tracks: 69786 Hits: 435132 = 7.031041e-04 s
Time CPU Kernel Cuda2 Events: 220 Tracks: 69786 Hits: 435132 = 7.181168e-04 s
Time CPU total Cuda2 Events: 220 Tracks: 69786 Hits: 435132 = 7.115541e-01 s

Test for Good
To import-> Hits: 435132, Tracks: 69786 Events: 220
Filter with Cuda 1
Time GPU Kernel Cuda1 Events: 220 Tracks: 69786 Hits: 435132 = 9.290880e-04 s
Time CPU Kernel Cuda1 Events: 220 Tracks: 69786 Hits: 435132 = 9.438992e-04 s
Time CPU total Cuda1 Events: 220 Tracks: 69786 Hits: 435132 = 6.914880e-01 s

Test for Good
To import-> Hits: 435132, Tracks: 69786 Events: 220
Filter with Good method
Time CPU total Good Events: 220 Tracks: 69786 Hits: 435132 = 1.139903e-02 s

Test for OpenCL
To import-> Hits: 435132, Tracks: 69786 Events: 220
Filter with OpenCL 2
Time GPU Kernel OpenCl2 Events: 220 Tracks: 69786 Hits: 435132 = 0.000784992 s
Time CPU Kernel OpenCl2 Events: 220 Tracks: 69786 Hits: 435132 = 0.000936985 s
Time CPU total OpenCl2 Events: 220 Tracks: 69786 Hits: 435132 = 7.366822e-01 s

Test for OpenCL
To import-> Hits: 435132, Tracks: 69786 Events: 220
Filter with OpenCL 1
Time GPU Kernel OpenCl1 Events: 220 Tracks: 69786 Hits: 435132 = 0.000605184 s
Time CPU Kernel OpenCl1 Events: 220 Tracks: 69786 Hits: 435132 = 0.000756025 s
Time CPU total OpenCl1 Events: 220 Tracks: 69786 Hits: 435132 = 7.372539e-01 s

-----------------------------
Test for Bad_Good
To import-> Hits: 452586, Tracks: 72547 Events: 230
To bad->good: Hits: 452586, Tracks: 72547 Events: 230
Filter with Bad_Good method
Time CPU total Bad_Good Events: 230 Tracks: 72547 Hits: 452586 = 2.187085e-02 s

Test for Bad
To import-> Hits: 452586, Tracks: 72547 Events: 230
Filter with Bad method
Time CPU total Bad Events: 230 Tracks: 72547 Hits: 452586 = 2.482986e-02 s

Test for Good
To import-> Hits: 452586, Tracks: 72547 Events: 230
Filter with Cuda 2
Time GPU Kernel Cuda2 Events: 230 Tracks: 72547 Hits: 452586 = 7.278401e-04 s
Time CPU Kernel Cuda2 Events: 230 Tracks: 72547 Hits: 452586 = 7.438660e-04 s
Time CPU total Cuda2 Events: 230 Tracks: 72547 Hits: 452586 = 7.129409e-01 s

Test for Good
To import-> Hits: 452586, Tracks: 72547 Events: 230
Filter with Cuda 1
Time GPU Kernel Cuda1 Events: 230 Tracks: 72547 Hits: 452586 = 9.727360e-04 s
Time CPU Kernel Cuda1 Events: 230 Tracks: 72547 Hits: 452586 = 9.870529e-04 s
Time CPU total Cuda1 Events: 230 Tracks: 72547 Hits: 452586 = 7.058060e-01 s

Test for Good
To import-> Hits: 452586, Tracks: 72547 Events: 230
Filter with Good method
Time CPU total Good Events: 230 Tracks: 72547 Hits: 452586 = 1.148415e-02 s

Test for OpenCL
To import-> Hits: 452586, Tracks: 72547 Events: 230
Filter with OpenCL 2
Time GPU Kernel OpenCl2 Events: 230 Tracks: 72547 Hits: 452586 = 0.000797152 s
Time CPU Kernel OpenCl2 Events: 230 Tracks: 72547 Hits: 452586 = 0.000947952 s
Time CPU total OpenCl2 Events: 230 Tracks: 72547 Hits: 452586 = 7.483180e-01 s

Test for OpenCL
To import-> Hits: 452586, Tracks: 72547 Events: 230
Filter with OpenCL 1
Time GPU Kernel OpenCl1 Events: 230 Tracks: 72547 Hits: 452586 = 0.000625056 s
Time CPU Kernel OpenCl1 Events: 230 Tracks: 72547 Hits: 452586 = 0.000779152 s
Time CPU total OpenCl1 Events: 230 Tracks: 72547 Hits: 452586 = 7.420020e-01 s

-----------------------------
Test for Bad_Good
To import-> Hits: 474872, Tracks: 76144 Events: 240
To bad->good: Hits: 474872, Tracks: 76144 Events: 240
Filter with Bad_Good method
Time CPU total Bad_Good Events: 240 Tracks: 76144 Hits: 474872 = 2.344084e-02 s

Test for Bad
To import-> Hits: 474872, Tracks: 76144 Events: 240
Filter with Bad method
Time CPU total Bad Events: 240 Tracks: 76144 Hits: 474872 = 2.661896e-02 s

Test for Good
To import-> Hits: 474872, Tracks: 76144 Events: 240
Filter with Cuda 2
Time GPU Kernel Cuda2 Events: 240 Tracks: 76144 Hits: 474872 = 7.524480e-04 s
Time CPU Kernel Cuda2 Events: 240 Tracks: 76144 Hits: 474872 = 7.700920e-04 s
Time CPU total Cuda2 Events: 240 Tracks: 76144 Hits: 474872 = 7.099481e-01 s

Test for Good
To import-> Hits: 474872, Tracks: 76144 Events: 240
Filter with Cuda 1
Time GPU Kernel Cuda1 Events: 240 Tracks: 76144 Hits: 474872 = 1.000800e-03 s
Time CPU Kernel Cuda1 Events: 240 Tracks: 76144 Hits: 474872 = 1.018047e-03 s
Time CPU total Cuda1 Events: 240 Tracks: 76144 Hits: 474872 = 7.039149e-01 s

Test for Good
To import-> Hits: 474872, Tracks: 76144 Events: 240
Filter with Good method
Time CPU total Good Events: 240 Tracks: 76144 Hits: 474872 = 1.211691e-02 s

Test for OpenCL
To import-> Hits: 474872, Tracks: 76144 Events: 240
Filter with OpenCL 2
Time GPU Kernel OpenCl2 Events: 240 Tracks: 76144 Hits: 474872 = 0.000857696 s
Time CPU Kernel OpenCl2 Events: 240 Tracks: 76144 Hits: 474872 = 0.00101209 s
Time CPU total OpenCl2 Events: 240 Tracks: 76144 Hits: 474872 = 7.408130e-01 s

Test for OpenCL
To import-> Hits: 474872, Tracks: 76144 Events: 240
Filter with OpenCL 1
Time GPU Kernel OpenCl1 Events: 240 Tracks: 76144 Hits: 474872 = 0.000654528 s
Time CPU Kernel OpenCl1 Events: 240 Tracks: 76144 Hits: 474872 = 0.000812054 s
Time CPU total OpenCl1 Events: 240 Tracks: 76144 Hits: 474872 = 7.443759e-01 s

-----------------------------
Test for Bad_Good
To import-> Hits: 493810, Tracks: 79172 Events: 250
To bad->good: Hits: 493810, Tracks: 79172 Events: 250
Filter with Bad_Good method
Time CPU total Bad_Good Events: 250 Tracks: 79172 Hits: 493810 = 2.464604e-02 s

Test for Bad
To import-> Hits: 493810, Tracks: 79172 Events: 250
Filter with Bad method
Time CPU total Bad Events: 250 Tracks: 79172 Hits: 493810 = 2.776694e-02 s

Test for Good
To import-> Hits: 493810, Tracks: 79172 Events: 250
Filter with Cuda 2
Time GPU Kernel Cuda2 Events: 250 Tracks: 79172 Hits: 493810 = 7.730240e-04 s
Time CPU Kernel Cuda2 Events: 250 Tracks: 79172 Hits: 493810 = 7.908344e-04 s
Time CPU total Cuda2 Events: 250 Tracks: 79172 Hits: 493810 = 6.979971e-01 s

Test for Good
To import-> Hits: 493810, Tracks: 79172 Events: 250
Filter with Cuda 1
Time GPU Kernel Cuda1 Events: 250 Tracks: 79172 Hits: 493810 = 1.034656e-03 s
Time CPU Kernel Cuda1 Events: 250 Tracks: 79172 Hits: 493810 = 1.051903e-03 s
Time CPU total Cuda1 Events: 250 Tracks: 79172 Hits: 493810 = 7.024109e-01 s

Test for Good
To import-> Hits: 493810, Tracks: 79172 Events: 250
Filter with Good method
Time CPU total Good Events: 250 Tracks: 79172 Hits: 493810 = 1.261783e-02 s

Test for OpenCL
To import-> Hits: 493810, Tracks: 79172 Events: 250
Filter with OpenCL 2
Time GPU Kernel OpenCl2 Events: 250 Tracks: 79172 Hits: 493810 = 0.000898432 s
Time CPU Kernel OpenCl2 Events: 250 Tracks: 79172 Hits: 493810 = 0.00105095 s
Time CPU total OpenCl2 Events: 250 Tracks: 79172 Hits: 493810 = 7.389419e-01 s

Test for OpenCL
To import-> Hits: 493810, Tracks: 79172 Events: 250
Filter with OpenCL 1
Time GPU Kernel OpenCl1 Events: 250 Tracks: 79172 Hits: 493810 = 0.000667552 s
Time CPU Kernel OpenCl1 Events: 250 Tracks: 79172 Hits: 493810 = 0.000823021 s
Time CPU total OpenCl1 Events: 250 Tracks: 79172 Hits: 493810 = 7.378900e-01 s

-----------------------------
Test for Bad_Good
To import-> Hits: 514314, Tracks: 82444 Events: 260
To bad->good: Hits: 514314, Tracks: 82444 Events: 260
Filter with Bad_Good method
Time CPU total Bad_Good Events: 260 Tracks: 82444 Hits: 514314 = 2.370405e-02 s

Test for Bad
To import-> Hits: 514314, Tracks: 82444 Events: 260
Filter with Bad method
Time CPU total Bad Events: 260 Tracks: 82444 Hits: 514314 = 2.429104e-02 s

Test for Good
To import-> Hits: 514314, Tracks: 82444 Events: 260
Filter with Cuda 2
Time GPU Kernel Cuda2 Events: 260 Tracks: 82444 Hits: 514314 = 8.023041e-04 s
Time CPU Kernel Cuda2 Events: 260 Tracks: 82444 Hits: 514314 = 8.208752e-04 s
Time CPU total Cuda2 Events: 260 Tracks: 82444 Hits: 514314 = 7.073250e-01 s

Test for Good
To import-> Hits: 514314, Tracks: 82444 Events: 260
Filter with Cuda 1
Time GPU Kernel Cuda1 Events: 260 Tracks: 82444 Hits: 514314 = 1.072736e-03 s
Time CPU Kernel Cuda1 Events: 260 Tracks: 82444 Hits: 514314 = 1.094103e-03 s
Time CPU total Cuda1 Events: 260 Tracks: 82444 Hits: 514314 = 7.055991e-01 s

Test for Good
To import-> Hits: 514314, Tracks: 82444 Events: 260
Filter with Good method
Time CPU total Good Events: 260 Tracks: 82444 Hits: 514314 = 1.314497e-02 s

Test for OpenCL
To import-> Hits: 514314, Tracks: 82444 Events: 260
Filter with OpenCL 2
Time GPU Kernel OpenCl2 Events: 260 Tracks: 82444 Hits: 514314 = 0.000939392 s
Time CPU Kernel OpenCl2 Events: 260 Tracks: 82444 Hits: 514314 = 0.00109196 s
Time CPU total OpenCl2 Events: 260 Tracks: 82444 Hits: 514314 = 7.488980e-01 s

Test for OpenCL
To import-> Hits: 514314, Tracks: 82444 Events: 260
Filter with OpenCL 1
Time GPU Kernel OpenCl1 Events: 260 Tracks: 82444 Hits: 514314 = 0.000702016 s
Time CPU Kernel OpenCl1 Events: 260 Tracks: 82444 Hits: 514314 = 0.000855923 s
Time CPU total OpenCl1 Events: 260 Tracks: 82444 Hits: 514314 = 7.493782e-01 s

-----------------------------
Test for Bad_Good
To import-> Hits: 534537, Tracks: 85661 Events: 270
To bad->good: Hits: 534537, Tracks: 85661 Events: 270
Filter with Bad_Good method
Time CPU total Bad_Good Events: 270 Tracks: 85661 Hits: 534537 = 2.406001e-02 s

Test for Bad
To import-> Hits: 534537, Tracks: 85661 Events: 270
Filter with Bad method
Time CPU total Bad Events: 270 Tracks: 85661 Hits: 534537 = 2.525306e-02 s

Test for Good
To import-> Hits: 534537, Tracks: 85661 Events: 270
Filter with Cuda 2
Time GPU Kernel Cuda2 Events: 270 Tracks: 85661 Hits: 534537 = 8.306560e-04 s
Time CPU Kernel Cuda2 Events: 270 Tracks: 85661 Hits: 534537 = 8.509159e-04 s
Time CPU total Cuda2 Events: 270 Tracks: 85661 Hits: 534537 = 7.055299e-01 s

Test for Good
To import-> Hits: 534537, Tracks: 85661 Events: 270
Filter with Cuda 1
Time GPU Kernel Cuda1 Events: 270 Tracks: 85661 Hits: 534537 = 1.115744e-03 s
Time CPU Kernel Cuda1 Events: 270 Tracks: 85661 Hits: 534537 = 1.136065e-03 s
Time CPU total Cuda1 Events: 270 Tracks: 85661 Hits: 534537 = 7.000391e-01 s

Test for Good
To import-> Hits: 534537, Tracks: 85661 Events: 270
Filter with Good method
Time CPU total Good Events: 270 Tracks: 85661 Hits: 534537 = 1.372814e-02 s

Test for OpenCL
To import-> Hits: 534537, Tracks: 85661 Events: 270
Filter with OpenCL 2
Time GPU Kernel OpenCl2 Events: 270 Tracks: 85661 Hits: 534537 = 0.000988512 s
Time CPU Kernel OpenCl2 Events: 270 Tracks: 85661 Hits: 534537 = 0.00113821 s
Time CPU total OpenCl2 Events: 270 Tracks: 85661 Hits: 534537 = 7.334661e-01 s

Test for OpenCL
To import-> Hits: 534537, Tracks: 85661 Events: 270
Filter with OpenCL 1
Time GPU Kernel OpenCl1 Events: 270 Tracks: 85661 Hits: 534537 = 0.000728096 s
Time CPU Kernel OpenCl1 Events: 270 Tracks: 85661 Hits: 534537 = 0.000880957 s
Time CPU total OpenCl1 Events: 270 Tracks: 85661 Hits: 534537 = 7.415991e-01 s

-----------------------------
Test for Bad_Good
To import-> Hits: 557160, Tracks: 89234 Events: 280
To bad->good: Hits: 557160, Tracks: 89234 Events: 280
Filter with Bad_Good method
Time CPU total Bad_Good Events: 280 Tracks: 89234 Hits: 557160 = 2.632308e-02 s

Test for Bad
To import-> Hits: 557160, Tracks: 89234 Events: 280
Filter with Bad method
Time CPU total Bad Events: 280 Tracks: 89234 Hits: 557160 = 2.658796e-02 s

Test for Good
To import-> Hits: 557160, Tracks: 89234 Events: 280
Filter with Cuda 2
Time GPU Kernel Cuda2 Events: 280 Tracks: 89234 Hits: 557160 = 8.685761e-04 s
Time CPU Kernel Cuda2 Events: 280 Tracks: 89234 Hits: 557160 = 8.900166e-04 s
Time CPU total Cuda2 Events: 280 Tracks: 89234 Hits: 557160 = 6.944971e-01 s

Test for Good
To import-> Hits: 557160, Tracks: 89234 Events: 280
Filter with Cuda 1
Time GPU Kernel Cuda1 Events: 280 Tracks: 89234 Hits: 557160 = 1.159520e-03 s
Time CPU Kernel Cuda1 Events: 280 Tracks: 89234 Hits: 557160 = 1.180887e-03 s
Time CPU total Cuda1 Events: 280 Tracks: 89234 Hits: 557160 = 7.005711e-01 s

Test for Good
To import-> Hits: 557160, Tracks: 89234 Events: 280
Filter with Good method
Time CPU total Good Events: 280 Tracks: 89234 Hits: 557160 = 1.415491e-02 s

Test for OpenCL
To import-> Hits: 557160, Tracks: 89234 Events: 280
Filter with OpenCL 2
Time GPU Kernel OpenCl2 Events: 280 Tracks: 89234 Hits: 557160 = 0.00096944 s
Time CPU Kernel OpenCl2 Events: 280 Tracks: 89234 Hits: 557160 = 0.00112391 s
Time CPU total OpenCl2 Events: 280 Tracks: 89234 Hits: 557160 = 7.415130e-01 s

Test for OpenCL
To import-> Hits: 557160, Tracks: 89234 Events: 280
Filter with OpenCL 1
Time GPU Kernel OpenCl1 Events: 280 Tracks: 89234 Hits: 557160 = 0.000751424 s
Time CPU Kernel OpenCl1 Events: 280 Tracks: 89234 Hits: 557160 = 0.000904083 s
Time CPU total OpenCl1 Events: 280 Tracks: 89234 Hits: 557160 = 7.332079e-01 s

-----------------------------
Test for Bad_Good
To import-> Hits: 576611, Tracks: 92347 Events: 290
To bad->good: Hits: 576611, Tracks: 92347 Events: 290
Filter with Bad_Good method
Time CPU total Bad_Good Events: 290 Tracks: 92347 Hits: 576611 = 2.658510e-02 s

Test for Bad
To import-> Hits: 576611, Tracks: 92347 Events: 290
Filter with Bad method
Time CPU total Bad Events: 290 Tracks: 92347 Hits: 576611 = 2.768493e-02 s

Test for Good
To import-> Hits: 576611, Tracks: 92347 Events: 290
Filter with Cuda 2
Time GPU Kernel Cuda2 Events: 290 Tracks: 92347 Hits: 576611 = 8.920960e-04 s
Time CPU Kernel Cuda2 Events: 290 Tracks: 92347 Hits: 576611 = 9.138584e-04 s
Time CPU total Cuda2 Events: 290 Tracks: 92347 Hits: 576611 = 7.102308e-01 s

Test for Good
To import-> Hits: 576611, Tracks: 92347 Events: 290
Filter with Cuda 1
Time GPU Kernel Cuda1 Events: 290 Tracks: 92347 Hits: 576611 = 1.195456e-03 s
Time CPU Kernel Cuda1 Events: 290 Tracks: 92347 Hits: 576611 = 1.219034e-03 s
Time CPU total Cuda1 Events: 290 Tracks: 92347 Hits: 576611 = 7.058599e-01 s

Test for Good
To import-> Hits: 576611, Tracks: 92347 Events: 290
Filter with Good method
Time CPU total Good Events: 290 Tracks: 92347 Hits: 576611 = 1.444817e-02 s

Test for OpenCL
To import-> Hits: 576611, Tracks: 92347 Events: 290
Filter with OpenCL 2
Time GPU Kernel OpenCl2 Events: 290 Tracks: 92347 Hits: 576611 = 0.00103318 s
Time CPU Kernel OpenCl2 Events: 290 Tracks: 92347 Hits: 576611 = 0.00118613 s
Time CPU total OpenCl2 Events: 290 Tracks: 92347 Hits: 576611 = 7.543001e-01 s

Test for OpenCL
To import-> Hits: 576611, Tracks: 92347 Events: 290
Filter with OpenCL 1
Time GPU Kernel OpenCl1 Events: 290 Tracks: 92347 Hits: 576611 = 0.000777312 s
Time CPU Kernel OpenCl1 Events: 290 Tracks: 92347 Hits: 576611 = 0.000927925 s
Time CPU total OpenCl1 Events: 290 Tracks: 92347 Hits: 576611 = 7.434111e-01 s

-----------------------------
Test for Bad_Good
To import-> Hits: 598963, Tracks: 95876 Events: 300
To bad->good: Hits: 598963, Tracks: 95876 Events: 300
Filter with Bad_Good method
Time CPU total Bad_Good Events: 300 Tracks: 95876 Hits: 598963 = 2.777982e-02 s

Test for Bad
To import-> Hits: 598963, Tracks: 95876 Events: 300
Filter with Bad method
Time CPU total Bad Events: 300 Tracks: 95876 Hits: 598963 = 2.865791e-02 s

Test for Good
To import-> Hits: 598963, Tracks: 95876 Events: 300
Filter with Cuda 2
Time GPU Kernel Cuda2 Events: 300 Tracks: 95876 Hits: 598963 = 9.269441e-04 s
Time CPU Kernel Cuda2 Events: 300 Tracks: 95876 Hits: 598963 = 9.508133e-04 s
Time CPU total Cuda2 Events: 300 Tracks: 95876 Hits: 598963 = 7.078300e-01 s

Test for Good
To import-> Hits: 598963, Tracks: 95876 Events: 300
Filter with Cuda 1
Time GPU Kernel Cuda1 Events: 300 Tracks: 95876 Hits: 598963 = 1.249760e-03 s
Time CPU Kernel Cuda1 Events: 300 Tracks: 95876 Hits: 598963 = 1.271009e-03 s
Time CPU total Cuda1 Events: 300 Tracks: 95876 Hits: 598963 = 6.986568e-01 s

Test for Good
To import-> Hits: 598963, Tracks: 95876 Events: 300
Filter with Good method
Time CPU total Good Events: 300 Tracks: 95876 Hits: 598963 = 1.535606e-02 s

Test for OpenCL
To import-> Hits: 598963, Tracks: 95876 Events: 300
Filter with OpenCL 2
Time GPU Kernel OpenCl2 Events: 300 Tracks: 95876 Hits: 598963 = 0.00103046 s
Time CPU Kernel OpenCl2 Events: 300 Tracks: 95876 Hits: 598963 = 0.00118303 s
Time CPU total OpenCl2 Events: 300 Tracks: 95876 Hits: 598963 = 7.375190e-01 s

Test for OpenCL
To import-> Hits: 598963, Tracks: 95876 Events: 300
Filter with OpenCL 1
Time GPU Kernel OpenCl1 Events: 300 Tracks: 95876 Hits: 598963 = 0.000805056 s
Time CPU Kernel OpenCl1 Events: 300 Tracks: 95876 Hits: 598963 = 0.00097084 s
Time CPU total OpenCl1 Events: 300 Tracks: 95876 Hits: 598963 = 7.370551e-01 s

-----------------------------
