Test for Bad
To import-> Hits: 2093, Tracks: 358 Events: 1
Filter with Bad method
Time CPU total Bad Events: 1 Tracks: 358 Hits: 2093 = 1.552105e-04 s

Test for Good
To import-> Hits: 2093, Tracks: 358 Events: 1
Filter with Cuda 2
Time GPU Kernel Cuda2 Events: 1 Tracks: 358 Hits: 2093 = 8.201601e-05 s
Time CPU Kernel Cuda2 Events: 1 Tracks: 358 Hits: 2093 = 7.796288e-05 s
Time CPU total Cuda2 Events: 1 Tracks: 358 Hits: 2093 = 6.911380e-01 s

Test for Good
To import-> Hits: 2093, Tracks: 358 Events: 1
Filter with Cuda 1
Time GPU Kernel Cuda1 Events: 1 Tracks: 358 Hits: 2093 = 1.108480e-04 s
Time CPU Kernel Cuda1 Events: 1 Tracks: 358 Hits: 2093 = 1.080036e-04 s
Time CPU total Cuda1 Events: 1 Tracks: 358 Hits: 2093 = 6.776230e-01 s

Test for Good
To import-> Hits: 2093, Tracks: 358 Events: 1
Filter with Good method
Time CPU total Good Events: 1 Tracks: 358 Hits: 2093 = 5.793571e-05 s

Test for OpenCL
To import-> Hits: 2093, Tracks: 358 Events: 1
Filter with OpenCL 2
Time GPU Kernel OpenCl2 Events: 1 Tracks: 358 Hits: 2093 = 4.5344e-05 s
Time CPU Kernel OpenCl2 Events: 1 Tracks: 358 Hits: 2093 = 7.20024e-05 s
Time CPU total OpenCl2 Events: 1 Tracks: 358 Hits: 2093 = 7.414751e-01 s

Test for OpenCL
To import-> Hits: 2093, Tracks: 358 Events: 1
Filter with OpenCL 1
Time GPU Kernel OpenCl1 Events: 1 Tracks: 358 Hits: 2093 = 5.5712e-05 s
Time CPU Kernel OpenCl1 Events: 1 Tracks: 358 Hits: 2093 = 8.41618e-05 s
Time CPU total OpenCl1 Events: 1 Tracks: 358 Hits: 2093 = 7.206819e-01 s

-----------------------------
Test for Bad
To import-> Hits: 3158, Tracks: 532 Events: 2
Filter with Bad method
Time CPU total Bad Events: 2 Tracks: 532 Hits: 3158 = 1.950264e-04 s

Test for Good
To import-> Hits: 3158, Tracks: 532 Events: 2
Filter with Cuda 2
Time GPU Kernel Cuda2 Events: 2 Tracks: 532 Hits: 3158 = 8.345601e-05 s
Time CPU Kernel Cuda2 Events: 2 Tracks: 532 Hits: 3158 = 7.987022e-05 s
Time CPU total Cuda2 Events: 2 Tracks: 532 Hits: 3158 = 6.824741e-01 s

Test for Good
To import-> Hits: 3158, Tracks: 532 Events: 2
Filter with Cuda 1
Time GPU Kernel Cuda1 Events: 2 Tracks: 532 Hits: 3158 = 1.122880e-04 s
Time CPU Kernel Cuda1 Events: 2 Tracks: 532 Hits: 3158 = 1.089573e-04 s
Time CPU total Cuda1 Events: 2 Tracks: 532 Hits: 3158 = 6.856549e-01 s

Test for Good
To import-> Hits: 3158, Tracks: 532 Events: 2
Filter with Good method
Time CPU total Good Events: 2 Tracks: 532 Hits: 3158 = 9.107590e-05 s

Test for OpenCL
To import-> Hits: 3158, Tracks: 532 Events: 2
Filter with OpenCL 2
Time GPU Kernel OpenCl2 Events: 2 Tracks: 532 Hits: 3158 = 4.592e-05 s
Time CPU Kernel OpenCl2 Events: 2 Tracks: 532 Hits: 3158 = 7.31945e-05 s
Time CPU total OpenCl2 Events: 2 Tracks: 532 Hits: 3158 = 7.231259e-01 s

Test for OpenCL
To import-> Hits: 3158, Tracks: 532 Events: 2
Filter with OpenCL 1
Time GPU Kernel OpenCl1 Events: 2 Tracks: 532 Hits: 3158 = 5.4784e-05 s
Time CPU Kernel OpenCl1 Events: 2 Tracks: 532 Hits: 3158 = 8.41618e-05 s
Time CPU total OpenCl1 Events: 2 Tracks: 532 Hits: 3158 = 7.215171e-01 s

-----------------------------
Test for Bad
To import-> Hits: 4741, Tracks: 779 Events: 3
Filter with Bad method
Time CPU total Bad Events: 3 Tracks: 779 Hits: 4741 = 2.789497e-04 s

Test for Good
To import-> Hits: 4741, Tracks: 779 Events: 3
Filter with Cuda 2
Time GPU Kernel Cuda2 Events: 3 Tracks: 779 Hits: 4741 = 8.268800e-05 s
Time CPU Kernel Cuda2 Events: 3 Tracks: 779 Hits: 4741 = 7.915497e-05 s
Time CPU total Cuda2 Events: 3 Tracks: 779 Hits: 4741 = 6.902261e-01 s

Test for Good
To import-> Hits: 4741, Tracks: 779 Events: 3
Filter with Cuda 1
Time GPU Kernel Cuda1 Events: 3 Tracks: 779 Hits: 4741 = 1.113280e-04 s
Time CPU Kernel Cuda1 Events: 3 Tracks: 779 Hits: 4741 = 1.080036e-04 s
Time CPU total Cuda1 Events: 3 Tracks: 779 Hits: 4741 = 6.845989e-01 s

Test for Good
To import-> Hits: 4741, Tracks: 779 Events: 3
Filter with Good method
Time CPU total Good Events: 3 Tracks: 779 Hits: 4741 = 1.189709e-04 s

Test for OpenCL
To import-> Hits: 4741, Tracks: 779 Events: 3
Filter with OpenCL 2
Time GPU Kernel OpenCl2 Events: 3 Tracks: 779 Hits: 4741 = 4.5696e-05 s
Time CPU Kernel OpenCl2 Events: 3 Tracks: 779 Hits: 4741 = 7.20024e-05 s
Time CPU total OpenCl2 Events: 3 Tracks: 779 Hits: 4741 = 7.192461e-01 s

Test for OpenCL
To import-> Hits: 4741, Tracks: 779 Events: 3
Filter with OpenCL 1
Time GPU Kernel OpenCl1 Events: 3 Tracks: 779 Hits: 4741 = 5.5936e-05 s
Time CPU Kernel OpenCl1 Events: 3 Tracks: 779 Hits: 4741 = 8.2016e-05 s
Time CPU total OpenCl1 Events: 3 Tracks: 779 Hits: 4741 = 7.273600e-01 s

-----------------------------
Test for Bad
To import-> Hits: 8061, Tracks: 1300 Events: 4
Filter with Bad method
Time CPU total Bad Events: 4 Tracks: 1300 Hits: 8061 = 5.068779e-04 s

Test for Good
To import-> Hits: 8061, Tracks: 1300 Events: 4
Filter with Cuda 2
Time GPU Kernel Cuda2 Events: 4 Tracks: 1300 Hits: 8061 = 8.947201e-05 s
Time CPU Kernel Cuda2 Events: 4 Tracks: 1300 Hits: 8061 = 8.487701e-05 s
Time CPU total Cuda2 Events: 4 Tracks: 1300 Hits: 8061 = 6.894760e-01 s

Test for Good
To import-> Hits: 8061, Tracks: 1300 Events: 4
Filter with Cuda 1
Time GPU Kernel Cuda1 Events: 4 Tracks: 1300 Hits: 8061 = 1.157760e-04 s
Time CPU Kernel Cuda1 Events: 4 Tracks: 1300 Hits: 8061 = 1.120567e-04 s
Time CPU total Cuda1 Events: 4 Tracks: 1300 Hits: 8061 = 6.838632e-01 s

Test for Good
To import-> Hits: 8061, Tracks: 1300 Events: 4
Filter with Good method
Time CPU total Good Events: 4 Tracks: 1300 Hits: 8061 = 2.160072e-04 s

Test for OpenCL
To import-> Hits: 8061, Tracks: 1300 Events: 4
Filter with OpenCL 2
Time GPU Kernel OpenCl2 Events: 4 Tracks: 1300 Hits: 8061 = 5.2128e-05 s
Time CPU Kernel OpenCl2 Events: 4 Tracks: 1300 Hits: 8061 = 7.89165e-05 s
Time CPU total OpenCl2 Events: 4 Tracks: 1300 Hits: 8061 = 7.440560e-01 s

Test for OpenCL
To import-> Hits: 8061, Tracks: 1300 Events: 4
Filter with OpenCL 1
Time GPU Kernel OpenCl1 Events: 4 Tracks: 1300 Hits: 8061 = 5.7216e-05 s
Time CPU Kernel OpenCl1 Events: 4 Tracks: 1300 Hits: 8061 = 8.39233e-05 s
Time CPU total OpenCl1 Events: 4 Tracks: 1300 Hits: 8061 = 1.520869e+00 s

-----------------------------
Test for Bad
To import-> Hits: 11850, Tracks: 1914 Events: 5
Filter with Bad method
Time CPU total Bad Events: 5 Tracks: 1914 Hits: 11850 = 8.039474e-04 s

Test for Good
To import-> Hits: 11850, Tracks: 1914 Events: 5
Filter with Cuda 2
Time GPU Kernel Cuda2 Events: 5 Tracks: 1914 Hits: 11850 = 8.928001e-05 s
Time CPU Kernel Cuda2 Events: 5 Tracks: 1914 Hits: 11850 = 8.606911e-05 s
Time CPU total Cuda2 Events: 5 Tracks: 1914 Hits: 11850 = 6.892140e-01 s

Test for Good
To import-> Hits: 11850, Tracks: 1914 Events: 5
Filter with Cuda 1
Time GPU Kernel Cuda1 Events: 5 Tracks: 1914 Hits: 11850 = 1.161600e-04 s
Time CPU Kernel Cuda1 Events: 5 Tracks: 1914 Hits: 11850 = 1.118183e-04 s
Time CPU total Cuda1 Events: 5 Tracks: 1914 Hits: 11850 = 6.956801e-01 s

Test for Good
To import-> Hits: 11850, Tracks: 1914 Events: 5
Filter with Good method
Time CPU total Good Events: 5 Tracks: 1914 Hits: 11850 = 3.168583e-04 s

Test for OpenCL
To import-> Hits: 11850, Tracks: 1914 Events: 5
Filter with OpenCL 2
Time GPU Kernel OpenCl2 Events: 5 Tracks: 1914 Hits: 11850 = 5.264e-05 s
Time CPU Kernel OpenCl2 Events: 5 Tracks: 1914 Hits: 11850 = 8.01086e-05 s
Time CPU total OpenCl2 Events: 5 Tracks: 1914 Hits: 11850 = 7.299299e-01 s

Test for OpenCL
To import-> Hits: 11850, Tracks: 1914 Events: 5
Filter with OpenCL 1
Time GPU Kernel OpenCl1 Events: 5 Tracks: 1914 Hits: 11850 = 5.9584e-05 s
Time CPU Kernel OpenCl1 Events: 5 Tracks: 1914 Hits: 11850 = 8.98838e-05 s
Time CPU total OpenCl1 Events: 5 Tracks: 1914 Hits: 11850 = 7.379251e-01 s

-----------------------------
Test for Bad
To import-> Hits: 12849, Tracks: 2089 Events: 6
Filter with Bad method
Time CPU total Bad Events: 6 Tracks: 2089 Hits: 12849 = 7.698536e-04 s

Test for Good
To import-> Hits: 12849, Tracks: 2089 Events: 6
Filter with Cuda 2
Time GPU Kernel Cuda2 Events: 6 Tracks: 2089 Hits: 12849 = 9.808000e-05 s
Time CPU Kernel Cuda2 Events: 6 Tracks: 2089 Hits: 12849 = 9.298325e-05 s
Time CPU total Cuda2 Events: 6 Tracks: 2089 Hits: 12849 = 6.860058e-01 s

Test for Good
To import-> Hits: 12849, Tracks: 2089 Events: 6
Filter with Cuda 1
Time GPU Kernel Cuda1 Events: 6 Tracks: 2089 Hits: 12849 = 1.189120e-04 s
Time CPU Kernel Cuda1 Events: 6 Tracks: 2089 Hits: 12849 = 1.151562e-04 s
Time CPU total Cuda1 Events: 6 Tracks: 2089 Hits: 12849 = 6.846509e-01 s

Test for Good
To import-> Hits: 12849, Tracks: 2089 Events: 6
Filter with Good method
Time CPU total Good Events: 6 Tracks: 2089 Hits: 12849 = 3.361702e-04 s

Test for OpenCL
To import-> Hits: 12849, Tracks: 2089 Events: 6
Filter with OpenCL 2
Time GPU Kernel OpenCl2 Events: 6 Tracks: 2089 Hits: 12849 = 5.4048e-05 s
Time CPU Kernel OpenCl2 Events: 6 Tracks: 2089 Hits: 12849 = 8.10623e-05 s
Time CPU total OpenCl2 Events: 6 Tracks: 2089 Hits: 12849 = 7.430539e-01 s

Test for OpenCL
To import-> Hits: 12849, Tracks: 2089 Events: 6
Filter with OpenCL 1
Time GPU Kernel OpenCl1 Events: 6 Tracks: 2089 Hits: 12849 = 6.0032e-05 s
Time CPU Kernel OpenCl1 Events: 6 Tracks: 2089 Hits: 12849 = 8.98838e-05 s
Time CPU total OpenCl1 Events: 6 Tracks: 2089 Hits: 12849 = 7.197490e-01 s

-----------------------------
Test for Bad
To import-> Hits: 14812, Tracks: 2418 Events: 7
Filter with Bad method
Time CPU total Bad Events: 7 Tracks: 2418 Hits: 14812 = 8.890629e-04 s

Test for Good
To import-> Hits: 14812, Tracks: 2418 Events: 7
Filter with Cuda 2
Time GPU Kernel Cuda2 Events: 7 Tracks: 2418 Hits: 14812 = 9.961600e-05 s
Time CPU Kernel Cuda2 Events: 7 Tracks: 2418 Hits: 14812 = 9.608269e-05 s
Time CPU total Cuda2 Events: 7 Tracks: 2418 Hits: 14812 = 6.867070e-01 s

Test for Good
To import-> Hits: 14812, Tracks: 2418 Events: 7
Filter with Cuda 1
Time GPU Kernel Cuda1 Events: 7 Tracks: 2418 Hits: 14812 = 1.284800e-04 s
Time CPU Kernel Cuda1 Events: 7 Tracks: 2418 Hits: 14812 = 1.251698e-04 s
Time CPU total Cuda1 Events: 7 Tracks: 2418 Hits: 14812 = 6.893830e-01 s

Test for Good
To import-> Hits: 14812, Tracks: 2418 Events: 7
Filter with Good method
Time CPU total Good Events: 7 Tracks: 2418 Hits: 14812 = 3.888607e-04 s

Test for OpenCL
To import-> Hits: 14812, Tracks: 2418 Events: 7
Filter with OpenCL 2
Time GPU Kernel OpenCl2 Events: 7 Tracks: 2418 Hits: 14812 = 5.9872e-05 s
Time CPU Kernel OpenCl2 Events: 7 Tracks: 2418 Hits: 14812 = 8.70228e-05 s
Time CPU total OpenCl2 Events: 7 Tracks: 2418 Hits: 14812 = 7.229140e-01 s

Test for OpenCL
To import-> Hits: 14812, Tracks: 2418 Events: 7
Filter with OpenCL 1
Time GPU Kernel OpenCl1 Events: 7 Tracks: 2418 Hits: 14812 = 6.272e-05 s
Time CPU Kernel OpenCl1 Events: 7 Tracks: 2418 Hits: 14812 = 9.10759e-05 s
Time CPU total OpenCl1 Events: 7 Tracks: 2418 Hits: 14812 = 6.954489e-01 s

-----------------------------
Test for Bad
To import-> Hits: 15814, Tracks: 2586 Events: 8
Filter with Bad method
Time CPU total Bad Events: 8 Tracks: 2586 Hits: 15814 = 9.598732e-04 s

Test for Good
To import-> Hits: 15814, Tracks: 2586 Events: 8
Filter with Cuda 2
Time GPU Kernel Cuda2 Events: 8 Tracks: 2586 Hits: 15814 = 1.010880e-04 s
Time CPU Kernel Cuda2 Events: 8 Tracks: 2586 Hits: 15814 = 9.703636e-05 s
Time CPU total Cuda2 Events: 8 Tracks: 2586 Hits: 15814 = 6.499460e-01 s

Test for Good
To import-> Hits: 15814, Tracks: 2586 Events: 8
Filter with Cuda 1
Time GPU Kernel Cuda1 Events: 8 Tracks: 2586 Hits: 15814 = 1.283520e-04 s
Time CPU Kernel Cuda1 Events: 8 Tracks: 2586 Hits: 15814 = 1.239777e-04 s
Time CPU total Cuda1 Events: 8 Tracks: 2586 Hits: 15814 = 6.887660e-01 s

Test for Good
To import-> Hits: 15814, Tracks: 2586 Events: 8
Filter with Good method
Time CPU total Good Events: 8 Tracks: 2586 Hits: 15814 = 4.169941e-04 s

Test for OpenCL
To import-> Hits: 15814, Tracks: 2586 Events: 8
Filter with OpenCL 2
Time GPU Kernel OpenCl2 Events: 8 Tracks: 2586 Hits: 15814 = 6.112e-05 s
Time CPU Kernel OpenCl2 Events: 8 Tracks: 2586 Hits: 15814 = 9.17912e-05 s
Time CPU total OpenCl2 Events: 8 Tracks: 2586 Hits: 15814 = 7.195320e-01 s

Test for OpenCL
To import-> Hits: 15814, Tracks: 2586 Events: 8
Filter with OpenCL 1
Time GPU Kernel OpenCl1 Events: 8 Tracks: 2586 Hits: 15814 = 6.5152e-05 s
Time CPU Kernel OpenCl1 Events: 8 Tracks: 2586 Hits: 15814 = 9.29832e-05 s
Time CPU total OpenCl1 Events: 8 Tracks: 2586 Hits: 15814 = 7.238100e-01 s

-----------------------------
Test for Bad
To import-> Hits: 16842, Tracks: 2764 Events: 9
Filter with Bad method
Time CPU total Bad Events: 9 Tracks: 2764 Hits: 16842 = 7.789135e-04 s

Test for Good
To import-> Hits: 16842, Tracks: 2764 Events: 9
Filter with Cuda 2
Time GPU Kernel Cuda2 Events: 9 Tracks: 2764 Hits: 16842 = 1.038400e-04 s
Time CPU Kernel Cuda2 Events: 9 Tracks: 2764 Hits: 16842 = 1.008511e-04 s
Time CPU total Cuda2 Events: 9 Tracks: 2764 Hits: 16842 = 6.868532e-01 s

Test for Good
To import-> Hits: 16842, Tracks: 2764 Events: 9
Filter with Cuda 1
Time GPU Kernel Cuda1 Events: 9 Tracks: 2764 Hits: 16842 = 1.293440e-04 s
Time CPU Kernel Cuda1 Events: 9 Tracks: 2764 Hits: 16842 = 1.249313e-04 s
Time CPU total Cuda1 Events: 9 Tracks: 2764 Hits: 16842 = 6.893990e-01 s

Test for Good
To import-> Hits: 16842, Tracks: 2764 Events: 9
Filter with Good method
Time CPU total Good Events: 9 Tracks: 2764 Hits: 16842 = 4.510880e-04 s

Test for OpenCL
To import-> Hits: 16842, Tracks: 2764 Events: 9
Filter with OpenCL 2
Time GPU Kernel OpenCl2 Events: 9 Tracks: 2764 Hits: 16842 = 6.5824e-05 s
Time CPU Kernel OpenCl2 Events: 9 Tracks: 2764 Hits: 16842 = 9.29832e-05 s
Time CPU total OpenCl2 Events: 9 Tracks: 2764 Hits: 16842 = 7.252998e-01 s

Test for OpenCL
To import-> Hits: 16842, Tracks: 2764 Events: 9
Filter with OpenCL 1
Time GPU Kernel OpenCl1 Events: 9 Tracks: 2764 Hits: 16842 = 6.7968e-05 s
Time CPU Kernel OpenCl1 Events: 9 Tracks: 2764 Hits: 16842 = 9.48906e-05 s
Time CPU total OpenCl1 Events: 9 Tracks: 2764 Hits: 16842 = 7.241719e-01 s

-----------------------------
Test for Bad
To import-> Hits: 18940, Tracks: 3094 Events: 10
Filter with Bad method
Time CPU total Bad Events: 10 Tracks: 3094 Hits: 18940 = 9.169579e-04 s

Test for Good
To import-> Hits: 18940, Tracks: 3094 Events: 10
Filter with Cuda 2
Time GPU Kernel Cuda2 Events: 10 Tracks: 3094 Hits: 18940 = 1.054080e-04 s
Time CPU Kernel Cuda2 Events: 10 Tracks: 3094 Hits: 18940 = 1.020432e-04 s
Time CPU total Cuda2 Events: 10 Tracks: 3094 Hits: 18940 = 6.923900e-01 s

Test for Good
To import-> Hits: 18940, Tracks: 3094 Events: 10
Filter with Cuda 1
Time GPU Kernel Cuda1 Events: 10 Tracks: 3094 Hits: 18940 = 1.342720e-04 s
Time CPU Kernel Cuda1 Events: 10 Tracks: 3094 Hits: 18940 = 1.301765e-04 s
Time CPU total Cuda1 Events: 10 Tracks: 3094 Hits: 18940 = 7.106650e-01 s

Test for Good
To import-> Hits: 18940, Tracks: 3094 Events: 10
Filter with Good method
Time CPU total Good Events: 10 Tracks: 3094 Hits: 18940 = 4.999638e-04 s

Test for OpenCL
To import-> Hits: 18940, Tracks: 3094 Events: 10
Filter with OpenCL 2
Time GPU Kernel OpenCl2 Events: 10 Tracks: 3094 Hits: 18940 = 6.608e-05 s
Time CPU Kernel OpenCl2 Events: 10 Tracks: 3094 Hits: 18940 = 9.20296e-05 s
Time CPU total OpenCl2 Events: 10 Tracks: 3094 Hits: 18940 = 7.197440e-01 s

Test for OpenCL
To import-> Hits: 18940, Tracks: 3094 Events: 10
Filter with OpenCL 1
Time GPU Kernel OpenCl1 Events: 10 Tracks: 3094 Hits: 18940 = 6.9312e-05 s
Time CPU Kernel OpenCl1 Events: 10 Tracks: 3094 Hits: 18940 = 9.60827e-05 s
Time CPU total OpenCl1 Events: 10 Tracks: 3094 Hits: 18940 = 7.188461e-01 s

-----------------------------
Test for Bad
To import-> Hits: 22010, Tracks: 3613 Events: 11
Filter with Bad method
Time CPU total Bad Events: 11 Tracks: 3613 Hits: 22010 = 1.268148e-03 s

Test for Good
To import-> Hits: 22010, Tracks: 3613 Events: 11
Filter with Cuda 2
Time GPU Kernel Cuda2 Events: 11 Tracks: 3613 Hits: 22010 = 1.127360e-04 s
Time CPU Kernel Cuda2 Events: 11 Tracks: 3613 Hits: 22010 = 1.089573e-04 s
Time CPU total Cuda2 Events: 11 Tracks: 3613 Hits: 22010 = 6.871572e-01 s

Test for Good
To import-> Hits: 22010, Tracks: 3613 Events: 11
Filter with Cuda 1
Time GPU Kernel Cuda1 Events: 11 Tracks: 3613 Hits: 22010 = 1.342400e-04 s
Time CPU Kernel Cuda1 Events: 11 Tracks: 3613 Hits: 22010 = 1.311302e-04 s
Time CPU total Cuda1 Events: 11 Tracks: 3613 Hits: 22010 = 6.860869e-01 s

Test for Good
To import-> Hits: 22010, Tracks: 3613 Events: 11
Filter with Good method
Time CPU total Good Events: 11 Tracks: 3613 Hits: 22010 = 5.841255e-04 s

Test for OpenCL
To import-> Hits: 22010, Tracks: 3613 Events: 11
Filter with OpenCL 2
Time GPU Kernel OpenCl2 Events: 11 Tracks: 3613 Hits: 22010 = 7.4464e-05 s
Time CPU Kernel OpenCl2 Events: 11 Tracks: 3613 Hits: 22010 = 0.000109196 s
Time CPU total OpenCl2 Events: 11 Tracks: 3613 Hits: 22010 = 7.227628e-01 s

Test for OpenCL
To import-> Hits: 22010, Tracks: 3613 Events: 11
Filter with OpenCL 1
Time GPU Kernel OpenCl1 Events: 11 Tracks: 3613 Hits: 22010 = 7.5328e-05 s
Time CPU Kernel OpenCl1 Events: 11 Tracks: 3613 Hits: 22010 = 0.000102043 s
Time CPU total OpenCl1 Events: 11 Tracks: 3613 Hits: 22010 = 7.240410e-01 s

-----------------------------
Test for Bad
To import-> Hits: 22930, Tracks: 3745 Events: 12
Filter with Bad method
Time CPU total Bad Events: 12 Tracks: 3745 Hits: 22930 = 1.304150e-03 s

Test for Good
To import-> Hits: 22930, Tracks: 3745 Events: 12
Filter with Cuda 2
Time GPU Kernel Cuda2 Events: 12 Tracks: 3745 Hits: 22930 = 1.184960e-04 s
Time CPU Kernel Cuda2 Events: 12 Tracks: 3745 Hits: 22930 = 1.139641e-04 s
Time CPU total Cuda2 Events: 12 Tracks: 3745 Hits: 22930 = 6.894112e-01 s

Test for Good
To import-> Hits: 22930, Tracks: 3745 Events: 12
Filter with Cuda 1
Time GPU Kernel Cuda1 Events: 12 Tracks: 3745 Hits: 22930 = 1.400640e-04 s
Time CPU Kernel Cuda1 Events: 12 Tracks: 3745 Hits: 22930 = 1.358986e-04 s
Time CPU total Cuda1 Events: 12 Tracks: 3745 Hits: 22930 = 6.865160e-01 s

Test for Good
To import-> Hits: 22930, Tracks: 3745 Events: 12
Filter with Good method
Time CPU total Good Events: 12 Tracks: 3745 Hits: 22930 = 6.051064e-04 s

Test for OpenCL
To import-> Hits: 22930, Tracks: 3745 Events: 12
Filter with OpenCL 2
Time GPU Kernel OpenCl2 Events: 12 Tracks: 3745 Hits: 22930 = 7.6128e-05 s
Time CPU Kernel OpenCl2 Events: 12 Tracks: 3745 Hits: 22930 = 0.000102997 s
Time CPU total OpenCl2 Events: 12 Tracks: 3745 Hits: 22930 = 7.215581e-01 s

Test for OpenCL
To import-> Hits: 22930, Tracks: 3745 Events: 12
Filter with OpenCL 1
Time GPU Kernel OpenCl1 Events: 12 Tracks: 3745 Hits: 22930 = 7.5456e-05 s
Time CPU Kernel OpenCl1 Events: 12 Tracks: 3745 Hits: 22930 = 0.000102997 s
Time CPU total OpenCl1 Events: 12 Tracks: 3745 Hits: 22930 = 7.248909e-01 s

-----------------------------
Test for Bad
To import-> Hits: 27034, Tracks: 4414 Events: 13
Filter with Bad method
Time CPU total Bad Events: 13 Tracks: 4414 Hits: 27034 = 1.674175e-03 s

Test for Good
To import-> Hits: 27034, Tracks: 4414 Events: 13
Filter with Cuda 2
Time GPU Kernel Cuda2 Events: 13 Tracks: 4414 Hits: 27034 = 1.271040e-04 s
Time CPU Kernel Cuda2 Events: 13 Tracks: 4414 Hits: 27034 = 1.230240e-04 s
Time CPU total Cuda2 Events: 13 Tracks: 4414 Hits: 27034 = 6.854160e-01 s

Test for Good
To import-> Hits: 27034, Tracks: 4414 Events: 13
Filter with Cuda 1
Time GPU Kernel Cuda1 Events: 13 Tracks: 4414 Hits: 27034 = 1.469440e-04 s
Time CPU Kernel Cuda1 Events: 13 Tracks: 4414 Hits: 27034 = 1.420975e-04 s
Time CPU total Cuda1 Events: 13 Tracks: 4414 Hits: 27034 = 6.866369e-01 s

Test for Good
To import-> Hits: 27034, Tracks: 4414 Events: 13
Filter with Good method
Time CPU total Good Events: 13 Tracks: 4414 Hits: 27034 = 7.200241e-04 s

Test for OpenCL
To import-> Hits: 27034, Tracks: 4414 Events: 13
Filter with OpenCL 2
Time GPU Kernel OpenCl2 Events: 13 Tracks: 4414 Hits: 27034 = 8.56e-05 s
Time CPU Kernel OpenCl2 Events: 13 Tracks: 4414 Hits: 27034 = 0.000114918 s
Time CPU total OpenCl2 Events: 13 Tracks: 4414 Hits: 27034 = 7.229171e-01 s

Test for OpenCL
To import-> Hits: 27034, Tracks: 4414 Events: 13
Filter with OpenCL 1
Time GPU Kernel OpenCl1 Events: 13 Tracks: 4414 Hits: 27034 = 8.2432e-05 s
Time CPU Kernel OpenCl1 Events: 13 Tracks: 4414 Hits: 27034 = 0.000108957 s
Time CPU total OpenCl1 Events: 13 Tracks: 4414 Hits: 27034 = 7.250149e-01 s

-----------------------------
Test for Bad
To import-> Hits: 28064, Tracks: 4587 Events: 14
Filter with Bad method
Time CPU total Bad Events: 14 Tracks: 4587 Hits: 28064 = 1.621008e-03 s

Test for Good
To import-> Hits: 28064, Tracks: 4587 Events: 14
Filter with Cuda 2
Time GPU Kernel Cuda2 Events: 14 Tracks: 4587 Hits: 28064 = 1.265600e-04 s
Time CPU Kernel Cuda2 Events: 14 Tracks: 4587 Hits: 28064 = 1.230240e-04 s
Time CPU total Cuda2 Events: 14 Tracks: 4587 Hits: 28064 = 6.859009e-01 s

Test for Good
To import-> Hits: 28064, Tracks: 4587 Events: 14
Filter with Cuda 1
Time GPU Kernel Cuda1 Events: 14 Tracks: 4587 Hits: 28064 = 1.475200e-04 s
Time CPU Kernel Cuda1 Events: 14 Tracks: 4587 Hits: 28064 = 1.451969e-04 s
Time CPU total Cuda1 Events: 14 Tracks: 4587 Hits: 28064 = 6.810880e-01 s

Test for Good
To import-> Hits: 28064, Tracks: 4587 Events: 14
Filter with Good method
Time CPU total Good Events: 14 Tracks: 4587 Hits: 28064 = 7.369518e-04 s

Test for OpenCL
To import-> Hits: 28064, Tracks: 4587 Events: 14
Filter with OpenCL 2
Time GPU Kernel OpenCl2 Events: 14 Tracks: 4587 Hits: 28064 = 8.768e-05 s
Time CPU Kernel OpenCl2 Events: 14 Tracks: 4587 Hits: 28064 = 0.000117064 s
Time CPU total OpenCl2 Events: 14 Tracks: 4587 Hits: 28064 = 7.298791e-01 s

Test for OpenCL
To import-> Hits: 28064, Tracks: 4587 Events: 14
Filter with OpenCL 1
Time GPU Kernel OpenCl1 Events: 14 Tracks: 4587 Hits: 28064 = 8.7136e-05 s
Time CPU Kernel OpenCl1 Events: 14 Tracks: 4587 Hits: 28064 = 0.000113964 s
Time CPU total OpenCl1 Events: 14 Tracks: 4587 Hits: 28064 = 7.259111e-01 s

-----------------------------
Test for Bad
To import-> Hits: 30895, Tracks: 5044 Events: 15
Filter with Bad method
Time CPU total Bad Events: 15 Tracks: 5044 Hits: 30895 = 1.893997e-03 s

Test for Good
To import-> Hits: 30895, Tracks: 5044 Events: 15
Filter with Cuda 2
Time GPU Kernel Cuda2 Events: 15 Tracks: 5044 Hits: 30895 = 1.310720e-04 s
Time CPU Kernel Cuda2 Events: 15 Tracks: 5044 Hits: 30895 = 1.270771e-04 s
Time CPU total Cuda2 Events: 15 Tracks: 5044 Hits: 30895 = 6.843271e-01 s

Test for Good
To import-> Hits: 30895, Tracks: 5044 Events: 15
Filter with Cuda 1
Time GPU Kernel Cuda1 Events: 15 Tracks: 5044 Hits: 30895 = 1.563200e-04 s
Time CPU Kernel Cuda1 Events: 15 Tracks: 5044 Hits: 30895 = 1.528263e-04 s
Time CPU total Cuda1 Events: 15 Tracks: 5044 Hits: 30895 = 6.852722e-01 s

Test for Good
To import-> Hits: 30895, Tracks: 5044 Events: 15
Filter with Good method
Time CPU total Good Events: 15 Tracks: 5044 Hits: 30895 = 8.101463e-04 s

Test for OpenCL
To import-> Hits: 30895, Tracks: 5044 Events: 15
Filter with OpenCL 2
Time GPU Kernel OpenCl2 Events: 15 Tracks: 5044 Hits: 30895 = 8.9376e-05 s
Time CPU Kernel OpenCl2 Events: 15 Tracks: 5044 Hits: 30895 = 0.000116825 s
Time CPU total OpenCl2 Events: 15 Tracks: 5044 Hits: 30895 = 7.245328e-01 s

Test for OpenCL
To import-> Hits: 30895, Tracks: 5044 Events: 15
Filter with OpenCL 1
Time GPU Kernel OpenCl1 Events: 15 Tracks: 5044 Hits: 30895 = 8.9952e-05 s
Time CPU Kernel OpenCl1 Events: 15 Tracks: 5044 Hits: 30895 = 0.000120163 s
Time CPU total OpenCl1 Events: 15 Tracks: 5044 Hits: 30895 = 7.268109e-01 s

-----------------------------
Test for Bad
To import-> Hits: 31449, Tracks: 5141 Events: 16
Filter with Bad method
Time CPU total Bad Events: 16 Tracks: 5141 Hits: 31449 = 1.816988e-03 s

Test for Good
To import-> Hits: 31449, Tracks: 5141 Events: 16
Filter with Cuda 2
Time GPU Kernel Cuda2 Events: 16 Tracks: 5141 Hits: 31449 = 1.404800e-04 s
Time CPU Kernel Cuda2 Events: 16 Tracks: 5141 Hits: 31449 = 1.358986e-04 s
Time CPU total Cuda2 Events: 16 Tracks: 5141 Hits: 31449 = 6.864882e-01 s

Test for Good
To import-> Hits: 31449, Tracks: 5141 Events: 16
Filter with Cuda 1
Time GPU Kernel Cuda1 Events: 16 Tracks: 5141 Hits: 31449 = 1.585920e-04 s
Time CPU Kernel Cuda1 Events: 16 Tracks: 5141 Hits: 31449 = 1.540184e-04 s
Time CPU total Cuda1 Events: 16 Tracks: 5141 Hits: 31449 = 6.858480e-01 s

Test for Good
To import-> Hits: 31449, Tracks: 5141 Events: 16
Filter with Good method
Time CPU total Good Events: 16 Tracks: 5141 Hits: 31449 = 8.239746e-04 s

Test for OpenCL
To import-> Hits: 31449, Tracks: 5141 Events: 16
Filter with OpenCL 2
Time GPU Kernel OpenCl2 Events: 16 Tracks: 5141 Hits: 31449 = 9.1808e-05 s
Time CPU Kernel OpenCl2 Events: 16 Tracks: 5141 Hits: 31449 = 0.000118017 s
Time CPU total OpenCl2 Events: 16 Tracks: 5141 Hits: 31449 = 7.248719e-01 s

Test for OpenCL
To import-> Hits: 31449, Tracks: 5141 Events: 16
Filter with OpenCL 1
Time GPU Kernel OpenCl1 Events: 16 Tracks: 5141 Hits: 31449 = 9.0304e-05 s
Time CPU Kernel OpenCl1 Events: 16 Tracks: 5141 Hits: 31449 = 0.000117779 s
Time CPU total OpenCl1 Events: 16 Tracks: 5141 Hits: 31449 = 7.264619e-01 s

-----------------------------
Test for Bad
To import-> Hits: 32810, Tracks: 5353 Events: 17
Filter with Bad method
Time CPU total Bad Events: 17 Tracks: 5353 Hits: 32810 = 1.569033e-03 s

Test for Good
To import-> Hits: 32810, Tracks: 5353 Events: 17
Filter with Cuda 2
Time GPU Kernel Cuda2 Events: 17 Tracks: 5353 Hits: 32810 = 1.368640e-04 s
Time CPU Kernel Cuda2 Events: 17 Tracks: 5353 Hits: 32810 = 1.330376e-04 s
Time CPU total Cuda2 Events: 17 Tracks: 5353 Hits: 32810 = 6.865430e-01 s

Test for Good
To import-> Hits: 32810, Tracks: 5353 Events: 17
Filter with Cuda 1
Time GPU Kernel Cuda1 Events: 17 Tracks: 5353 Hits: 32810 = 1.603840e-04 s
Time CPU Kernel Cuda1 Events: 17 Tracks: 5353 Hits: 32810 = 1.559258e-04 s
Time CPU total Cuda1 Events: 17 Tracks: 5353 Hits: 32810 = 6.901891e-01 s

Test for Good
To import-> Hits: 32810, Tracks: 5353 Events: 17
Filter with Good method
Time CPU total Good Events: 17 Tracks: 5353 Hits: 32810 = 8.721352e-04 s

Test for OpenCL
To import-> Hits: 32810, Tracks: 5353 Events: 17
Filter with OpenCL 2
Time GPU Kernel OpenCl2 Events: 17 Tracks: 5353 Hits: 32810 = 9.504e-05 s
Time CPU Kernel OpenCl2 Events: 17 Tracks: 5353 Hits: 32810 = 0.00012207 s
Time CPU total OpenCl2 Events: 17 Tracks: 5353 Hits: 32810 = 7.313402e-01 s

Test for OpenCL
To import-> Hits: 32810, Tracks: 5353 Events: 17
Filter with OpenCL 1
Time GPU Kernel OpenCl1 Events: 17 Tracks: 5353 Hits: 32810 = 9.5488e-05 s
Time CPU Kernel OpenCl1 Events: 17 Tracks: 5353 Hits: 32810 = 0.000134945 s
Time CPU total OpenCl1 Events: 17 Tracks: 5353 Hits: 32810 = 7.265680e-01 s

-----------------------------
Test for Bad
To import-> Hits: 35226, Tracks: 5750 Events: 18
Filter with Bad method
Time CPU total Bad Events: 18 Tracks: 5750 Hits: 35226 = 1.727104e-03 s

Test for Good
To import-> Hits: 35226, Tracks: 5750 Events: 18
Filter with Cuda 2
Time GPU Kernel Cuda2 Events: 18 Tracks: 5750 Hits: 35226 = 1.399360e-04 s
Time CPU Kernel Cuda2 Events: 18 Tracks: 5750 Hits: 35226 = 1.349449e-04 s
Time CPU total Cuda2 Events: 18 Tracks: 5750 Hits: 35226 = 6.906941e-01 s

Test for Good
To import-> Hits: 35226, Tracks: 5750 Events: 18
Filter with Cuda 1
Time GPU Kernel Cuda1 Events: 18 Tracks: 5750 Hits: 35226 = 1.668800e-04 s
Time CPU Kernel Cuda1 Events: 18 Tracks: 5750 Hits: 35226 = 1.628399e-04 s
Time CPU total Cuda1 Events: 18 Tracks: 5750 Hits: 35226 = 6.850700e-01 s

Test for Good
To import-> Hits: 35226, Tracks: 5750 Events: 18
Filter with Good method
Time CPU total Good Events: 18 Tracks: 5750 Hits: 35226 = 9.410381e-04 s

Test for OpenCL
To import-> Hits: 35226, Tracks: 5750 Events: 18
Filter with OpenCL 2
Time GPU Kernel OpenCl2 Events: 18 Tracks: 5750 Hits: 35226 = 0.00010288 s
Time CPU Kernel OpenCl2 Events: 18 Tracks: 5750 Hits: 35226 = 0.000262022 s
Time CPU total OpenCl2 Events: 18 Tracks: 5750 Hits: 35226 = 7.284429e-01 s

Test for OpenCL
To import-> Hits: 35226, Tracks: 5750 Events: 18
Filter with OpenCL 1
Time GPU Kernel OpenCl1 Events: 18 Tracks: 5750 Hits: 35226 = 9.6928e-05 s
Time CPU Kernel OpenCl1 Events: 18 Tracks: 5750 Hits: 35226 = 0.000252962 s
Time CPU total OpenCl1 Events: 18 Tracks: 5750 Hits: 35226 = 7.305000e-01 s

-----------------------------
Test for Bad
To import-> Hits: 38329, Tracks: 6260 Events: 19
Filter with Bad method
Time CPU total Bad Events: 19 Tracks: 6260 Hits: 38329 = 1.974106e-03 s

Test for Good
To import-> Hits: 38329, Tracks: 6260 Events: 19
Filter with Cuda 2
Time GPU Kernel Cuda2 Events: 19 Tracks: 6260 Hits: 38329 = 1.444480e-04 s
Time CPU Kernel Cuda2 Events: 19 Tracks: 6260 Hits: 38329 = 1.401901e-04 s
Time CPU total Cuda2 Events: 19 Tracks: 6260 Hits: 38329 = 6.921470e-01 s

Test for Good
To import-> Hits: 38329, Tracks: 6260 Events: 19
Filter with Cuda 1
Time GPU Kernel Cuda1 Events: 19 Tracks: 6260 Hits: 38329 = 1.748160e-04 s
Time CPU Kernel Cuda1 Events: 19 Tracks: 6260 Hits: 38329 = 1.699924e-04 s
Time CPU total Cuda1 Events: 19 Tracks: 6260 Hits: 38329 = 6.810100e-01 s

Test for Good
To import-> Hits: 38329, Tracks: 6260 Events: 19
Filter with Good method
Time CPU total Good Events: 19 Tracks: 6260 Hits: 38329 = 1.003981e-03 s

Test for OpenCL
To import-> Hits: 38329, Tracks: 6260 Events: 19
Filter with OpenCL 2
Time GPU Kernel OpenCl2 Events: 19 Tracks: 6260 Hits: 38329 = 0.000103648 s
Time CPU Kernel OpenCl2 Events: 19 Tracks: 6260 Hits: 38329 = 0.00026083 s
Time CPU total OpenCl2 Events: 19 Tracks: 6260 Hits: 38329 = 7.273641e-01 s

Test for OpenCL
To import-> Hits: 38329, Tracks: 6260 Events: 19
Filter with OpenCL 1
Time GPU Kernel OpenCl1 Events: 19 Tracks: 6260 Hits: 38329 = 0.000104576 s
Time CPU Kernel OpenCl1 Events: 19 Tracks: 6260 Hits: 38329 = 0.000262976 s
Time CPU total OpenCl1 Events: 19 Tracks: 6260 Hits: 38329 = 7.260480e-01 s

-----------------------------
Test for Bad
To import-> Hits: 40004, Tracks: 6560 Events: 20
Filter with Bad method
Time CPU total Bad Events: 20 Tracks: 6560 Hits: 40004 = 2.115011e-03 s

Test for Good
To import-> Hits: 40004, Tracks: 6560 Events: 20
Filter with Cuda 2
Time GPU Kernel Cuda2 Events: 20 Tracks: 6560 Hits: 40004 = 1.462400e-04 s
Time CPU Kernel Cuda2 Events: 20 Tracks: 6560 Hits: 40004 = 1.430511e-04 s
Time CPU total Cuda2 Events: 20 Tracks: 6560 Hits: 40004 = 6.889601e-01 s

Test for Good
To import-> Hits: 40004, Tracks: 6560 Events: 20
Filter with Cuda 1
Time GPU Kernel Cuda1 Events: 20 Tracks: 6560 Hits: 40004 = 1.730880e-04 s
Time CPU Kernel Cuda1 Events: 20 Tracks: 6560 Hits: 40004 = 1.678467e-04 s
Time CPU total Cuda1 Events: 20 Tracks: 6560 Hits: 40004 = 6.913898e-01 s

Test for Good
To import-> Hits: 40004, Tracks: 6560 Events: 20
Filter with Good method
Time CPU total Good Events: 20 Tracks: 6560 Hits: 40004 = 1.054049e-03 s

Test for OpenCL
To import-> Hits: 40004, Tracks: 6560 Events: 20
Filter with OpenCL 2
Time GPU Kernel OpenCl2 Events: 20 Tracks: 6560 Hits: 40004 = 0.00010432 s
Time CPU Kernel OpenCl2 Events: 20 Tracks: 6560 Hits: 40004 = 0.000259876 s
Time CPU total OpenCl2 Events: 20 Tracks: 6560 Hits: 40004 = 7.450540e-01 s

Test for OpenCL
To import-> Hits: 40004, Tracks: 6560 Events: 20
Filter with OpenCL 1
Time GPU Kernel OpenCl1 Events: 20 Tracks: 6560 Hits: 40004 = 0.000105568 s
Time CPU Kernel OpenCl1 Events: 20 Tracks: 6560 Hits: 40004 = 0.000259876 s
Time CPU total OpenCl1 Events: 20 Tracks: 6560 Hits: 40004 = 7.396472e-01 s

-----------------------------
Test for Bad
To import-> Hits: 57158, Tracks: 9310 Events: 30
Filter with Bad method
Time CPU total Bad Events: 30 Tracks: 9310 Hits: 57158 = 3.324032e-03 s

Test for Good
To import-> Hits: 57158, Tracks: 9310 Events: 30
Filter with Cuda 2
Time GPU Kernel Cuda2 Events: 30 Tracks: 9310 Hits: 57158 = 1.784320e-04 s
Time CPU Kernel Cuda2 Events: 30 Tracks: 9310 Hits: 57158 = 1.738071e-04 s
Time CPU total Cuda2 Events: 30 Tracks: 9310 Hits: 57158 = 6.814430e-01 s

Test for Good
To import-> Hits: 57158, Tracks: 9310 Events: 30
Filter with Cuda 1
Time GPU Kernel Cuda1 Events: 30 Tracks: 9310 Hits: 57158 = 2.198080e-04 s
Time CPU Kernel Cuda1 Events: 30 Tracks: 9310 Hits: 57158 = 2.138615e-04 s
Time CPU total Cuda1 Events: 30 Tracks: 9310 Hits: 57158 = 6.854200e-01 s

Test for Good
To import-> Hits: 57158, Tracks: 9310 Events: 30
Filter with Good method
Time CPU total Good Events: 30 Tracks: 9310 Hits: 57158 = 1.496077e-03 s

Test for OpenCL
To import-> Hits: 57158, Tracks: 9310 Events: 30
Filter with OpenCL 2
Time GPU Kernel OpenCl2 Events: 30 Tracks: 9310 Hits: 57158 = 0.000130336 s
Time CPU Kernel OpenCl2 Events: 30 Tracks: 9310 Hits: 57158 = 0.000159025 s
Time CPU total OpenCl2 Events: 30 Tracks: 9310 Hits: 57158 = 7.206879e-01 s

Test for OpenCL
To import-> Hits: 57158, Tracks: 9310 Events: 30
Filter with OpenCL 1
Time GPU Kernel OpenCl1 Events: 30 Tracks: 9310 Hits: 57158 = 0.000129312 s
Time CPU Kernel OpenCl1 Events: 30 Tracks: 9310 Hits: 57158 = 0.000160217 s
Time CPU total OpenCl1 Events: 30 Tracks: 9310 Hits: 57158 = 7.232430e-01 s

-----------------------------
Test for Bad
To import-> Hits: 75953, Tracks: 12174 Events: 40
Filter with Bad method
Time CPU total Bad Events: 40 Tracks: 12174 Hits: 75953 = 3.746986e-03 s

Test for Good
To import-> Hits: 75953, Tracks: 12174 Events: 40
Filter with Cuda 2
Time GPU Kernel Cuda2 Events: 40 Tracks: 12174 Hits: 75953 = 2.110400e-04 s
Time CPU Kernel Cuda2 Events: 40 Tracks: 12174 Hits: 75953 = 2.069473e-04 s
Time CPU total Cuda2 Events: 40 Tracks: 12174 Hits: 75953 = 6.840088e-01 s

Test for Good
To import-> Hits: 75953, Tracks: 12174 Events: 40
Filter with Cuda 1
Time GPU Kernel Cuda1 Events: 40 Tracks: 12174 Hits: 75953 = 2.574080e-04 s
Time CPU Kernel Cuda1 Events: 40 Tracks: 12174 Hits: 75953 = 2.529621e-04 s
Time CPU total Cuda1 Events: 40 Tracks: 12174 Hits: 75953 = 6.551149e-01 s

Test for Good
To import-> Hits: 75953, Tracks: 12174 Events: 40
Filter with Good method
Time CPU total Good Events: 40 Tracks: 12174 Hits: 75953 = 2.000093e-03 s

Test for OpenCL
To import-> Hits: 75953, Tracks: 12174 Events: 40
Filter with OpenCL 2
Time GPU Kernel OpenCl2 Events: 40 Tracks: 12174 Hits: 75953 = 0.000167424 s
Time CPU Kernel OpenCl2 Events: 40 Tracks: 12174 Hits: 75953 = 0.000194073 s
Time CPU total OpenCl2 Events: 40 Tracks: 12174 Hits: 75953 = 7.293658e-01 s

Test for OpenCL
To import-> Hits: 75953, Tracks: 12174 Events: 40
Filter with OpenCL 1
Time GPU Kernel OpenCl1 Events: 40 Tracks: 12174 Hits: 75953 = 0.000153152 s
Time CPU Kernel OpenCl1 Events: 40 Tracks: 12174 Hits: 75953 = 0.000184059 s
Time CPU total OpenCl1 Events: 40 Tracks: 12174 Hits: 75953 = 7.309110e-01 s

-----------------------------
Test for Bad
To import-> Hits: 93663, Tracks: 15024 Events: 50
Filter with Bad method
Time CPU total Bad Events: 50 Tracks: 15024 Hits: 93663 = 4.987001e-03 s

Test for Good
To import-> Hits: 93663, Tracks: 15024 Events: 50
Filter with Cuda 2
Time GPU Kernel Cuda2 Events: 50 Tracks: 15024 Hits: 93663 = 2.246080e-04 s
Time CPU Kernel Cuda2 Events: 50 Tracks: 15024 Hits: 93663 = 2.219677e-04 s
Time CPU total Cuda2 Events: 50 Tracks: 15024 Hits: 93663 = 6.886890e-01 s

Test for Good
To import-> Hits: 93663, Tracks: 15024 Events: 50
Filter with Cuda 1
Time GPU Kernel Cuda1 Events: 50 Tracks: 15024 Hits: 93663 = 2.818880e-04 s
Time CPU Kernel Cuda1 Events: 50 Tracks: 15024 Hits: 93663 = 2.799034e-04 s
Time CPU total Cuda1 Events: 50 Tracks: 15024 Hits: 93663 = 6.893301e-01 s

Test for Good
To import-> Hits: 93663, Tracks: 15024 Events: 50
Filter with Good method
Time CPU total Good Events: 50 Tracks: 15024 Hits: 93663 = 2.457857e-03 s

Test for OpenCL
To import-> Hits: 93663, Tracks: 15024 Events: 50
Filter with OpenCL 2
Time GPU Kernel OpenCl2 Events: 50 Tracks: 15024 Hits: 93663 = 0.000198496 s
Time CPU Kernel OpenCl2 Events: 50 Tracks: 15024 Hits: 93663 = 0.00022912 s
Time CPU total OpenCl2 Events: 50 Tracks: 15024 Hits: 93663 = 7.247062e-01 s

Test for OpenCL
To import-> Hits: 93663, Tracks: 15024 Events: 50
Filter with OpenCL 1
Time GPU Kernel OpenCl1 Events: 50 Tracks: 15024 Hits: 93663 = 0.000174016 s
Time CPU Kernel OpenCl1 Events: 50 Tracks: 15024 Hits: 93663 = 0.000205994 s
Time CPU total OpenCl1 Events: 50 Tracks: 15024 Hits: 93663 = 7.268331e-01 s

-----------------------------
Test for Bad
To import-> Hits: 114400, Tracks: 18356 Events: 60
Filter with Bad method
Time CPU total Bad Events: 60 Tracks: 18356 Hits: 114400 = 6.603956e-03 s

Test for Good
To import-> Hits: 114400, Tracks: 18356 Events: 60
Filter with Cuda 2
Time GPU Kernel Cuda2 Events: 60 Tracks: 18356 Hits: 114400 = 2.506240e-04 s
Time CPU Kernel Cuda2 Events: 60 Tracks: 18356 Hits: 114400 = 2.501011e-04 s
Time CPU total Cuda2 Events: 60 Tracks: 18356 Hits: 114400 = 7.047849e-01 s

Test for Good
To import-> Hits: 114400, Tracks: 18356 Events: 60
Filter with Cuda 1
Time GPU Kernel Cuda1 Events: 60 Tracks: 18356 Hits: 114400 = 3.146880e-04 s
Time CPU Kernel Cuda1 Events: 60 Tracks: 18356 Hits: 114400 = 3.130436e-04 s
Time CPU total Cuda1 Events: 60 Tracks: 18356 Hits: 114400 = 6.910090e-01 s

Test for Good
To import-> Hits: 114400, Tracks: 18356 Events: 60
Filter with Good method
Time CPU total Good Events: 60 Tracks: 18356 Hits: 114400 = 2.998114e-03 s

Test for OpenCL
To import-> Hits: 114400, Tracks: 18356 Events: 60
Filter with OpenCL 2
Time GPU Kernel OpenCl2 Events: 60 Tracks: 18356 Hits: 114400 = 0.000240032 s
Time CPU Kernel OpenCl2 Events: 60 Tracks: 18356 Hits: 114400 = 0.00039506 s
Time CPU total OpenCl2 Events: 60 Tracks: 18356 Hits: 114400 = 7.252760e-01 s

Test for OpenCL
To import-> Hits: 114400, Tracks: 18356 Events: 60
Filter with OpenCL 1
Time GPU Kernel OpenCl1 Events: 60 Tracks: 18356 Hits: 114400 = 0.000197504 s
Time CPU Kernel OpenCl1 Events: 60 Tracks: 18356 Hits: 114400 = 0.000347853 s
Time CPU total OpenCl1 Events: 60 Tracks: 18356 Hits: 114400 = 7.244210e-01 s

-----------------------------
Test for Bad
To import-> Hits: 135212, Tracks: 21691 Events: 70
Filter with Bad method
Time CPU total Bad Events: 70 Tracks: 21691 Hits: 135212 = 6.455898e-03 s

Test for Good
To import-> Hits: 135212, Tracks: 21691 Events: 70
Filter with Cuda 2
Time GPU Kernel Cuda2 Events: 70 Tracks: 21691 Hits: 135212 = 2.763840e-04 s
Time CPU Kernel Cuda2 Events: 70 Tracks: 21691 Hits: 135212 = 2.770424e-04 s
Time CPU total Cuda2 Events: 70 Tracks: 21691 Hits: 135212 = 6.866660e-01 s

Test for Good
To import-> Hits: 135212, Tracks: 21691 Events: 70
Filter with Cuda 1
Time GPU Kernel Cuda1 Events: 70 Tracks: 21691 Hits: 135212 = 3.458880e-04 s
Time CPU Kernel Cuda1 Events: 70 Tracks: 21691 Hits: 135212 = 3.459454e-04 s
Time CPU total Cuda1 Events: 70 Tracks: 21691 Hits: 135212 = 6.866012e-01 s

Test for Good
To import-> Hits: 135212, Tracks: 21691 Events: 70
Filter with Good method
Time CPU total Good Events: 70 Tracks: 21691 Hits: 135212 = 3.538132e-03 s

Test for OpenCL
To import-> Hits: 135212, Tracks: 21691 Events: 70
Filter with OpenCL 2
Time GPU Kernel OpenCl2 Events: 70 Tracks: 21691 Hits: 135212 = 0.000252672 s
Time CPU Kernel OpenCl2 Events: 70 Tracks: 21691 Hits: 135212 = 0.000405073 s
Time CPU total OpenCl2 Events: 70 Tracks: 21691 Hits: 135212 = 7.280371e-01 s

Test for OpenCL
To import-> Hits: 135212, Tracks: 21691 Events: 70
Filter with OpenCL 1
Time GPU Kernel OpenCl1 Events: 70 Tracks: 21691 Hits: 135212 = 0.000220672 s
Time CPU Kernel OpenCl1 Events: 70 Tracks: 21691 Hits: 135212 = 0.000373125 s
Time CPU total OpenCl1 Events: 70 Tracks: 21691 Hits: 135212 = 7.289159e-01 s

-----------------------------
Test for Bad
To import-> Hits: 155915, Tracks: 24967 Events: 80
Filter with Bad method
Time CPU total Bad Events: 80 Tracks: 24967 Hits: 155915 = 7.757187e-03 s

Test for Good
To import-> Hits: 155915, Tracks: 24967 Events: 80
Filter with Cuda 2
Time GPU Kernel Cuda2 Events: 80 Tracks: 24967 Hits: 155915 = 3.112640e-04 s
Time CPU Kernel Cuda2 Events: 80 Tracks: 24967 Hits: 155915 = 3.120899e-04 s
Time CPU total Cuda2 Events: 80 Tracks: 24967 Hits: 155915 = 6.955009e-01 s

Test for Good
To import-> Hits: 155915, Tracks: 24967 Events: 80
Filter with Cuda 1
Time GPU Kernel Cuda1 Events: 80 Tracks: 24967 Hits: 155915 = 3.917120e-04 s
Time CPU Kernel Cuda1 Events: 80 Tracks: 24967 Hits: 155915 = 3.929138e-04 s
Time CPU total Cuda1 Events: 80 Tracks: 24967 Hits: 155915 = 6.889360e-01 s

Test for Good
To import-> Hits: 155915, Tracks: 24967 Events: 80
Filter with Good method
Time CPU total Good Events: 80 Tracks: 24967 Hits: 155915 = 4.171848e-03 s

Test for OpenCL
To import-> Hits: 155915, Tracks: 24967 Events: 80
Filter with OpenCL 2
Time GPU Kernel OpenCl2 Events: 80 Tracks: 24967 Hits: 155915 = 0.000290592 s
Time CPU Kernel OpenCl2 Events: 80 Tracks: 24967 Hits: 155915 = 0.000445843 s
Time CPU total OpenCl2 Events: 80 Tracks: 24967 Hits: 155915 = 7.275271e-01 s

Test for OpenCL
To import-> Hits: 155915, Tracks: 24967 Events: 80
Filter with OpenCL 1
Time GPU Kernel OpenCl1 Events: 80 Tracks: 24967 Hits: 155915 = 0.00024704 s
Time CPU Kernel OpenCl1 Events: 80 Tracks: 24967 Hits: 155915 = 0.000401974 s
Time CPU total OpenCl1 Events: 80 Tracks: 24967 Hits: 155915 = 7.250519e-01 s

-----------------------------
Test for Bad
To import-> Hits: 175352, Tracks: 28121 Events: 90
Filter with Bad method
Time CPU total Bad Events: 90 Tracks: 28121 Hits: 175352 = 9.091854e-03 s

Test for Good
To import-> Hits: 175352, Tracks: 28121 Events: 90
Filter with Cuda 2
Time GPU Kernel Cuda2 Events: 90 Tracks: 28121 Hits: 175352 = 3.348480e-04 s
Time CPU Kernel Cuda2 Events: 90 Tracks: 28121 Hits: 175352 = 3.368855e-04 s
Time CPU total Cuda2 Events: 90 Tracks: 28121 Hits: 175352 = 6.950841e-01 s

Test for Good
To import-> Hits: 175352, Tracks: 28121 Events: 90
Filter with Cuda 1
Time GPU Kernel Cuda1 Events: 90 Tracks: 28121 Hits: 175352 = 4.259520e-04 s
Time CPU Kernel Cuda1 Events: 90 Tracks: 28121 Hits: 175352 = 4.279613e-04 s
Time CPU total Cuda1 Events: 90 Tracks: 28121 Hits: 175352 = 6.873999e-01 s

Test for Good
To import-> Hits: 175352, Tracks: 28121 Events: 90
Filter with Good method
Time CPU total Good Events: 90 Tracks: 28121 Hits: 175352 = 4.611015e-03 s

Test for OpenCL
To import-> Hits: 175352, Tracks: 28121 Events: 90
Filter with OpenCL 2
Time GPU Kernel OpenCl2 Events: 90 Tracks: 28121 Hits: 175352 = 0.000350272 s
Time CPU Kernel OpenCl2 Events: 90 Tracks: 28121 Hits: 175352 = 0.000503063 s
Time CPU total OpenCl2 Events: 90 Tracks: 28121 Hits: 175352 = 7.314749e-01 s

Test for OpenCL
To import-> Hits: 175352, Tracks: 28121 Events: 90
Filter with OpenCL 1
Time GPU Kernel OpenCl1 Events: 90 Tracks: 28121 Hits: 175352 = 0.0002728 s
Time CPU Kernel OpenCl1 Events: 90 Tracks: 28121 Hits: 175352 = 0.000430107 s
Time CPU total OpenCl1 Events: 90 Tracks: 28121 Hits: 175352 = 7.260170e-01 s

-----------------------------
Test for Bad
To import-> Hits: 196714, Tracks: 31506 Events: 100
Filter with Bad method
Time CPU total Bad Events: 100 Tracks: 31506 Hits: 196714 = 1.062322e-02 s

Test for Good
To import-> Hits: 196714, Tracks: 31506 Events: 100
Filter with Cuda 2
Time GPU Kernel Cuda2 Events: 100 Tracks: 31506 Hits: 196714 = 3.664000e-04 s
Time CPU Kernel Cuda2 Events: 100 Tracks: 31506 Hits: 196714 = 3.700256e-04 s
Time CPU total Cuda2 Events: 100 Tracks: 31506 Hits: 196714 = 7.002099e-01 s

Test for Good
To import-> Hits: 196714, Tracks: 31506 Events: 100
Filter with Cuda 1
Time GPU Kernel Cuda1 Events: 100 Tracks: 31506 Hits: 196714 = 4.807360e-04 s
Time CPU Kernel Cuda1 Events: 100 Tracks: 31506 Hits: 196714 = 4.839897e-04 s
Time CPU total Cuda1 Events: 100 Tracks: 31506 Hits: 196714 = 7.014129e-01 s

Test for Good
To import-> Hits: 196714, Tracks: 31506 Events: 100
Filter with Good method
Time CPU total Good Events: 100 Tracks: 31506 Hits: 196714 = 5.195856e-03 s

Test for OpenCL
To import-> Hits: 196714, Tracks: 31506 Events: 100
Filter with OpenCL 2
Time GPU Kernel OpenCl2 Events: 100 Tracks: 31506 Hits: 196714 = 0.000386368 s
Time CPU Kernel OpenCl2 Events: 100 Tracks: 31506 Hits: 196714 = 0.000540018 s
Time CPU total OpenCl2 Events: 100 Tracks: 31506 Hits: 196714 = 7.322130e-01 s

Test for OpenCL
To import-> Hits: 196714, Tracks: 31506 Events: 100
Filter with OpenCL 1
Time GPU Kernel OpenCl1 Events: 100 Tracks: 31506 Hits: 196714 = 0.000301632 s
Time CPU Kernel OpenCl1 Events: 100 Tracks: 31506 Hits: 196714 = 0.000455856 s
Time CPU total OpenCl1 Events: 100 Tracks: 31506 Hits: 196714 = 7.281621e-01 s

-----------------------------
Test for Bad
To import-> Hits: 214801, Tracks: 34413 Events: 110
Filter with Bad method
Time CPU total Bad Events: 110 Tracks: 34413 Hits: 214801 = 1.201797e-02 s

Test for Good
To import-> Hits: 214801, Tracks: 34413 Events: 110
Filter with Cuda 2
Time GPU Kernel Cuda2 Events: 110 Tracks: 34413 Hits: 214801 = 3.931840e-04 s
Time CPU Kernel Cuda2 Events: 110 Tracks: 34413 Hits: 214801 = 3.969669e-04 s
Time CPU total Cuda2 Events: 110 Tracks: 34413 Hits: 214801 = 6.987450e-01 s

Test for Good
To import-> Hits: 214801, Tracks: 34413 Events: 110
Filter with Cuda 1
Time GPU Kernel Cuda1 Events: 110 Tracks: 34413 Hits: 214801 = 5.039040e-04 s
Time CPU Kernel Cuda1 Events: 110 Tracks: 34413 Hits: 214801 = 5.078316e-04 s
Time CPU total Cuda1 Events: 110 Tracks: 34413 Hits: 214801 = 6.933360e-01 s

Test for Good
To import-> Hits: 214801, Tracks: 34413 Events: 110
Filter with Good method
Time CPU total Good Events: 110 Tracks: 34413 Hits: 214801 = 5.594969e-03 s

Test for OpenCL
To import-> Hits: 214801, Tracks: 34413 Events: 110
Filter with OpenCL 2
Time GPU Kernel OpenCl2 Events: 110 Tracks: 34413 Hits: 214801 = 0.00039856 s
Time CPU Kernel OpenCl2 Events: 110 Tracks: 34413 Hits: 214801 = 0.000553846 s
Time CPU total OpenCl2 Events: 110 Tracks: 34413 Hits: 214801 = 7.391131e-01 s

Test for OpenCL
To import-> Hits: 214801, Tracks: 34413 Events: 110
Filter with OpenCL 1
Time GPU Kernel OpenCl1 Events: 110 Tracks: 34413 Hits: 214801 = 0.000319488 s
Time CPU Kernel OpenCl1 Events: 110 Tracks: 34413 Hits: 214801 = 0.000482082 s
Time CPU total OpenCl1 Events: 110 Tracks: 34413 Hits: 214801 = 7.354870e-01 s

-----------------------------
Test for Bad
To import-> Hits: 233881, Tracks: 37459 Events: 120
Filter with Bad method
Time CPU total Bad Events: 120 Tracks: 37459 Hits: 233881 = 1.343489e-02 s

Test for Good
To import-> Hits: 233881, Tracks: 37459 Events: 120
Filter with Cuda 2
Time GPU Kernel Cuda2 Events: 120 Tracks: 37459 Hits: 233881 = 4.216640e-04 s
Time CPU Kernel Cuda2 Events: 120 Tracks: 37459 Hits: 233881 = 4.260540e-04 s
Time CPU total Cuda2 Events: 120 Tracks: 37459 Hits: 233881 = 6.885691e-01 s

Test for Good
To import-> Hits: 233881, Tracks: 37459 Events: 120
Filter with Cuda 1
Time GPU Kernel Cuda1 Events: 120 Tracks: 37459 Hits: 233881 = 5.462400e-04 s
Time CPU Kernel Cuda1 Events: 120 Tracks: 37459 Hits: 233881 = 5.519390e-04 s
Time CPU total Cuda1 Events: 120 Tracks: 37459 Hits: 233881 = 6.900229e-01 s

Test for Good
To import-> Hits: 233881, Tracks: 37459 Events: 120
Filter with Good method
Time CPU total Good Events: 120 Tracks: 37459 Hits: 233881 = 6.156921e-03 s

Test for OpenCL
To import-> Hits: 233881, Tracks: 37459 Events: 120
Filter with OpenCL 2
Time GPU Kernel OpenCl2 Events: 120 Tracks: 37459 Hits: 233881 = 0.000449088 s
Time CPU Kernel OpenCl2 Events: 120 Tracks: 37459 Hits: 233881 = 0.00060606 s
Time CPU total OpenCl2 Events: 120 Tracks: 37459 Hits: 233881 = 7.353282e-01 s

Test for OpenCL
To import-> Hits: 233881, Tracks: 37459 Events: 120
Filter with OpenCL 1
Time GPU Kernel OpenCl1 Events: 120 Tracks: 37459 Hits: 233881 = 0.000346624 s
Time CPU Kernel OpenCl1 Events: 120 Tracks: 37459 Hits: 233881 = 0.000504971 s
Time CPU total OpenCl1 Events: 120 Tracks: 37459 Hits: 233881 = 7.304950e-01 s

-----------------------------
Test for Bad
To import-> Hits: 254225, Tracks: 40754 Events: 130
Filter with Bad method
Time CPU total Bad Events: 130 Tracks: 40754 Hits: 254225 = 1.177287e-02 s

Test for Good
To import-> Hits: 254225, Tracks: 40754 Events: 130
Filter with Cuda 2
Time GPU Kernel Cuda2 Events: 130 Tracks: 40754 Hits: 254225 = 4.481600e-04 s
Time CPU Kernel Cuda2 Events: 130 Tracks: 40754 Hits: 254225 = 4.539490e-04 s
Time CPU total Cuda2 Events: 130 Tracks: 40754 Hits: 254225 = 6.978102e-01 s

Test for Good
To import-> Hits: 254225, Tracks: 40754 Events: 130
Filter with Cuda 1
Time GPU Kernel Cuda1 Events: 130 Tracks: 40754 Hits: 254225 = 5.804161e-04 s
Time CPU Kernel Cuda1 Events: 130 Tracks: 40754 Hits: 254225 = 5.860329e-04 s
Time CPU total Cuda1 Events: 130 Tracks: 40754 Hits: 254225 = 6.862650e-01 s

Test for Good
To import-> Hits: 254225, Tracks: 40754 Events: 130
Filter with Good method
Time CPU total Good Events: 130 Tracks: 40754 Hits: 254225 = 6.646872e-03 s

Test for OpenCL
To import-> Hits: 254225, Tracks: 40754 Events: 130
Filter with OpenCL 2
Time GPU Kernel OpenCl2 Events: 130 Tracks: 40754 Hits: 254225 = 0.000470912 s
Time CPU Kernel OpenCl2 Events: 130 Tracks: 40754 Hits: 254225 = 0.000627041 s
Time CPU total OpenCl2 Events: 130 Tracks: 40754 Hits: 254225 = 7.371109e-01 s

Test for OpenCL
To import-> Hits: 254225, Tracks: 40754 Events: 130
Filter with OpenCL 1
Time GPU Kernel OpenCl1 Events: 130 Tracks: 40754 Hits: 254225 = 0.000374624 s
Time CPU Kernel OpenCl1 Events: 130 Tracks: 40754 Hits: 254225 = 0.000531197 s
Time CPU total OpenCl1 Events: 130 Tracks: 40754 Hits: 254225 = 7.347500e-01 s

-----------------------------
Test for Bad
To import-> Hits: 278857, Tracks: 44705 Events: 140
Filter with Bad method
Time CPU total Bad Events: 140 Tracks: 44705 Hits: 278857 = 1.315808e-02 s

Test for Good
To import-> Hits: 278857, Tracks: 44705 Events: 140
Filter with Cuda 2
Time GPU Kernel Cuda2 Events: 140 Tracks: 44705 Hits: 278857 = 4.849600e-04 s
Time CPU Kernel Cuda2 Events: 140 Tracks: 44705 Hits: 278857 = 4.920959e-04 s
Time CPU total Cuda2 Events: 140 Tracks: 44705 Hits: 278857 = 6.902878e-01 s

Test for Good
To import-> Hits: 278857, Tracks: 44705 Events: 140
Filter with Cuda 1
Time GPU Kernel Cuda1 Events: 140 Tracks: 44705 Hits: 278857 = 6.349441e-04 s
Time CPU Kernel Cuda1 Events: 140 Tracks: 44705 Hits: 278857 = 6.420612e-04 s
Time CPU total Cuda1 Events: 140 Tracks: 44705 Hits: 278857 = 6.923139e-01 s

Test for Good
To import-> Hits: 278857, Tracks: 44705 Events: 140
Filter with Good method
Time CPU total Good Events: 140 Tracks: 44705 Hits: 278857 = 7.363081e-03 s

Test for OpenCL
To import-> Hits: 278857, Tracks: 44705 Events: 140
Filter with OpenCL 2
Time GPU Kernel OpenCl2 Events: 140 Tracks: 44705 Hits: 278857 = 0.000505984 s
Time CPU Kernel OpenCl2 Events: 140 Tracks: 44705 Hits: 278857 = 0.000667095 s
Time CPU total OpenCl2 Events: 140 Tracks: 44705 Hits: 278857 = 7.282190e-01 s

Test for OpenCL
To import-> Hits: 278857, Tracks: 44705 Events: 140
Filter with OpenCL 1
Time GPU Kernel OpenCl1 Events: 140 Tracks: 44705 Hits: 278857 = 0.000408352 s
Time CPU Kernel OpenCl1 Events: 140 Tracks: 44705 Hits: 278857 = 0.000565052 s
Time CPU total OpenCl1 Events: 140 Tracks: 44705 Hits: 278857 = 7.284188e-01 s

-----------------------------
Test for Bad
To import-> Hits: 299938, Tracks: 48106 Events: 150
Filter with Bad method
Time CPU total Bad Events: 150 Tracks: 48106 Hits: 299938 = 1.425815e-02 s

Test for Good
To import-> Hits: 299938, Tracks: 48106 Events: 150
Filter with Cuda 2
Time GPU Kernel Cuda2 Events: 150 Tracks: 48106 Hits: 299938 = 5.170560e-04 s
Time CPU Kernel Cuda2 Events: 150 Tracks: 48106 Hits: 299938 = 5.259514e-04 s
Time CPU total Cuda2 Events: 150 Tracks: 48106 Hits: 299938 = 6.980588e-01 s

Test for Good
To import-> Hits: 299938, Tracks: 48106 Events: 150
Filter with Cuda 1
Time GPU Kernel Cuda1 Events: 150 Tracks: 48106 Hits: 299938 = 6.612160e-04 s
Time CPU Kernel Cuda1 Events: 150 Tracks: 48106 Hits: 299938 = 6.699562e-04 s
Time CPU total Cuda1 Events: 150 Tracks: 48106 Hits: 299938 = 6.921451e-01 s

Test for Good
To import-> Hits: 299938, Tracks: 48106 Events: 150
Filter with Good method
Time CPU total Good Events: 150 Tracks: 48106 Hits: 299938 = 7.918119e-03 s

Test for OpenCL
To import-> Hits: 299938, Tracks: 48106 Events: 150
Filter with OpenCL 2
Time GPU Kernel OpenCl2 Events: 150 Tracks: 48106 Hits: 299938 = 0.000553696 s
Time CPU Kernel OpenCl2 Events: 150 Tracks: 48106 Hits: 299938 = 0.000709772 s
Time CPU total OpenCl2 Events: 150 Tracks: 48106 Hits: 299938 = 7.418280e-01 s

Test for OpenCL
To import-> Hits: 299938, Tracks: 48106 Events: 150
Filter with OpenCL 1
Time GPU Kernel OpenCl1 Events: 150 Tracks: 48106 Hits: 299938 = 0.000430496 s
Time CPU Kernel OpenCl1 Events: 150 Tracks: 48106 Hits: 299938 = 0.00058794 s
Time CPU total OpenCl1 Events: 150 Tracks: 48106 Hits: 299938 = 7.402070e-01 s

-----------------------------
Test for Bad
To import-> Hits: 321407, Tracks: 51627 Events: 160
Filter with Bad method
Time CPU total Bad Events: 160 Tracks: 51627 Hits: 321407 = 1.578784e-02 s

Test for Good
To import-> Hits: 321407, Tracks: 51627 Events: 160
Filter with Cuda 2
Time GPU Kernel Cuda2 Events: 160 Tracks: 51627 Hits: 321407 = 5.400321e-04 s
Time CPU Kernel Cuda2 Events: 160 Tracks: 51627 Hits: 321407 = 5.500317e-04 s
Time CPU total Cuda2 Events: 160 Tracks: 51627 Hits: 321407 = 6.888762e-01 s

Test for Good
To import-> Hits: 321407, Tracks: 51627 Events: 160
Filter with Cuda 1
Time GPU Kernel Cuda1 Events: 160 Tracks: 51627 Hits: 321407 = 7.111680e-04 s
Time CPU Kernel Cuda1 Events: 160 Tracks: 51627 Hits: 321407 = 7.200241e-04 s
Time CPU total Cuda1 Events: 160 Tracks: 51627 Hits: 321407 = 6.947320e-01 s

Test for Good
To import-> Hits: 321407, Tracks: 51627 Events: 160
Filter with Good method
Time CPU total Good Events: 160 Tracks: 51627 Hits: 321407 = 8.513212e-03 s

Test for OpenCL
To import-> Hits: 321407, Tracks: 51627 Events: 160
Filter with OpenCL 2
Time GPU Kernel OpenCl2 Events: 160 Tracks: 51627 Hits: 321407 = 0.000576544 s
Time CPU Kernel OpenCl2 Events: 160 Tracks: 51627 Hits: 321407 = 0.000731945 s
Time CPU total OpenCl2 Events: 160 Tracks: 51627 Hits: 321407 = 7.423491e-01 s

Test for OpenCL
To import-> Hits: 321407, Tracks: 51627 Events: 160
Filter with OpenCL 1
Time GPU Kernel OpenCl1 Events: 160 Tracks: 51627 Hits: 321407 = 0.000454944 s
Time CPU Kernel OpenCl1 Events: 160 Tracks: 51627 Hits: 321407 = 0.000610113 s
Time CPU total OpenCl1 Events: 160 Tracks: 51627 Hits: 321407 = 7.319410e-01 s

-----------------------------
Test for Bad
To import-> Hits: 339287, Tracks: 54445 Events: 170
Filter with Bad method
Time CPU total Bad Events: 170 Tracks: 54445 Hits: 339287 = 1.687789e-02 s

Test for Good
To import-> Hits: 339287, Tracks: 54445 Events: 170
Filter with Cuda 2
Time GPU Kernel Cuda2 Events: 170 Tracks: 54445 Hits: 339287 = 5.687361e-04 s
Time CPU Kernel Cuda2 Events: 170 Tracks: 54445 Hits: 339287 = 5.750656e-04 s
Time CPU total Cuda2 Events: 170 Tracks: 54445 Hits: 339287 = 7.019300e-01 s

Test for Good
To import-> Hits: 339287, Tracks: 54445 Events: 170
Filter with Cuda 1
Time GPU Kernel Cuda1 Events: 170 Tracks: 54445 Hits: 339287 = 7.451840e-04 s
Time CPU Kernel Cuda1 Events: 170 Tracks: 54445 Hits: 339287 = 7.548332e-04 s
Time CPU total Cuda1 Events: 170 Tracks: 54445 Hits: 339287 = 7.056160e-01 s

Test for Good
To import-> Hits: 339287, Tracks: 54445 Events: 170
Filter with Good method
Time CPU total Good Events: 170 Tracks: 54445 Hits: 339287 = 8.525848e-03 s

Test for OpenCL
To import-> Hits: 339287, Tracks: 54445 Events: 170
Filter with OpenCL 2
Time GPU Kernel OpenCl2 Events: 170 Tracks: 54445 Hits: 339287 = 0.000598848 s
Time CPU Kernel OpenCl2 Events: 170 Tracks: 54445 Hits: 339287 = 0.000748873 s
Time CPU total OpenCl2 Events: 170 Tracks: 54445 Hits: 339287 = 7.356219e-01 s

Test for OpenCL
To import-> Hits: 339287, Tracks: 54445 Events: 170
Filter with OpenCL 1
Time GPU Kernel OpenCl1 Events: 170 Tracks: 54445 Hits: 339287 = 0.0004784 s
Time CPU Kernel OpenCl1 Events: 170 Tracks: 54445 Hits: 339287 = 0.000630856 s
Time CPU total OpenCl1 Events: 170 Tracks: 54445 Hits: 339287 = 7.420888e-01 s

-----------------------------
Test for Bad
To import-> Hits: 357414, Tracks: 57335 Events: 180
Filter with Bad method
Time CPU total Bad Events: 180 Tracks: 57335 Hits: 357414 = 1.816297e-02 s

Test for Good
To import-> Hits: 357414, Tracks: 57335 Events: 180
Filter with Cuda 2
Time GPU Kernel Cuda2 Events: 180 Tracks: 57335 Hits: 357414 = 5.870080e-04 s
Time CPU Kernel Cuda2 Events: 180 Tracks: 57335 Hits: 357414 = 5.970001e-04 s
Time CPU total Cuda2 Events: 180 Tracks: 57335 Hits: 357414 = 6.927302e-01 s

Test for Good
To import-> Hits: 357414, Tracks: 57335 Events: 180
Filter with Cuda 1
Time GPU Kernel Cuda1 Events: 180 Tracks: 57335 Hits: 357414 = 7.749120e-04 s
Time CPU Kernel Cuda1 Events: 180 Tracks: 57335 Hits: 357414 = 7.860661e-04 s
Time CPU total Cuda1 Events: 180 Tracks: 57335 Hits: 357414 = 6.961560e-01 s

Test for Good
To import-> Hits: 357414, Tracks: 57335 Events: 180
Filter with Good method
Time CPU total Good Events: 180 Tracks: 57335 Hits: 357414 = 9.484053e-03 s

Test for OpenCL
To import-> Hits: 357414, Tracks: 57335 Events: 180
Filter with OpenCL 2
Time GPU Kernel OpenCl2 Events: 180 Tracks: 57335 Hits: 357414 = 0.000656 s
Time CPU Kernel OpenCl2 Events: 180 Tracks: 57335 Hits: 357414 = 0.000806093 s
Time CPU total OpenCl2 Events: 180 Tracks: 57335 Hits: 357414 = 7.352550e-01 s

Test for OpenCL
To import-> Hits: 357414, Tracks: 57335 Events: 180
Filter with OpenCL 1
Time GPU Kernel OpenCl1 Events: 180 Tracks: 57335 Hits: 357414 = 0.00050624 s
Time CPU Kernel OpenCl1 Events: 180 Tracks: 57335 Hits: 357414 = 0.00065589 s
Time CPU total OpenCl1 Events: 180 Tracks: 57335 Hits: 357414 = 7.289460e-01 s

-----------------------------
Test for Bad
To import-> Hits: 377316, Tracks: 60572 Events: 190
Filter with Bad method
Time CPU total Bad Events: 190 Tracks: 60572 Hits: 377316 = 1.975203e-02 s

Test for Good
To import-> Hits: 377316, Tracks: 60572 Events: 190
Filter with Cuda 2
Time GPU Kernel Cuda2 Events: 190 Tracks: 60572 Hits: 377316 = 6.206400e-04 s
Time CPU Kernel Cuda2 Events: 190 Tracks: 60572 Hits: 377316 = 6.330013e-04 s
Time CPU total Cuda2 Events: 190 Tracks: 60572 Hits: 377316 = 6.937771e-01 s

Test for Good
To import-> Hits: 377316, Tracks: 60572 Events: 190
Filter with Cuda 1
Time GPU Kernel Cuda1 Events: 190 Tracks: 60572 Hits: 377316 = 8.101761e-04 s
Time CPU Kernel Cuda1 Events: 190 Tracks: 60572 Hits: 377316 = 8.239746e-04 s
Time CPU total Cuda1 Events: 190 Tracks: 60572 Hits: 377316 = 6.956551e-01 s

Test for Good
To import-> Hits: 377316, Tracks: 60572 Events: 190
Filter with Good method
Time CPU total Good Events: 190 Tracks: 60572 Hits: 377316 = 9.567022e-03 s

Test for OpenCL
To import-> Hits: 377316, Tracks: 60572 Events: 190
Filter with OpenCL 2
Time GPU Kernel OpenCl2 Events: 190 Tracks: 60572 Hits: 377316 = 0.000680416 s
Time CPU Kernel OpenCl2 Events: 190 Tracks: 60572 Hits: 377316 = 0.000831127 s
Time CPU total OpenCl2 Events: 190 Tracks: 60572 Hits: 377316 = 7.439480e-01 s

Test for OpenCL
To import-> Hits: 377316, Tracks: 60572 Events: 190
Filter with OpenCL 1
Time GPU Kernel OpenCl1 Events: 190 Tracks: 60572 Hits: 377316 = 0.000523392 s
Time CPU Kernel OpenCl1 Events: 190 Tracks: 60572 Hits: 377316 = 0.000675201 s
Time CPU total OpenCl1 Events: 190 Tracks: 60572 Hits: 377316 = 7.406480e-01 s

-----------------------------
Test for Bad
To import-> Hits: 398354, Tracks: 63921 Events: 200
Filter with Bad method
Time CPU total Bad Events: 200 Tracks: 63921 Hits: 398354 = 2.122283e-02 s

Test for Good
To import-> Hits: 398354, Tracks: 63921 Events: 200
Filter with Cuda 2
Time GPU Kernel Cuda2 Events: 200 Tracks: 63921 Hits: 398354 = 6.409920e-04 s
Time CPU Kernel Cuda2 Events: 200 Tracks: 63921 Hits: 398354 = 6.551743e-04 s
Time CPU total Cuda2 Events: 200 Tracks: 63921 Hits: 398354 = 7.049732e-01 s

Test for Good
To import-> Hits: 398354, Tracks: 63921 Events: 200
Filter with Cuda 1
Time GPU Kernel Cuda1 Events: 200 Tracks: 63921 Hits: 398354 = 8.605121e-04 s
Time CPU Kernel Cuda1 Events: 200 Tracks: 63921 Hits: 398354 = 8.738041e-04 s
Time CPU total Cuda1 Events: 200 Tracks: 63921 Hits: 398354 = 7.054811e-01 s

Test for Good
To import-> Hits: 398354, Tracks: 63921 Events: 200
Filter with Good method
Time CPU total Good Events: 200 Tracks: 63921 Hits: 398354 = 1.051092e-02 s

Test for OpenCL
To import-> Hits: 398354, Tracks: 63921 Events: 200
Filter with OpenCL 2
Time GPU Kernel OpenCl2 Events: 200 Tracks: 63921 Hits: 398354 = 0.000731776 s
Time CPU Kernel OpenCl2 Events: 200 Tracks: 63921 Hits: 398354 = 0.000887871 s
Time CPU total OpenCl2 Events: 200 Tracks: 63921 Hits: 398354 = 7.282290e-01 s

Test for OpenCL
To import-> Hits: 398354, Tracks: 63921 Events: 200
Filter with OpenCL 1
Time GPU Kernel OpenCl1 Events: 200 Tracks: 63921 Hits: 398354 = 0.000553312 s
Time CPU Kernel OpenCl1 Events: 200 Tracks: 63921 Hits: 398354 = 0.000705004 s
Time CPU total OpenCl1 Events: 200 Tracks: 63921 Hits: 398354 = 7.352860e-01 s

-----------------------------
Test for Bad
To import-> Hits: 416406, Tracks: 66802 Events: 210
Filter with Bad method
Time CPU total Bad Events: 210 Tracks: 66802 Hits: 416406 = 2.225494e-02 s

Test for Good
To import-> Hits: 416406, Tracks: 66802 Events: 210
Filter with Cuda 2
Time GPU Kernel Cuda2 Events: 210 Tracks: 66802 Hits: 416406 = 6.920640e-04 s
Time CPU Kernel Cuda2 Events: 210 Tracks: 66802 Hits: 416406 = 7.059574e-04 s
Time CPU total Cuda2 Events: 210 Tracks: 66802 Hits: 416406 = 7.012420e-01 s

Test for Good
To import-> Hits: 416406, Tracks: 66802 Events: 210
Filter with Cuda 1
Time GPU Kernel Cuda1 Events: 210 Tracks: 66802 Hits: 416406 = 9.030401e-04 s
Time CPU Kernel Cuda1 Events: 210 Tracks: 66802 Hits: 416406 = 9.179115e-04 s
Time CPU total Cuda1 Events: 210 Tracks: 66802 Hits: 416406 = 6.934700e-01 s

Test for Good
To import-> Hits: 416406, Tracks: 66802 Events: 210
Filter with Good method
Time CPU total Good Events: 210 Tracks: 66802 Hits: 416406 = 1.086998e-02 s

Test for OpenCL
To import-> Hits: 416406, Tracks: 66802 Events: 210
Filter with OpenCL 2
Time GPU Kernel OpenCl2 Events: 210 Tracks: 66802 Hits: 416406 = 0.000762048 s
Time CPU Kernel OpenCl2 Events: 210 Tracks: 66802 Hits: 416406 = 0.000912905 s
Time CPU total OpenCl2 Events: 210 Tracks: 66802 Hits: 416406 = 7.420509e-01 s

Test for OpenCL
To import-> Hits: 416406, Tracks: 66802 Events: 210
Filter with OpenCL 1
Time GPU Kernel OpenCl1 Events: 210 Tracks: 66802 Hits: 416406 = 0.000577568 s
Time CPU Kernel OpenCl1 Events: 210 Tracks: 66802 Hits: 416406 = 0.000736952 s
Time CPU total OpenCl1 Events: 210 Tracks: 66802 Hits: 416406 = 7.393451e-01 s

-----------------------------
Test for Bad
To import-> Hits: 435132, Tracks: 69786 Events: 220
Filter with Bad method
Time CPU total Bad Events: 220 Tracks: 69786 Hits: 435132 = 2.366209e-02 s

Test for Good
To import-> Hits: 435132, Tracks: 69786 Events: 220
Filter with Cuda 2
Time GPU Kernel Cuda2 Events: 220 Tracks: 69786 Hits: 435132 = 7.126720e-04 s
Time CPU Kernel Cuda2 Events: 220 Tracks: 69786 Hits: 435132 = 7.278919e-04 s
Time CPU total Cuda2 Events: 220 Tracks: 69786 Hits: 435132 = 7.140532e-01 s

Test for Good
To import-> Hits: 435132, Tracks: 69786 Events: 220
Filter with Cuda 1
Time GPU Kernel Cuda1 Events: 220 Tracks: 69786 Hits: 435132 = 9.286081e-04 s
Time CPU Kernel Cuda1 Events: 220 Tracks: 69786 Hits: 435132 = 9.429455e-04 s
Time CPU total Cuda1 Events: 220 Tracks: 69786 Hits: 435132 = 6.978409e-01 s

Test for Good
To import-> Hits: 435132, Tracks: 69786 Events: 220
Filter with Good method
Time CPU total Good Events: 220 Tracks: 69786 Hits: 435132 = 1.104999e-02 s

Test for OpenCL
To import-> Hits: 435132, Tracks: 69786 Events: 220
Filter with OpenCL 2
Time GPU Kernel OpenCl2 Events: 220 Tracks: 69786 Hits: 435132 = 0.000766048 s
Time CPU Kernel OpenCl2 Events: 220 Tracks: 69786 Hits: 435132 = 0.000916958 s
Time CPU total OpenCl2 Events: 220 Tracks: 69786 Hits: 435132 = 7.469721e-01 s

Test for OpenCL
To import-> Hits: 435132, Tracks: 69786 Events: 220
Filter with OpenCL 1
Time GPU Kernel OpenCl1 Events: 220 Tracks: 69786 Hits: 435132 = 0.000605536 s
Time CPU Kernel OpenCl1 Events: 220 Tracks: 69786 Hits: 435132 = 0.000759125 s
Time CPU total OpenCl1 Events: 220 Tracks: 69786 Hits: 435132 = 7.448568e-01 s

-----------------------------
Test for Bad
To import-> Hits: 452586, Tracks: 72547 Events: 230
Filter with Bad method
Time CPU total Bad Events: 230 Tracks: 72547 Hits: 452586 = 2.484488e-02 s

Test for Good
To import-> Hits: 452586, Tracks: 72547 Events: 230
Filter with Cuda 2
Time GPU Kernel Cuda2 Events: 230 Tracks: 72547 Hits: 452586 = 7.264640e-04 s
Time CPU Kernel Cuda2 Events: 230 Tracks: 72547 Hits: 452586 = 7.431507e-04 s
Time CPU total Cuda2 Events: 230 Tracks: 72547 Hits: 452586 = 7.000690e-01 s

Test for Good
To import-> Hits: 452586, Tracks: 72547 Events: 230
Filter with Cuda 1
Time GPU Kernel Cuda1 Events: 230 Tracks: 72547 Hits: 452586 = 9.676800e-04 s
Time CPU Kernel Cuda1 Events: 230 Tracks: 72547 Hits: 452586 = 9.839535e-04 s
Time CPU total Cuda1 Events: 230 Tracks: 72547 Hits: 452586 = 6.953671e-01 s

Test for Good
To import-> Hits: 452586, Tracks: 72547 Events: 230
Filter with Good method
Time CPU total Good Events: 230 Tracks: 72547 Hits: 452586 = 1.147914e-02 s

Test for OpenCL
To import-> Hits: 452586, Tracks: 72547 Events: 230
Filter with OpenCL 2
Time GPU Kernel OpenCl2 Events: 230 Tracks: 72547 Hits: 452586 = 0.000826048 s
Time CPU Kernel OpenCl2 Events: 230 Tracks: 72547 Hits: 452586 = 0.000991821 s
Time CPU total OpenCl2 Events: 230 Tracks: 72547 Hits: 452586 = 7.376521e-01 s

Test for OpenCL
To import-> Hits: 452586, Tracks: 72547 Events: 230
Filter with OpenCL 1
Time GPU Kernel OpenCl1 Events: 230 Tracks: 72547 Hits: 452586 = 0.000620704 s
Time CPU Kernel OpenCl1 Events: 230 Tracks: 72547 Hits: 452586 = 0.000773907 s
Time CPU total OpenCl1 Events: 230 Tracks: 72547 Hits: 452586 = 7.316818e-01 s

-----------------------------
Test for Bad
To import-> Hits: 474872, Tracks: 76144 Events: 240
Filter with Bad method
Time CPU total Bad Events: 240 Tracks: 76144 Hits: 474872 = 2.656007e-02 s

Test for Good
To import-> Hits: 474872, Tracks: 76144 Events: 240
Filter with Cuda 2
Time GPU Kernel Cuda2 Events: 240 Tracks: 76144 Hits: 474872 = 7.545280e-04 s
Time CPU Kernel Cuda2 Events: 240 Tracks: 76144 Hits: 474872 = 7.719994e-04 s
Time CPU total Cuda2 Events: 240 Tracks: 76144 Hits: 474872 = 7.044029e-01 s

Test for Good
To import-> Hits: 474872, Tracks: 76144 Events: 240
Filter with Cuda 1
Time GPU Kernel Cuda1 Events: 240 Tracks: 76144 Hits: 474872 = 1.007936e-03 s
Time CPU Kernel Cuda1 Events: 240 Tracks: 76144 Hits: 474872 = 1.026154e-03 s
Time CPU total Cuda1 Events: 240 Tracks: 76144 Hits: 474872 = 6.974082e-01 s

Test for Good
To import-> Hits: 474872, Tracks: 76144 Events: 240
Filter with Good method
Time CPU total Good Events: 240 Tracks: 76144 Hits: 474872 = 1.210785e-02 s

Test for OpenCL
To import-> Hits: 474872, Tracks: 76144 Events: 240
Filter with OpenCL 2
Time GPU Kernel OpenCl2 Events: 240 Tracks: 76144 Hits: 474872 = 0.000842496 s
Time CPU Kernel OpenCl2 Events: 240 Tracks: 76144 Hits: 474872 = 0.000995159 s
Time CPU total OpenCl2 Events: 240 Tracks: 76144 Hits: 474872 = 7.400460e-01 s

Test for OpenCL
To import-> Hits: 474872, Tracks: 76144 Events: 240
Filter with OpenCL 1
Time GPU Kernel OpenCl1 Events: 240 Tracks: 76144 Hits: 474872 = 0.000647328 s
Time CPU Kernel OpenCl1 Events: 240 Tracks: 76144 Hits: 474872 = 0.000799894 s
Time CPU total OpenCl1 Events: 240 Tracks: 76144 Hits: 474872 = 7.329249e-01 s

-----------------------------
Test for Bad
To import-> Hits: 493810, Tracks: 79172 Events: 250
Filter with Bad method
Time CPU total Bad Events: 250 Tracks: 79172 Hits: 493810 = 2.772212e-02 s

Test for Good
To import-> Hits: 493810, Tracks: 79172 Events: 250
Filter with Cuda 2
Time GPU Kernel Cuda2 Events: 250 Tracks: 79172 Hits: 493810 = 7.816961e-04 s
Time CPU Kernel Cuda2 Events: 250 Tracks: 79172 Hits: 493810 = 8.001328e-04 s
Time CPU total Cuda2 Events: 250 Tracks: 79172 Hits: 493810 = 6.983540e-01 s

Test for Good
To import-> Hits: 493810, Tracks: 79172 Events: 250
Filter with Cuda 1
Time GPU Kernel Cuda1 Events: 250 Tracks: 79172 Hits: 493810 = 1.034080e-03 s
Time CPU Kernel Cuda1 Events: 250 Tracks: 79172 Hits: 493810 = 1.051903e-03 s
Time CPU total Cuda1 Events: 250 Tracks: 79172 Hits: 493810 = 6.953609e-01 s

Test for Good
To import-> Hits: 493810, Tracks: 79172 Events: 250
Filter with Good method
Time CPU total Good Events: 250 Tracks: 79172 Hits: 493810 = 1.269603e-02 s

Test for OpenCL
To import-> Hits: 493810, Tracks: 79172 Events: 250
Filter with OpenCL 2
Time GPU Kernel OpenCl2 Events: 250 Tracks: 79172 Hits: 493810 = 0.000881184 s
Time CPU Kernel OpenCl2 Events: 250 Tracks: 79172 Hits: 493810 = 0.00103903 s
Time CPU total OpenCl2 Events: 250 Tracks: 79172 Hits: 493810 = 7.045281e-01 s

Test for OpenCL
To import-> Hits: 493810, Tracks: 79172 Events: 250
Filter with OpenCL 1
Time GPU Kernel OpenCl1 Events: 250 Tracks: 79172 Hits: 493810 = 0.000670048 s
Time CPU Kernel OpenCl1 Events: 250 Tracks: 79172 Hits: 493810 = 0.000824928 s
Time CPU total OpenCl1 Events: 250 Tracks: 79172 Hits: 493810 = 7.380950e-01 s

-----------------------------
Test for Bad
To import-> Hits: 514314, Tracks: 82444 Events: 260
Filter with Bad method
Time CPU total Bad Events: 260 Tracks: 82444 Hits: 514314 = 2.425194e-02 s

Test for Good
To import-> Hits: 514314, Tracks: 82444 Events: 260
Filter with Cuda 2
Time GPU Kernel Cuda2 Events: 260 Tracks: 82444 Hits: 514314 = 8.191041e-04 s
Time CPU Kernel Cuda2 Events: 260 Tracks: 82444 Hits: 514314 = 8.358955e-04 s
Time CPU total Cuda2 Events: 260 Tracks: 82444 Hits: 514314 = 7.063720e-01 s

Test for Good
To import-> Hits: 514314, Tracks: 82444 Events: 260
Filter with Cuda 1
Time GPU Kernel Cuda1 Events: 260 Tracks: 82444 Hits: 514314 = 1.074080e-03 s
Time CPU Kernel Cuda1 Events: 260 Tracks: 82444 Hits: 514314 = 1.093149e-03 s
Time CPU total Cuda1 Events: 260 Tracks: 82444 Hits: 514314 = 7.057672e-01 s

Test for Good
To import-> Hits: 514314, Tracks: 82444 Events: 260
Filter with Good method
Time CPU total Good Events: 260 Tracks: 82444 Hits: 514314 = 1.323080e-02 s

Test for OpenCL
To import-> Hits: 514314, Tracks: 82444 Events: 260
Filter with OpenCL 2
Time GPU Kernel OpenCl2 Events: 260 Tracks: 82444 Hits: 514314 = 0.000957408 s
Time CPU Kernel OpenCl2 Events: 260 Tracks: 82444 Hits: 514314 = 0.00111008 s
Time CPU total OpenCl2 Events: 260 Tracks: 82444 Hits: 514314 = 7.502980e-01 s

Test for OpenCL
To import-> Hits: 514314, Tracks: 82444 Events: 260
Filter with OpenCL 1
Time GPU Kernel OpenCl1 Events: 260 Tracks: 82444 Hits: 514314 = 0.000698208 s
Time CPU Kernel OpenCl1 Events: 260 Tracks: 82444 Hits: 514314 = 0.000852108 s
Time CPU total OpenCl1 Events: 260 Tracks: 82444 Hits: 514314 = 7.481351e-01 s

-----------------------------
Test for Bad
To import-> Hits: 534537, Tracks: 85661 Events: 270
Filter with Bad method
Time CPU total Bad Events: 270 Tracks: 85661 Hits: 534537 = 2.532411e-02 s

Test for Good
To import-> Hits: 534537, Tracks: 85661 Events: 270
Filter with Cuda 2
Time GPU Kernel Cuda2 Events: 270 Tracks: 85661 Hits: 534537 = 8.361600e-04 s
Time CPU Kernel Cuda2 Events: 270 Tracks: 85661 Hits: 534537 = 8.571148e-04 s
Time CPU total Cuda2 Events: 270 Tracks: 85661 Hits: 534537 = 6.980100e-01 s

Test for Good
To import-> Hits: 534537, Tracks: 85661 Events: 270
Filter with Cuda 1
Time GPU Kernel Cuda1 Events: 270 Tracks: 85661 Hits: 534537 = 1.114688e-03 s
Time CPU Kernel Cuda1 Events: 270 Tracks: 85661 Hits: 534537 = 1.135111e-03 s
Time CPU total Cuda1 Events: 270 Tracks: 85661 Hits: 534537 = 6.974020e-01 s

Test for Good
To import-> Hits: 534537, Tracks: 85661 Events: 270
Filter with Good method
Time CPU total Good Events: 270 Tracks: 85661 Hits: 534537 = 1.364899e-02 s

Test for OpenCL
To import-> Hits: 534537, Tracks: 85661 Events: 270
Filter with OpenCL 2
Time GPU Kernel OpenCl2 Events: 270 Tracks: 85661 Hits: 534537 = 0.000998208 s
Time CPU Kernel OpenCl2 Events: 270 Tracks: 85661 Hits: 534537 = 0.00115204 s
Time CPU total OpenCl2 Events: 270 Tracks: 85661 Hits: 534537 = 7.622499e-01 s

Test for OpenCL
To import-> Hits: 534537, Tracks: 85661 Events: 270
Filter with OpenCL 1
Time GPU Kernel OpenCl1 Events: 270 Tracks: 85661 Hits: 534537 = 0.000724032 s
Time CPU Kernel OpenCl1 Events: 270 Tracks: 85661 Hits: 534537 = 0.00087595 s
Time CPU total OpenCl1 Events: 270 Tracks: 85661 Hits: 534537 = 7.389491e-01 s

-----------------------------
Test for Bad
To import-> Hits: 557160, Tracks: 89234 Events: 280
Filter with Bad method
Time CPU total Bad Events: 280 Tracks: 89234 Hits: 557160 = 2.584410e-02 s

Test for Good
To import-> Hits: 557160, Tracks: 89234 Events: 280
Filter with Cuda 2
Time GPU Kernel Cuda2 Events: 280 Tracks: 89234 Hits: 557160 = 8.624321e-04 s
Time CPU Kernel Cuda2 Events: 280 Tracks: 89234 Hits: 557160 = 8.850098e-04 s
Time CPU total Cuda2 Events: 280 Tracks: 89234 Hits: 557160 = 7.022769e-01 s

Test for Good
To import-> Hits: 557160, Tracks: 89234 Events: 280
Filter with Cuda 1
Time GPU Kernel Cuda1 Events: 280 Tracks: 89234 Hits: 557160 = 1.162048e-03 s
Time CPU Kernel Cuda1 Events: 280 Tracks: 89234 Hits: 557160 = 1.183987e-03 s
Time CPU total Cuda1 Events: 280 Tracks: 89234 Hits: 557160 = 6.979039e-01 s

Test for Good
To import-> Hits: 557160, Tracks: 89234 Events: 280
Filter with Good method
Time CPU total Good Events: 280 Tracks: 89234 Hits: 557160 = 1.424909e-02 s

Test for OpenCL
To import-> Hits: 557160, Tracks: 89234 Events: 280
Filter with OpenCL 2
Time GPU Kernel OpenCl2 Events: 280 Tracks: 89234 Hits: 557160 = 0.000971296 s
Time CPU Kernel OpenCl2 Events: 280 Tracks: 89234 Hits: 557160 = 0.0011251 s
Time CPU total OpenCl2 Events: 280 Tracks: 89234 Hits: 557160 = 7.356410e-01 s

Test for OpenCL
To import-> Hits: 557160, Tracks: 89234 Events: 280
Filter with OpenCL 1
Time GPU Kernel OpenCl1 Events: 280 Tracks: 89234 Hits: 557160 = 0.000748992 s
Time CPU Kernel OpenCl1 Events: 280 Tracks: 89234 Hits: 557160 = 0.000895977 s
Time CPU total OpenCl1 Events: 280 Tracks: 89234 Hits: 557160 = 7.364972e-01 s

-----------------------------
Test for Bad
To import-> Hits: 576611, Tracks: 92347 Events: 290
Filter with Bad method
Time CPU total Bad Events: 290 Tracks: 92347 Hits: 576611 = 2.773213e-02 s

Test for Good
To import-> Hits: 576611, Tracks: 92347 Events: 290
Filter with Cuda 2
Time GPU Kernel Cuda2 Events: 290 Tracks: 92347 Hits: 576611 = 8.909120e-04 s
Time CPU Kernel Cuda2 Events: 290 Tracks: 92347 Hits: 576611 = 9.140968e-04 s
Time CPU total Cuda2 Events: 290 Tracks: 92347 Hits: 576611 = 7.039552e-01 s

Test for Good
To import-> Hits: 576611, Tracks: 92347 Events: 290
Filter with Cuda 1
Time GPU Kernel Cuda1 Events: 290 Tracks: 92347 Hits: 576611 = 1.193152e-03 s
Time CPU Kernel Cuda1 Events: 290 Tracks: 92347 Hits: 576611 = 1.216888e-03 s
Time CPU total Cuda1 Events: 290 Tracks: 92347 Hits: 576611 = 6.985939e-01 s

Test for Good
To import-> Hits: 576611, Tracks: 92347 Events: 290
Filter with Good method
Time CPU total Good Events: 290 Tracks: 92347 Hits: 576611 = 1.516199e-02 s

Test for OpenCL
To import-> Hits: 576611, Tracks: 92347 Events: 290
Filter with OpenCL 2
Time GPU Kernel OpenCl2 Events: 290 Tracks: 92347 Hits: 576611 = 0.00101277 s
Time CPU Kernel OpenCl2 Events: 290 Tracks: 92347 Hits: 576611 = 0.00116682 s
Time CPU total OpenCl2 Events: 290 Tracks: 92347 Hits: 576611 = 7.378600e-01 s

Test for OpenCL
To import-> Hits: 576611, Tracks: 92347 Events: 290
Filter with OpenCL 1
Time GPU Kernel OpenCl1 Events: 290 Tracks: 92347 Hits: 576611 = 0.000776256 s
Time CPU Kernel OpenCl1 Events: 290 Tracks: 92347 Hits: 576611 = 0.000926018 s
Time CPU total OpenCl1 Events: 290 Tracks: 92347 Hits: 576611 = 7.373989e-01 s

-----------------------------
Test for Bad
To import-> Hits: 598963, Tracks: 95876 Events: 300
Filter with Bad method
Time CPU total Bad Events: 300 Tracks: 95876 Hits: 598963 = 2.867198e-02 s

Test for Good
To import-> Hits: 598963, Tracks: 95876 Events: 300
Filter with Cuda 2
Time GPU Kernel Cuda2 Events: 300 Tracks: 95876 Hits: 598963 = 9.193280e-04 s
Time CPU Kernel Cuda2 Events: 300 Tracks: 95876 Hits: 598963 = 9.429455e-04 s
Time CPU total Cuda2 Events: 300 Tracks: 95876 Hits: 598963 = 7.122219e-01 s

Test for Good
To import-> Hits: 598963, Tracks: 95876 Events: 300
Filter with Cuda 1
Time GPU Kernel Cuda1 Events: 300 Tracks: 95876 Hits: 598963 = 1.240416e-03 s
Time CPU Kernel Cuda1 Events: 300 Tracks: 95876 Hits: 598963 = 1.264095e-03 s
Time CPU total Cuda1 Events: 300 Tracks: 95876 Hits: 598963 = 7.134471e-01 s

Test for Good
To import-> Hits: 598963, Tracks: 95876 Events: 300
Filter with Good method
Time CPU total Good Events: 300 Tracks: 95876 Hits: 598963 = 1.535392e-02 s

Test for OpenCL
To import-> Hits: 598963, Tracks: 95876 Events: 300
Filter with OpenCL 2
Time GPU Kernel OpenCl2 Events: 300 Tracks: 95876 Hits: 598963 = 0.00102259 s
Time CPU Kernel OpenCl2 Events: 300 Tracks: 95876 Hits: 598963 = 0.00117493 s
Time CPU total OpenCl2 Events: 300 Tracks: 95876 Hits: 598963 = 7.562830e-01 s

Test for OpenCL
To import-> Hits: 598963, Tracks: 95876 Events: 300
Filter with OpenCL 1
Time GPU Kernel OpenCl1 Events: 300 Tracks: 95876 Hits: 598963 = 0.000805408 s
Time CPU Kernel OpenCl1 Events: 300 Tracks: 95876 Hits: 598963 = 0.000957966 s
Time CPU total OpenCl1 Events: 300 Tracks: 95876 Hits: 598963 = 7.418010e-01 s

-----------------------------
