Test for Bad
To import-> Hits: 2093, Tracks: 358 Events: 1
Filter with Bad method
Time CPU total Bad Events: 1 Tracks: 358 Hits: 2093 = 1.659393e-04 s

Test for Good
To import-> Hits: 2093, Tracks: 358 Events: 1
Filter with Cuda 2
Time GPU Kernel Cuda2 Events: 1 Tracks: 358 Hits: 2093 = 7.958401e-05 s
Time CPU Kernel Cuda2 Events: 1 Tracks: 358 Hits: 2093 = 7.581711e-05 s
Time CPU total Cuda2 Events: 1 Tracks: 358 Hits: 2093 = 7.149200e-01 s

Test for Good
To import-> Hits: 2093, Tracks: 358 Events: 1
Filter with Cuda 1
Time GPU Kernel Cuda1 Events: 1 Tracks: 358 Hits: 2093 = 9.625601e-05 s
Time CPU Kernel Cuda1 Events: 1 Tracks: 358 Hits: 2093 = 9.298325e-05 s
Time CPU total Cuda1 Events: 1 Tracks: 358 Hits: 2093 = 6.896880e-01 s

Test for Good
To import-> Hits: 2093, Tracks: 358 Events: 1
Filter with Good method
Time CPU total Good Events: 1 Tracks: 358 Hits: 2093 = 5.507469e-05 s

Test for OpenCL
To import-> Hits: 2093, Tracks: 358 Events: 1
Filter with OpenCL 2
Time GPU Kernel OpenCl2 Events: 1 Tracks: 358 Hits: 2093 = 4.5472e-05 s
Time CPU Kernel OpenCl2 Events: 1 Tracks: 358 Hits: 2093 = 7.20024e-05 s
Time CPU total OpenCl2 Events: 1 Tracks: 358 Hits: 2093 = 7.553892e-01 s

Test for OpenCL
To import-> Hits: 2093, Tracks: 358 Events: 1
Filter with OpenCL 1
Time GPU Kernel OpenCl1 Events: 1 Tracks: 358 Hits: 2093 = 5.6672e-05 s
Time CPU Kernel OpenCl1 Events: 1 Tracks: 358 Hits: 2093 = 9.98974e-05 s
Time CPU total OpenCl1 Events: 1 Tracks: 358 Hits: 2093 = 7.534981e-01 s

-----------------------------
Test for Bad
To import-> Hits: 3158, Tracks: 532 Events: 2
Filter with Bad method
Time CPU total Bad Events: 2 Tracks: 532 Hits: 3158 = 1.850128e-04 s

Test for Good
To import-> Hits: 3158, Tracks: 532 Events: 2
Filter with Cuda 2
Time GPU Kernel Cuda2 Events: 2 Tracks: 532 Hits: 3158 = 8.208001e-05 s
Time CPU Kernel Cuda2 Events: 2 Tracks: 532 Hits: 3158 = 7.796288e-05 s
Time CPU total Cuda2 Events: 2 Tracks: 532 Hits: 3158 = 6.821041e-01 s

Test for Good
To import-> Hits: 3158, Tracks: 532 Events: 2
Filter with Cuda 1
Time GPU Kernel Cuda1 Events: 2 Tracks: 532 Hits: 3158 = 1.012160e-04 s
Time CPU Kernel Cuda1 Events: 2 Tracks: 532 Hits: 3158 = 9.608269e-05 s
Time CPU total Cuda1 Events: 2 Tracks: 532 Hits: 3158 = 6.850650e-01 s

Test for Good
To import-> Hits: 3158, Tracks: 532 Events: 2
Filter with Good method
Time CPU total Good Events: 2 Tracks: 532 Hits: 3158 = 8.320808e-05 s

Test for OpenCL
To import-> Hits: 3158, Tracks: 532 Events: 2
Filter with OpenCL 2
Time GPU Kernel OpenCl2 Events: 2 Tracks: 532 Hits: 3158 = 4.592e-05 s
Time CPU Kernel OpenCl2 Events: 2 Tracks: 532 Hits: 3158 = 7.20024e-05 s
Time CPU total OpenCl2 Events: 2 Tracks: 532 Hits: 3158 = 7.344351e-01 s

Test for OpenCL
To import-> Hits: 3158, Tracks: 532 Events: 2
Filter with OpenCL 1
Time GPU Kernel OpenCl1 Events: 2 Tracks: 532 Hits: 3158 = 5.5264e-05 s
Time CPU Kernel OpenCl1 Events: 2 Tracks: 532 Hits: 3158 = 8.51154e-05 s
Time CPU total OpenCl1 Events: 2 Tracks: 532 Hits: 3158 = 7.220509e-01 s

-----------------------------
Test for Bad
To import-> Hits: 4741, Tracks: 779 Events: 3
Filter with Bad method
Time CPU total Bad Events: 3 Tracks: 779 Hits: 4741 = 2.629757e-04 s

Test for Good
To import-> Hits: 4741, Tracks: 779 Events: 3
Filter with Cuda 2
Time GPU Kernel Cuda2 Events: 3 Tracks: 779 Hits: 4741 = 7.980800e-05 s
Time CPU Kernel Cuda2 Events: 3 Tracks: 779 Hits: 4741 = 7.796288e-05 s
Time CPU total Cuda2 Events: 3 Tracks: 779 Hits: 4741 = 6.885309e-01 s

Test for Good
To import-> Hits: 4741, Tracks: 779 Events: 3
Filter with Cuda 1
Time GPU Kernel Cuda1 Events: 3 Tracks: 779 Hits: 4741 = 1.014400e-04 s
Time CPU Kernel Cuda1 Events: 3 Tracks: 779 Hits: 4741 = 9.799004e-05 s
Time CPU total Cuda1 Events: 3 Tracks: 779 Hits: 4741 = 6.830158e-01 s

Test for Good
To import-> Hits: 4741, Tracks: 779 Events: 3
Filter with Good method
Time CPU total Good Events: 3 Tracks: 779 Hits: 4741 = 1.239777e-04 s

Test for OpenCL
To import-> Hits: 4741, Tracks: 779 Events: 3
Filter with OpenCL 2
Time GPU Kernel OpenCl2 Events: 3 Tracks: 779 Hits: 4741 = 4.8096e-05 s
Time CPU Kernel OpenCl2 Events: 3 Tracks: 779 Hits: 4741 = 7.48634e-05 s
Time CPU total OpenCl2 Events: 3 Tracks: 779 Hits: 4741 = 7.180750e-01 s

Test for OpenCL
To import-> Hits: 4741, Tracks: 779 Events: 3
Filter with OpenCL 1
Time GPU Kernel OpenCl1 Events: 3 Tracks: 779 Hits: 4741 = 5.5712e-05 s
Time CPU Kernel OpenCl1 Events: 3 Tracks: 779 Hits: 4741 = 8.10623e-05 s
Time CPU total OpenCl1 Events: 3 Tracks: 779 Hits: 4741 = 7.218180e-01 s

-----------------------------
Test for Bad
To import-> Hits: 8061, Tracks: 1300 Events: 4
Filter with Bad method
Time CPU total Bad Events: 4 Tracks: 1300 Hits: 8061 = 5.109310e-04 s

Test for Good
To import-> Hits: 8061, Tracks: 1300 Events: 4
Filter with Cuda 2
Time GPU Kernel Cuda2 Events: 4 Tracks: 1300 Hits: 8061 = 8.259201e-05 s
Time CPU Kernel Cuda2 Events: 4 Tracks: 1300 Hits: 8061 = 7.891655e-05 s
Time CPU total Cuda2 Events: 4 Tracks: 1300 Hits: 8061 = 6.868942e-01 s

Test for Good
To import-> Hits: 8061, Tracks: 1300 Events: 4
Filter with Cuda 1
Time GPU Kernel Cuda1 Events: 4 Tracks: 1300 Hits: 8061 = 1.027840e-04 s
Time CPU Kernel Cuda1 Events: 4 Tracks: 1300 Hits: 8061 = 9.918213e-05 s
Time CPU total Cuda1 Events: 4 Tracks: 1300 Hits: 8061 = 6.792989e-01 s

Test for Good
To import-> Hits: 8061, Tracks: 1300 Events: 4
Filter with Good method
Time CPU total Good Events: 4 Tracks: 1300 Hits: 8061 = 2.157688e-04 s

Test for OpenCL
To import-> Hits: 8061, Tracks: 1300 Events: 4
Filter with OpenCL 2
Time GPU Kernel OpenCl2 Events: 4 Tracks: 1300 Hits: 8061 = 5.072e-05 s
Time CPU Kernel OpenCl2 Events: 4 Tracks: 1300 Hits: 8061 = 7.79629e-05 s
Time CPU total OpenCl2 Events: 4 Tracks: 1300 Hits: 8061 = 7.233460e-01 s

Test for OpenCL
To import-> Hits: 8061, Tracks: 1300 Events: 4
Filter with OpenCL 1
Time GPU Kernel OpenCl1 Events: 4 Tracks: 1300 Hits: 8061 = 5.7408e-05 s
Time CPU Kernel OpenCl1 Events: 4 Tracks: 1300 Hits: 8061 = 8.41618e-05 s
Time CPU total OpenCl1 Events: 4 Tracks: 1300 Hits: 8061 = 7.254770e-01 s

-----------------------------
Test for Bad
To import-> Hits: 11850, Tracks: 1914 Events: 5
Filter with Bad method
Time CPU total Bad Events: 5 Tracks: 1914 Hits: 11850 = 7.209778e-04 s

Test for Good
To import-> Hits: 11850, Tracks: 1914 Events: 5
Filter with Cuda 2
Time GPU Kernel Cuda2 Events: 5 Tracks: 1914 Hits: 11850 = 8.380800e-05 s
Time CPU Kernel Cuda2 Events: 5 Tracks: 1914 Hits: 11850 = 8.010864e-05 s
Time CPU total Cuda2 Events: 5 Tracks: 1914 Hits: 11850 = 6.892509e-01 s

Test for Good
To import-> Hits: 11850, Tracks: 1914 Events: 5
Filter with Cuda 1
Time GPU Kernel Cuda1 Events: 5 Tracks: 1914 Hits: 11850 = 1.024640e-04 s
Time CPU Kernel Cuda1 Events: 5 Tracks: 1914 Hits: 11850 = 9.894371e-05 s
Time CPU total Cuda1 Events: 5 Tracks: 1914 Hits: 11850 = 6.830950e-01 s

Test for Good
To import-> Hits: 11850, Tracks: 1914 Events: 5
Filter with Good method
Time CPU total Good Events: 5 Tracks: 1914 Hits: 11850 = 3.118515e-04 s

Test for OpenCL
To import-> Hits: 11850, Tracks: 1914 Events: 5
Filter with OpenCL 2
Time GPU Kernel OpenCl2 Events: 5 Tracks: 1914 Hits: 11850 = 5.408e-05 s
Time CPU Kernel OpenCl2 Events: 5 Tracks: 1914 Hits: 11850 = 8.2016e-05 s
Time CPU total OpenCl2 Events: 5 Tracks: 1914 Hits: 11850 = 7.273021e-01 s

Test for OpenCL
To import-> Hits: 11850, Tracks: 1914 Events: 5
Filter with OpenCL 1
Time GPU Kernel OpenCl1 Events: 5 Tracks: 1914 Hits: 11850 = 5.9712e-05 s
Time CPU Kernel OpenCl1 Events: 5 Tracks: 1914 Hits: 11850 = 8.89301e-05 s
Time CPU total OpenCl1 Events: 5 Tracks: 1914 Hits: 11850 = 7.274010e-01 s

-----------------------------
Test for Bad
To import-> Hits: 12849, Tracks: 2089 Events: 6
Filter with Bad method
Time CPU total Bad Events: 6 Tracks: 2089 Hits: 12849 = 7.629395e-04 s

Test for Good
To import-> Hits: 12849, Tracks: 2089 Events: 6
Filter with Cuda 2
Time GPU Kernel Cuda2 Events: 6 Tracks: 2089 Hits: 12849 = 9.497601e-05 s
Time CPU Kernel Cuda2 Events: 6 Tracks: 2089 Hits: 12849 = 8.201599e-05 s
Time CPU total Cuda2 Events: 6 Tracks: 2089 Hits: 12849 = 6.907058e-01 s

Test for Good
To import-> Hits: 12849, Tracks: 2089 Events: 6
Filter with Cuda 1
Time GPU Kernel Cuda1 Events: 6 Tracks: 2089 Hits: 12849 = 1.045120e-04 s
Time CPU Kernel Cuda1 Events: 6 Tracks: 2089 Hits: 12849 = 1.010895e-04 s
Time CPU total Cuda1 Events: 6 Tracks: 2089 Hits: 12849 = 6.822801e-01 s

Test for Good
To import-> Hits: 12849, Tracks: 2089 Events: 6
Filter with Good method
Time CPU total Good Events: 6 Tracks: 2089 Hits: 12849 = 3.380775e-04 s

Test for OpenCL
To import-> Hits: 12849, Tracks: 2089 Events: 6
Filter with OpenCL 2
Time GPU Kernel OpenCl2 Events: 6 Tracks: 2089 Hits: 12849 = 5.3344e-05 s
Time CPU Kernel OpenCl2 Events: 6 Tracks: 2089 Hits: 12849 = 8.2016e-05 s
Time CPU total OpenCl2 Events: 6 Tracks: 2089 Hits: 12849 = 7.216280e-01 s

Test for OpenCL
To import-> Hits: 12849, Tracks: 2089 Events: 6
Filter with OpenCL 1
Time GPU Kernel OpenCl1 Events: 6 Tracks: 2089 Hits: 12849 = 6.064e-05 s
Time CPU Kernel OpenCl1 Events: 6 Tracks: 2089 Hits: 12849 = 8.98838e-05 s
Time CPU total OpenCl1 Events: 6 Tracks: 2089 Hits: 12849 = 7.219880e-01 s

-----------------------------
Test for Bad
To import-> Hits: 14812, Tracks: 2418 Events: 7
Filter with Bad method
Time CPU total Bad Events: 7 Tracks: 2418 Hits: 14812 = 9.119511e-04 s

Test for Good
To import-> Hits: 14812, Tracks: 2418 Events: 7
Filter with Cuda 2
Time GPU Kernel Cuda2 Events: 7 Tracks: 2418 Hits: 14812 = 8.796800e-05 s
Time CPU Kernel Cuda2 Events: 7 Tracks: 2418 Hits: 14812 = 8.511543e-05 s
Time CPU total Cuda2 Events: 7 Tracks: 2418 Hits: 14812 = 6.879001e-01 s

Test for Good
To import-> Hits: 14812, Tracks: 2418 Events: 7
Filter with Cuda 1
Time GPU Kernel Cuda1 Events: 7 Tracks: 2418 Hits: 14812 = 1.100800e-04 s
Time CPU Kernel Cuda1 Events: 7 Tracks: 2418 Hits: 14812 = 1.060963e-04 s
Time CPU total Cuda1 Events: 7 Tracks: 2418 Hits: 14812 = 6.835058e-01 s

Test for Good
To import-> Hits: 14812, Tracks: 2418 Events: 7
Filter with Good method
Time CPU total Good Events: 7 Tracks: 2418 Hits: 14812 = 3.919601e-04 s

Test for OpenCL
To import-> Hits: 14812, Tracks: 2418 Events: 7
Filter with OpenCL 2
Time GPU Kernel OpenCl2 Events: 7 Tracks: 2418 Hits: 14812 = 6.192e-05 s
Time CPU Kernel OpenCl2 Events: 7 Tracks: 2418 Hits: 14812 = 8.98838e-05 s
Time CPU total OpenCl2 Events: 7 Tracks: 2418 Hits: 14812 = 7.226660e-01 s

Test for OpenCL
To import-> Hits: 14812, Tracks: 2418 Events: 7
Filter with OpenCL 1
Time GPU Kernel OpenCl1 Events: 7 Tracks: 2418 Hits: 14812 = 6.3872e-05 s
Time CPU Kernel OpenCl1 Events: 7 Tracks: 2418 Hits: 14812 = 9.48906e-05 s
Time CPU total OpenCl1 Events: 7 Tracks: 2418 Hits: 14812 = 7.254119e-01 s

-----------------------------
Test for Bad
To import-> Hits: 15814, Tracks: 2586 Events: 8
Filter with Bad method
Time CPU total Bad Events: 8 Tracks: 2586 Hits: 15814 = 1.010180e-03 s

Test for Good
To import-> Hits: 15814, Tracks: 2586 Events: 8
Filter with Cuda 2
Time GPU Kernel Cuda2 Events: 8 Tracks: 2586 Hits: 15814 = 9.916801e-05 s
Time CPU Kernel Cuda2 Events: 8 Tracks: 2586 Hits: 15814 = 9.512901e-05 s
Time CPU total Cuda2 Events: 8 Tracks: 2586 Hits: 15814 = 6.876440e-01 s

Test for Good
To import-> Hits: 15814, Tracks: 2586 Events: 8
Filter with Cuda 1
Time GPU Kernel Cuda1 Events: 8 Tracks: 2586 Hits: 15814 = 1.096640e-04 s
Time CPU Kernel Cuda1 Events: 8 Tracks: 2586 Hits: 15814 = 1.060963e-04 s
Time CPU total Cuda1 Events: 8 Tracks: 2586 Hits: 15814 = 6.881740e-01 s

Test for Good
To import-> Hits: 15814, Tracks: 2586 Events: 8
Filter with Good method
Time CPU total Good Events: 8 Tracks: 2586 Hits: 15814 = 4.138947e-04 s

Test for OpenCL
To import-> Hits: 15814, Tracks: 2586 Events: 8
Filter with OpenCL 2
Time GPU Kernel OpenCl2 Events: 8 Tracks: 2586 Hits: 15814 = 6.192e-05 s
Time CPU Kernel OpenCl2 Events: 8 Tracks: 2586 Hits: 15814 = 9.20296e-05 s
Time CPU total OpenCl2 Events: 8 Tracks: 2586 Hits: 15814 = 7.229850e-01 s

Test for OpenCL
To import-> Hits: 15814, Tracks: 2586 Events: 8
Filter with OpenCL 1
Time GPU Kernel OpenCl1 Events: 8 Tracks: 2586 Hits: 15814 = 6.5856e-05 s
Time CPU Kernel OpenCl1 Events: 8 Tracks: 2586 Hits: 15814 = 9.41753e-05 s
Time CPU total OpenCl1 Events: 8 Tracks: 2586 Hits: 15814 = 7.199662e-01 s

-----------------------------
Test for Bad
To import-> Hits: 16842, Tracks: 2764 Events: 9
Filter with Bad method
Time CPU total Bad Events: 9 Tracks: 2764 Hits: 16842 = 7.810593e-04 s

Test for Good
To import-> Hits: 16842, Tracks: 2764 Events: 9
Filter with Cuda 2
Time GPU Kernel Cuda2 Events: 9 Tracks: 2764 Hits: 16842 = 9.004800e-05 s
Time CPU Kernel Cuda2 Events: 9 Tracks: 2764 Hits: 16842 = 8.702278e-05 s
Time CPU total Cuda2 Events: 9 Tracks: 2764 Hits: 16842 = 6.827271e-01 s

Test for Good
To import-> Hits: 16842, Tracks: 2764 Events: 9
Filter with Cuda 1
Time GPU Kernel Cuda1 Events: 9 Tracks: 2764 Hits: 16842 = 1.104640e-04 s
Time CPU Kernel Cuda1 Events: 9 Tracks: 2764 Hits: 16842 = 1.070499e-04 s
Time CPU total Cuda1 Events: 9 Tracks: 2764 Hits: 16842 = 6.867309e-01 s

Test for Good
To import-> Hits: 16842, Tracks: 2764 Events: 9
Filter with Good method
Time CPU total Good Events: 9 Tracks: 2764 Hits: 16842 = 4.329681e-04 s

Test for OpenCL
To import-> Hits: 16842, Tracks: 2764 Events: 9
Filter with OpenCL 2
Time GPU Kernel OpenCl2 Events: 9 Tracks: 2764 Hits: 16842 = 6.4128e-05 s
Time CPU Kernel OpenCl2 Events: 9 Tracks: 2764 Hits: 16842 = 9.08375e-05 s
Time CPU total OpenCl2 Events: 9 Tracks: 2764 Hits: 16842 = 7.254632e-01 s

Test for OpenCL
To import-> Hits: 16842, Tracks: 2764 Events: 9
Filter with OpenCL 1
Time GPU Kernel OpenCl1 Events: 9 Tracks: 2764 Hits: 16842 = 6.8352e-05 s
Time CPU Kernel OpenCl1 Events: 9 Tracks: 2764 Hits: 16842 = 9.48906e-05 s
Time CPU total OpenCl1 Events: 9 Tracks: 2764 Hits: 16842 = 7.260962e-01 s

-----------------------------
Test for Bad
To import-> Hits: 18940, Tracks: 3094 Events: 10
Filter with Bad method
Time CPU total Bad Events: 10 Tracks: 3094 Hits: 18940 = 9.469986e-04 s

Test for Good
To import-> Hits: 18940, Tracks: 3094 Events: 10
Filter with Cuda 2
Time GPU Kernel Cuda2 Events: 10 Tracks: 3094 Hits: 18940 = 8.950401e-05 s
Time CPU Kernel Cuda2 Events: 10 Tracks: 3094 Hits: 18940 = 8.606911e-05 s
Time CPU total Cuda2 Events: 10 Tracks: 3094 Hits: 18940 = 6.937330e-01 s

Test for Good
To import-> Hits: 18940, Tracks: 3094 Events: 10
Filter with Cuda 1
Time GPU Kernel Cuda1 Events: 10 Tracks: 3094 Hits: 18940 = 1.096000e-04 s
Time CPU Kernel Cuda1 Events: 10 Tracks: 3094 Hits: 18940 = 1.060963e-04 s
Time CPU total Cuda1 Events: 10 Tracks: 3094 Hits: 18940 = 6.868269e-01 s

Test for Good
To import-> Hits: 18940, Tracks: 3094 Events: 10
Filter with Good method
Time CPU total Good Events: 10 Tracks: 3094 Hits: 18940 = 5.021095e-04 s

Test for OpenCL
To import-> Hits: 18940, Tracks: 3094 Events: 10
Filter with OpenCL 2
Time GPU Kernel OpenCl2 Events: 10 Tracks: 3094 Hits: 18940 = 6.9408e-05 s
Time CPU Kernel OpenCl2 Events: 10 Tracks: 3094 Hits: 18940 = 9.60827e-05 s
Time CPU total OpenCl2 Events: 10 Tracks: 3094 Hits: 18940 = 7.256219e-01 s

Test for OpenCL
To import-> Hits: 18940, Tracks: 3094 Events: 10
Filter with OpenCL 1
Time GPU Kernel OpenCl1 Events: 10 Tracks: 3094 Hits: 18940 = 6.8448e-05 s
Time CPU Kernel OpenCl1 Events: 10 Tracks: 3094 Hits: 18940 = 9.58443e-05 s
Time CPU total OpenCl1 Events: 10 Tracks: 3094 Hits: 18940 = 7.287490e-01 s

-----------------------------
Test for Bad
To import-> Hits: 22010, Tracks: 3613 Events: 11
Filter with Bad method
Time CPU total Bad Events: 11 Tracks: 3613 Hits: 22010 = 1.281977e-03 s

Test for Good
To import-> Hits: 22010, Tracks: 3613 Events: 11
Filter with Cuda 2
Time GPU Kernel Cuda2 Events: 11 Tracks: 3613 Hits: 22010 = 9.369601e-05 s
Time CPU Kernel Cuda2 Events: 11 Tracks: 3613 Hits: 22010 = 9.012222e-05 s
Time CPU total Cuda2 Events: 11 Tracks: 3613 Hits: 22010 = 6.886621e-01 s

Test for Good
To import-> Hits: 22010, Tracks: 3613 Events: 11
Filter with Cuda 1
Time GPU Kernel Cuda1 Events: 11 Tracks: 3613 Hits: 22010 = 1.118080e-04 s
Time CPU Kernel Cuda1 Events: 11 Tracks: 3613 Hits: 22010 = 1.080036e-04 s
Time CPU total Cuda1 Events: 11 Tracks: 3613 Hits: 22010 = 6.947041e-01 s

Test for Good
To import-> Hits: 22010, Tracks: 3613 Events: 11
Filter with Good method
Time CPU total Good Events: 11 Tracks: 3613 Hits: 22010 = 5.869865e-04 s

Test for OpenCL
To import-> Hits: 22010, Tracks: 3613 Events: 11
Filter with OpenCL 2
Time GPU Kernel OpenCl2 Events: 11 Tracks: 3613 Hits: 22010 = 7.5488e-05 s
Time CPU Kernel OpenCl2 Events: 11 Tracks: 3613 Hits: 22010 = 0.000109196 s
Time CPU total OpenCl2 Events: 11 Tracks: 3613 Hits: 22010 = 7.224400e-01 s

Test for OpenCL
To import-> Hits: 22010, Tracks: 3613 Events: 11
Filter with OpenCL 1
Time GPU Kernel OpenCl1 Events: 11 Tracks: 3613 Hits: 22010 = 7.5072e-05 s
Time CPU Kernel OpenCl1 Events: 11 Tracks: 3613 Hits: 22010 = 0.000100851 s
Time CPU total OpenCl1 Events: 11 Tracks: 3613 Hits: 22010 = 7.260540e-01 s

-----------------------------
Test for Bad
To import-> Hits: 22930, Tracks: 3745 Events: 12
Filter with Bad method
Time CPU total Bad Events: 12 Tracks: 3745 Hits: 22930 = 1.336813e-03 s

Test for Good
To import-> Hits: 22930, Tracks: 3745 Events: 12
Filter with Cuda 2
Time GPU Kernel Cuda2 Events: 12 Tracks: 3745 Hits: 22930 = 9.366400e-05 s
Time CPU Kernel Cuda2 Events: 12 Tracks: 3745 Hits: 22930 = 8.988380e-05 s
Time CPU total Cuda2 Events: 12 Tracks: 3745 Hits: 22930 = 6.856520e-01 s

Test for Good
To import-> Hits: 22930, Tracks: 3745 Events: 12
Filter with Cuda 1
Time GPU Kernel Cuda1 Events: 12 Tracks: 3745 Hits: 22930 = 1.176320e-04 s
Time CPU Kernel Cuda1 Events: 12 Tracks: 3745 Hits: 22930 = 1.149178e-04 s
Time CPU total Cuda1 Events: 12 Tracks: 3745 Hits: 22930 = 6.837690e-01 s

Test for Good
To import-> Hits: 22930, Tracks: 3745 Events: 12
Filter with Good method
Time CPU total Good Events: 12 Tracks: 3745 Hits: 22930 = 6.120205e-04 s

Test for OpenCL
To import-> Hits: 22930, Tracks: 3745 Events: 12
Filter with OpenCL 2
Time GPU Kernel OpenCl2 Events: 12 Tracks: 3745 Hits: 22930 = 7.6992e-05 s
Time CPU Kernel OpenCl2 Events: 12 Tracks: 3745 Hits: 22930 = 0.000103951 s
Time CPU total OpenCl2 Events: 12 Tracks: 3745 Hits: 22930 = 7.280231e-01 s

Test for OpenCL
To import-> Hits: 22930, Tracks: 3745 Events: 12
Filter with OpenCL 1
Time GPU Kernel OpenCl1 Events: 12 Tracks: 3745 Hits: 22930 = 7.4816e-05 s
Time CPU Kernel OpenCl1 Events: 12 Tracks: 3745 Hits: 22930 = 0.000102043 s
Time CPU total OpenCl1 Events: 12 Tracks: 3745 Hits: 22930 = 7.182269e-01 s

-----------------------------
Test for Bad
To import-> Hits: 27034, Tracks: 4414 Events: 13
Filter with Bad method
Time CPU total Bad Events: 13 Tracks: 4414 Hits: 27034 = 1.622915e-03 s

Test for Good
To import-> Hits: 27034, Tracks: 4414 Events: 13
Filter with Cuda 2
Time GPU Kernel Cuda2 Events: 13 Tracks: 4414 Hits: 27034 = 9.545600e-05 s
Time CPU Kernel Cuda2 Events: 13 Tracks: 4414 Hits: 27034 = 9.083748e-05 s
Time CPU total Cuda2 Events: 13 Tracks: 4414 Hits: 27034 = 6.861660e-01 s

Test for Good
To import-> Hits: 27034, Tracks: 4414 Events: 13
Filter with Cuda 1
Time GPU Kernel Cuda1 Events: 13 Tracks: 4414 Hits: 27034 = 1.170560e-04 s
Time CPU Kernel Cuda1 Events: 13 Tracks: 4414 Hits: 27034 = 1.120567e-04 s
Time CPU total Cuda1 Events: 13 Tracks: 4414 Hits: 27034 = 6.842511e-01 s

Test for Good
To import-> Hits: 27034, Tracks: 4414 Events: 13
Filter with Good method
Time CPU total Good Events: 13 Tracks: 4414 Hits: 27034 = 7.209778e-04 s

Test for OpenCL
To import-> Hits: 27034, Tracks: 4414 Events: 13
Filter with OpenCL 2
Time GPU Kernel OpenCl2 Events: 13 Tracks: 4414 Hits: 27034 = 9.056e-05 s
Time CPU Kernel OpenCl2 Events: 13 Tracks: 4414 Hits: 27034 = 0.000119925 s
Time CPU total OpenCl2 Events: 13 Tracks: 4414 Hits: 27034 = 7.213430e-01 s

Test for OpenCL
To import-> Hits: 27034, Tracks: 4414 Events: 13
Filter with OpenCL 1
Time GPU Kernel OpenCl1 Events: 13 Tracks: 4414 Hits: 27034 = 8.3136e-05 s
Time CPU Kernel OpenCl1 Events: 13 Tracks: 4414 Hits: 27034 = 0.000110149 s
Time CPU total OpenCl1 Events: 13 Tracks: 4414 Hits: 27034 = 7.250531e-01 s

-----------------------------
Test for Bad
To import-> Hits: 28064, Tracks: 4587 Events: 14
Filter with Bad method
Time CPU total Bad Events: 14 Tracks: 4587 Hits: 28064 = 1.759052e-03 s

Test for Good
To import-> Hits: 28064, Tracks: 4587 Events: 14
Filter with Cuda 2
Time GPU Kernel Cuda2 Events: 14 Tracks: 4587 Hits: 28064 = 9.456000e-05 s
Time CPU Kernel Cuda2 Events: 14 Tracks: 4587 Hits: 28064 = 9.202957e-05 s
Time CPU total Cuda2 Events: 14 Tracks: 4587 Hits: 28064 = 6.517830e-01 s

Test for Good
To import-> Hits: 28064, Tracks: 4587 Events: 14
Filter with Cuda 1
Time GPU Kernel Cuda1 Events: 14 Tracks: 4587 Hits: 28064 = 1.143360e-04 s
Time CPU Kernel Cuda1 Events: 14 Tracks: 4587 Hits: 28064 = 1.120567e-04 s
Time CPU total Cuda1 Events: 14 Tracks: 4587 Hits: 28064 = 6.659369e-01 s

Test for Good
To import-> Hits: 28064, Tracks: 4587 Events: 14
Filter with Good method
Time CPU total Good Events: 14 Tracks: 4587 Hits: 28064 = 7.379055e-04 s

Test for OpenCL
To import-> Hits: 28064, Tracks: 4587 Events: 14
Filter with OpenCL 2
Time GPU Kernel OpenCl2 Events: 14 Tracks: 4587 Hits: 28064 = 8.8608e-05 s
Time CPU Kernel OpenCl2 Events: 14 Tracks: 4587 Hits: 28064 = 0.000119209 s
Time CPU total OpenCl2 Events: 14 Tracks: 4587 Hits: 28064 = 7.311690e-01 s

Test for OpenCL
To import-> Hits: 28064, Tracks: 4587 Events: 14
Filter with OpenCL 1
Time GPU Kernel OpenCl1 Events: 14 Tracks: 4587 Hits: 28064 = 8.2848e-05 s
Time CPU Kernel OpenCl1 Events: 14 Tracks: 4587 Hits: 28064 = 0.000111103 s
Time CPU total OpenCl1 Events: 14 Tracks: 4587 Hits: 28064 = 7.264879e-01 s

-----------------------------
Test for Bad
To import-> Hits: 30895, Tracks: 5044 Events: 15
Filter with Bad method
Time CPU total Bad Events: 15 Tracks: 5044 Hits: 30895 = 1.793146e-03 s

Test for Good
To import-> Hits: 30895, Tracks: 5044 Events: 15
Filter with Cuda 2
Time GPU Kernel Cuda2 Events: 15 Tracks: 5044 Hits: 30895 = 1.091520e-04 s
Time CPU Kernel Cuda2 Events: 15 Tracks: 5044 Hits: 30895 = 1.051426e-04 s
Time CPU total Cuda2 Events: 15 Tracks: 5044 Hits: 30895 = 6.946540e-01 s

Test for Good
To import-> Hits: 30895, Tracks: 5044 Events: 15
Filter with Cuda 1
Time GPU Kernel Cuda1 Events: 15 Tracks: 5044 Hits: 30895 = 1.276160e-04 s
Time CPU Kernel Cuda1 Events: 15 Tracks: 5044 Hits: 30895 = 1.230240e-04 s
Time CPU total Cuda1 Events: 15 Tracks: 5044 Hits: 30895 = 6.878362e-01 s

Test for Good
To import-> Hits: 30895, Tracks: 5044 Events: 15
Filter with Good method
Time CPU total Good Events: 15 Tracks: 5044 Hits: 30895 = 8.130074e-04 s

Test for OpenCL
To import-> Hits: 30895, Tracks: 5044 Events: 15
Filter with OpenCL 2
Time GPU Kernel OpenCl2 Events: 15 Tracks: 5044 Hits: 30895 = 8.8672e-05 s
Time CPU Kernel OpenCl2 Events: 15 Tracks: 5044 Hits: 30895 = 0.000115871 s
Time CPU total OpenCl2 Events: 15 Tracks: 5044 Hits: 30895 = 7.231100e-01 s

Test for OpenCL
To import-> Hits: 30895, Tracks: 5044 Events: 15
Filter with OpenCL 1
Time GPU Kernel OpenCl1 Events: 15 Tracks: 5044 Hits: 30895 = 9.1008e-05 s
Time CPU Kernel OpenCl1 Events: 15 Tracks: 5044 Hits: 30895 = 0.000119925 s
Time CPU total OpenCl1 Events: 15 Tracks: 5044 Hits: 30895 = 7.284100e-01 s

-----------------------------
Test for Bad
To import-> Hits: 31449, Tracks: 5141 Events: 16
Filter with Bad method
Time CPU total Bad Events: 16 Tracks: 5141 Hits: 31449 = 1.859903e-03 s

Test for Good
To import-> Hits: 31449, Tracks: 5141 Events: 16
Filter with Cuda 2
Time GPU Kernel Cuda2 Events: 16 Tracks: 5141 Hits: 31449 = 1.066240e-04 s
Time CPU Kernel Cuda2 Events: 16 Tracks: 5141 Hits: 31449 = 1.020432e-04 s
Time CPU total Cuda2 Events: 16 Tracks: 5141 Hits: 31449 = 6.838920e-01 s

Test for Good
To import-> Hits: 31449, Tracks: 5141 Events: 16
Filter with Cuda 1
Time GPU Kernel Cuda1 Events: 16 Tracks: 5141 Hits: 31449 = 1.276160e-04 s
Time CPU Kernel Cuda1 Events: 16 Tracks: 5141 Hits: 31449 = 1.239777e-04 s
Time CPU total Cuda1 Events: 16 Tracks: 5141 Hits: 31449 = 6.887999e-01 s

Test for Good
To import-> Hits: 31449, Tracks: 5141 Events: 16
Filter with Good method
Time CPU total Good Events: 16 Tracks: 5141 Hits: 31449 = 8.380413e-04 s

Test for OpenCL
To import-> Hits: 31449, Tracks: 5141 Events: 16
Filter with OpenCL 2
Time GPU Kernel OpenCl2 Events: 16 Tracks: 5141 Hits: 31449 = 9.328e-05 s
Time CPU Kernel OpenCl2 Events: 16 Tracks: 5141 Hits: 31449 = 0.000120878 s
Time CPU total OpenCl2 Events: 16 Tracks: 5141 Hits: 31449 = 7.262678e-01 s

Test for OpenCL
To import-> Hits: 31449, Tracks: 5141 Events: 16
Filter with OpenCL 1
Time GPU Kernel OpenCl1 Events: 16 Tracks: 5141 Hits: 31449 = 9.1104e-05 s
Time CPU Kernel OpenCl1 Events: 16 Tracks: 5141 Hits: 31449 = 0.000118971 s
Time CPU total OpenCl1 Events: 16 Tracks: 5141 Hits: 31449 = 7.247388e-01 s

-----------------------------
Test for Bad
To import-> Hits: 32810, Tracks: 5353 Events: 17
Filter with Bad method
Time CPU total Bad Events: 17 Tracks: 5353 Hits: 32810 = 1.586914e-03 s

Test for Good
To import-> Hits: 32810, Tracks: 5353 Events: 17
Filter with Cuda 2
Time GPU Kernel Cuda2 Events: 17 Tracks: 5353 Hits: 32810 = 1.135360e-04 s
Time CPU Kernel Cuda2 Events: 17 Tracks: 5353 Hits: 32810 = 1.060963e-04 s
Time CPU total Cuda2 Events: 17 Tracks: 5353 Hits: 32810 = 6.911199e-01 s

Test for Good
To import-> Hits: 32810, Tracks: 5353 Events: 17
Filter with Cuda 1
Time GPU Kernel Cuda1 Events: 17 Tracks: 5353 Hits: 32810 = 1.305280e-04 s
Time CPU Kernel Cuda1 Events: 17 Tracks: 5353 Hits: 32810 = 1.258850e-04 s
Time CPU total Cuda1 Events: 17 Tracks: 5353 Hits: 32810 = 6.897168e-01 s

Test for Good
To import-> Hits: 32810, Tracks: 5353 Events: 17
Filter with Good method
Time CPU total Good Events: 17 Tracks: 5353 Hits: 32810 = 8.671284e-04 s

Test for OpenCL
To import-> Hits: 32810, Tracks: 5353 Events: 17
Filter with OpenCL 2
Time GPU Kernel OpenCl2 Events: 17 Tracks: 5353 Hits: 32810 = 9.5456e-05 s
Time CPU Kernel OpenCl2 Events: 17 Tracks: 5353 Hits: 32810 = 0.000123024 s
Time CPU total OpenCl2 Events: 17 Tracks: 5353 Hits: 32810 = 7.315509e-01 s

Test for OpenCL
To import-> Hits: 32810, Tracks: 5353 Events: 17
Filter with OpenCL 1
Time GPU Kernel OpenCl1 Events: 17 Tracks: 5353 Hits: 32810 = 9.6896e-05 s
Time CPU Kernel OpenCl1 Events: 17 Tracks: 5353 Hits: 32810 = 0.000124931 s
Time CPU total OpenCl1 Events: 17 Tracks: 5353 Hits: 32810 = 7.312350e-01 s

-----------------------------
Test for Bad
To import-> Hits: 35226, Tracks: 5750 Events: 18
Filter with Bad method
Time CPU total Bad Events: 18 Tracks: 5750 Hits: 35226 = 1.849890e-03 s

Test for Good
To import-> Hits: 35226, Tracks: 5750 Events: 18
Filter with Cuda 2
Time GPU Kernel Cuda2 Events: 18 Tracks: 5750 Hits: 35226 = 1.117440e-04 s
Time CPU Kernel Cuda2 Events: 18 Tracks: 5750 Hits: 35226 = 1.068115e-04 s
Time CPU total Cuda2 Events: 18 Tracks: 5750 Hits: 35226 = 6.866589e-01 s

Test for Good
To import-> Hits: 35226, Tracks: 5750 Events: 18
Filter with Cuda 1
Time GPU Kernel Cuda1 Events: 18 Tracks: 5750 Hits: 35226 = 1.321280e-04 s
Time CPU Kernel Cuda1 Events: 18 Tracks: 5750 Hits: 35226 = 1.277924e-04 s
Time CPU total Cuda1 Events: 18 Tracks: 5750 Hits: 35226 = 6.855211e-01 s

Test for Good
To import-> Hits: 35226, Tracks: 5750 Events: 18
Filter with Good method
Time CPU total Good Events: 18 Tracks: 5750 Hits: 35226 = 9.360313e-04 s

Test for OpenCL
To import-> Hits: 35226, Tracks: 5750 Events: 18
Filter with OpenCL 2
Time GPU Kernel OpenCl2 Events: 18 Tracks: 5750 Hits: 35226 = 0.000103808 s
Time CPU Kernel OpenCl2 Events: 18 Tracks: 5750 Hits: 35226 = 0.000262022 s
Time CPU total OpenCl2 Events: 18 Tracks: 5750 Hits: 35226 = 7.261081e-01 s

Test for OpenCL
To import-> Hits: 35226, Tracks: 5750 Events: 18
Filter with OpenCL 1
Time GPU Kernel OpenCl1 Events: 18 Tracks: 5750 Hits: 35226 = 9.8912e-05 s
Time CPU Kernel OpenCl1 Events: 18 Tracks: 5750 Hits: 35226 = 0.000254154 s
Time CPU total OpenCl1 Events: 18 Tracks: 5750 Hits: 35226 = 7.273090e-01 s

-----------------------------
Test for Bad
To import-> Hits: 38329, Tracks: 6260 Events: 19
Filter with Bad method
Time CPU total Bad Events: 19 Tracks: 6260 Hits: 38329 = 1.983881e-03 s

Test for Good
To import-> Hits: 38329, Tracks: 6260 Events: 19
Filter with Cuda 2
Time GPU Kernel Cuda2 Events: 19 Tracks: 6260 Hits: 38329 = 1.153920e-04 s
Time CPU Kernel Cuda2 Events: 19 Tracks: 6260 Hits: 38329 = 1.111031e-04 s
Time CPU total Cuda2 Events: 19 Tracks: 6260 Hits: 38329 = 6.884859e-01 s

Test for Good
To import-> Hits: 38329, Tracks: 6260 Events: 19
Filter with Cuda 1
Time GPU Kernel Cuda1 Events: 19 Tracks: 6260 Hits: 38329 = 1.500160e-04 s
Time CPU Kernel Cuda1 Events: 19 Tracks: 6260 Hits: 38329 = 1.459122e-04 s
Time CPU total Cuda1 Events: 19 Tracks: 6260 Hits: 38329 = 6.852629e-01 s

Test for Good
To import-> Hits: 38329, Tracks: 6260 Events: 19
Filter with Good method
Time CPU total Good Events: 19 Tracks: 6260 Hits: 38329 = 1.028776e-03 s

Test for OpenCL
To import-> Hits: 38329, Tracks: 6260 Events: 19
Filter with OpenCL 2
Time GPU Kernel OpenCl2 Events: 19 Tracks: 6260 Hits: 38329 = 0.000103936 s
Time CPU Kernel OpenCl2 Events: 19 Tracks: 6260 Hits: 38329 = 0.000261784 s
Time CPU total OpenCl2 Events: 19 Tracks: 6260 Hits: 38329 = 7.241640e-01 s

Test for OpenCL
To import-> Hits: 38329, Tracks: 6260 Events: 19
Filter with OpenCL 1
Time GPU Kernel OpenCl1 Events: 19 Tracks: 6260 Hits: 38329 = 0.000101792 s
Time CPU Kernel OpenCl1 Events: 19 Tracks: 6260 Hits: 38329 = 0.000259876 s
Time CPU total OpenCl1 Events: 19 Tracks: 6260 Hits: 38329 = 7.227061e-01 s

-----------------------------
Test for Bad
To import-> Hits: 40004, Tracks: 6560 Events: 20
Filter with Bad method
Time CPU total Bad Events: 20 Tracks: 6560 Hits: 40004 = 2.032995e-03 s

Test for Good
To import-> Hits: 40004, Tracks: 6560 Events: 20
Filter with Cuda 2
Time GPU Kernel Cuda2 Events: 20 Tracks: 6560 Hits: 40004 = 1.152320e-04 s
Time CPU Kernel Cuda2 Events: 20 Tracks: 6560 Hits: 40004 = 1.111031e-04 s
Time CPU total Cuda2 Events: 20 Tracks: 6560 Hits: 40004 = 6.856780e-01 s

Test for Good
To import-> Hits: 40004, Tracks: 6560 Events: 20
Filter with Cuda 1
Time GPU Kernel Cuda1 Events: 20 Tracks: 6560 Hits: 40004 = 1.410560e-04 s
Time CPU Kernel Cuda1 Events: 20 Tracks: 6560 Hits: 40004 = 1.358986e-04 s
Time CPU total Cuda1 Events: 20 Tracks: 6560 Hits: 40004 = 6.849132e-01 s

Test for Good
To import-> Hits: 40004, Tracks: 6560 Events: 20
Filter with Good method
Time CPU total Good Events: 20 Tracks: 6560 Hits: 40004 = 1.049995e-03 s

Test for OpenCL
To import-> Hits: 40004, Tracks: 6560 Events: 20
Filter with OpenCL 2
Time GPU Kernel OpenCl2 Events: 20 Tracks: 6560 Hits: 40004 = 0.000110272 s
Time CPU Kernel OpenCl2 Events: 20 Tracks: 6560 Hits: 40004 = 0.000272036 s
Time CPU total OpenCl2 Events: 20 Tracks: 6560 Hits: 40004 = 7.277632e-01 s

Test for OpenCL
To import-> Hits: 40004, Tracks: 6560 Events: 20
Filter with OpenCL 1
Time GPU Kernel OpenCl1 Events: 20 Tracks: 6560 Hits: 40004 = 0.000102368 s
Time CPU Kernel OpenCl1 Events: 20 Tracks: 6560 Hits: 40004 = 0.000261068 s
Time CPU total OpenCl1 Events: 20 Tracks: 6560 Hits: 40004 = 7.291100e-01 s

-----------------------------
Test for Bad
To import-> Hits: 57158, Tracks: 9310 Events: 30
Filter with Bad method
Time CPU total Bad Events: 30 Tracks: 9310 Hits: 57158 = 3.345013e-03 s

Test for Good
To import-> Hits: 57158, Tracks: 9310 Events: 30
Filter with Cuda 2
Time GPU Kernel Cuda2 Events: 30 Tracks: 9310 Hits: 57158 = 1.434560e-04 s
Time CPU Kernel Cuda2 Events: 30 Tracks: 9310 Hits: 57158 = 1.389980e-04 s
Time CPU total Cuda2 Events: 30 Tracks: 9310 Hits: 57158 = 6.926482e-01 s

Test for Good
To import-> Hits: 57158, Tracks: 9310 Events: 30
Filter with Cuda 1
Time GPU Kernel Cuda1 Events: 30 Tracks: 9310 Hits: 57158 = 1.769600e-04 s
Time CPU Kernel Cuda1 Events: 30 Tracks: 9310 Hits: 57158 = 1.709461e-04 s
Time CPU total Cuda1 Events: 30 Tracks: 9310 Hits: 57158 = 6.865640e-01 s

Test for Good
To import-> Hits: 57158, Tracks: 9310 Events: 30
Filter with Good method
Time CPU total Good Events: 30 Tracks: 9310 Hits: 57158 = 1.497984e-03 s

Test for OpenCL
To import-> Hits: 57158, Tracks: 9310 Events: 30
Filter with OpenCL 2
Time GPU Kernel OpenCl2 Events: 30 Tracks: 9310 Hits: 57158 = 0.000138656 s
Time CPU Kernel OpenCl2 Events: 30 Tracks: 9310 Hits: 57158 = 0.000167131 s
Time CPU total OpenCl2 Events: 30 Tracks: 9310 Hits: 57158 = 7.247381e-01 s

Test for OpenCL
To import-> Hits: 57158, Tracks: 9310 Events: 30
Filter with OpenCL 1
Time GPU Kernel OpenCl1 Events: 30 Tracks: 9310 Hits: 57158 = 0.000128096 s
Time CPU Kernel OpenCl1 Events: 30 Tracks: 9310 Hits: 57158 = 0.000155926 s
Time CPU total OpenCl1 Events: 30 Tracks: 9310 Hits: 57158 = 7.265499e-01 s

-----------------------------
Test for Bad
To import-> Hits: 75953, Tracks: 12174 Events: 40
Filter with Bad method
Time CPU total Bad Events: 40 Tracks: 12174 Hits: 75953 = 3.750086e-03 s

Test for Good
To import-> Hits: 75953, Tracks: 12174 Events: 40
Filter with Cuda 2
Time GPU Kernel Cuda2 Events: 40 Tracks: 12174 Hits: 75953 = 1.614080e-04 s
Time CPU Kernel Cuda2 Events: 40 Tracks: 12174 Hits: 75953 = 1.571178e-04 s
Time CPU total Cuda2 Events: 40 Tracks: 12174 Hits: 75953 = 6.810250e-01 s

Test for Good
To import-> Hits: 75953, Tracks: 12174 Events: 40
Filter with Cuda 1
Time GPU Kernel Cuda1 Events: 40 Tracks: 12174 Hits: 75953 = 2.057600e-04 s
Time CPU Kernel Cuda1 Events: 40 Tracks: 12174 Hits: 75953 = 2.019405e-04 s
Time CPU total Cuda1 Events: 40 Tracks: 12174 Hits: 75953 = 6.850970e-01 s

Test for Good
To import-> Hits: 75953, Tracks: 12174 Events: 40
Filter with Good method
Time CPU total Good Events: 40 Tracks: 12174 Hits: 75953 = 1.985073e-03 s

Test for OpenCL
To import-> Hits: 75953, Tracks: 12174 Events: 40
Filter with OpenCL 2
Time GPU Kernel OpenCl2 Events: 40 Tracks: 12174 Hits: 75953 = 0.000169024 s
Time CPU Kernel OpenCl2 Events: 40 Tracks: 12174 Hits: 75953 = 0.000196218 s
Time CPU total OpenCl2 Events: 40 Tracks: 12174 Hits: 75953 = 7.290211e-01 s

Test for OpenCL
To import-> Hits: 75953, Tracks: 12174 Events: 40
Filter with OpenCL 1
Time GPU Kernel OpenCl1 Events: 40 Tracks: 12174 Hits: 75953 = 0.00015472 s
Time CPU Kernel OpenCl1 Events: 40 Tracks: 12174 Hits: 75953 = 0.000185966 s
Time CPU total OpenCl1 Events: 40 Tracks: 12174 Hits: 75953 = 7.234631e-01 s

-----------------------------
Test for Bad
To import-> Hits: 93663, Tracks: 15024 Events: 50
Filter with Bad method
Time CPU total Bad Events: 50 Tracks: 15024 Hits: 93663 = 5.007982e-03 s

Test for Good
To import-> Hits: 93663, Tracks: 15024 Events: 50
Filter with Cuda 2
Time GPU Kernel Cuda2 Events: 50 Tracks: 15024 Hits: 93663 = 1.747840e-04 s
Time CPU Kernel Cuda2 Events: 50 Tracks: 15024 Hits: 93663 = 1.730919e-04 s
Time CPU total Cuda2 Events: 50 Tracks: 15024 Hits: 93663 = 6.870580e-01 s

Test for Good
To import-> Hits: 93663, Tracks: 15024 Events: 50
Filter with Cuda 1
Time GPU Kernel Cuda1 Events: 50 Tracks: 15024 Hits: 93663 = 2.257600e-04 s
Time CPU Kernel Cuda1 Events: 50 Tracks: 15024 Hits: 93663 = 2.231598e-04 s
Time CPU total Cuda1 Events: 50 Tracks: 15024 Hits: 93663 = 6.811011e-01 s

Test for Good
To import-> Hits: 93663, Tracks: 15024 Events: 50
Filter with Good method
Time CPU total Good Events: 50 Tracks: 15024 Hits: 93663 = 2.503157e-03 s

Test for OpenCL
To import-> Hits: 93663, Tracks: 15024 Events: 50
Filter with OpenCL 2
Time GPU Kernel OpenCl2 Events: 50 Tracks: 15024 Hits: 93663 = 0.000197184 s
Time CPU Kernel OpenCl2 Events: 50 Tracks: 15024 Hits: 93663 = 0.000225067 s
Time CPU total OpenCl2 Events: 50 Tracks: 15024 Hits: 93663 = 7.241859e-01 s

Test for OpenCL
To import-> Hits: 93663, Tracks: 15024 Events: 50
Filter with OpenCL 1
Time GPU Kernel OpenCl1 Events: 50 Tracks: 15024 Hits: 93663 = 0.000173312 s
Time CPU Kernel OpenCl1 Events: 50 Tracks: 15024 Hits: 93663 = 0.000204086 s
Time CPU total OpenCl1 Events: 50 Tracks: 15024 Hits: 93663 = 7.261271e-01 s

-----------------------------
Test for Bad
To import-> Hits: 114400, Tracks: 18356 Events: 60
Filter with Bad method
Time CPU total Bad Events: 60 Tracks: 18356 Hits: 114400 = 6.628036e-03 s

Test for Good
To import-> Hits: 114400, Tracks: 18356 Events: 60
Filter with Cuda 2
Time GPU Kernel Cuda2 Events: 60 Tracks: 18356 Hits: 114400 = 1.995840e-04 s
Time CPU Kernel Cuda2 Events: 60 Tracks: 18356 Hits: 114400 = 1.978874e-04 s
Time CPU total Cuda2 Events: 60 Tracks: 18356 Hits: 114400 = 6.942639e-01 s

Test for Good
To import-> Hits: 114400, Tracks: 18356 Events: 60
Filter with Cuda 1
Time GPU Kernel Cuda1 Events: 60 Tracks: 18356 Hits: 114400 = 2.463360e-04 s
Time CPU Kernel Cuda1 Events: 60 Tracks: 18356 Hits: 114400 = 2.460480e-04 s
Time CPU total Cuda1 Events: 60 Tracks: 18356 Hits: 114400 = 6.871641e-01 s

Test for Good
To import-> Hits: 114400, Tracks: 18356 Events: 60
Filter with Good method
Time CPU total Good Events: 60 Tracks: 18356 Hits: 114400 = 3.092051e-03 s

Test for OpenCL
To import-> Hits: 114400, Tracks: 18356 Events: 60
Filter with OpenCL 2
Time GPU Kernel OpenCl2 Events: 60 Tracks: 18356 Hits: 114400 = 0.000238912 s
Time CPU Kernel OpenCl2 Events: 60 Tracks: 18356 Hits: 114400 = 0.000393152 s
Time CPU total OpenCl2 Events: 60 Tracks: 18356 Hits: 114400 = 7.219501e-01 s

Test for OpenCL
To import-> Hits: 114400, Tracks: 18356 Events: 60
Filter with OpenCL 1
Time GPU Kernel OpenCl1 Events: 60 Tracks: 18356 Hits: 114400 = 0.00019968 s
Time CPU Kernel OpenCl1 Events: 60 Tracks: 18356 Hits: 114400 = 0.000357866 s
Time CPU total OpenCl1 Events: 60 Tracks: 18356 Hits: 114400 = 7.242730e-01 s

-----------------------------
Test for Bad
To import-> Hits: 135212, Tracks: 21691 Events: 70
Filter with Bad method
Time CPU total Bad Events: 70 Tracks: 21691 Hits: 135212 = 6.487131e-03 s

Test for Good
To import-> Hits: 135212, Tracks: 21691 Events: 70
Filter with Cuda 2
Time GPU Kernel Cuda2 Events: 70 Tracks: 21691 Hits: 135212 = 2.158400e-04 s
Time CPU Kernel Cuda2 Events: 70 Tracks: 21691 Hits: 135212 = 2.160072e-04 s
Time CPU total Cuda2 Events: 70 Tracks: 21691 Hits: 135212 = 6.938238e-01 s

Test for Good
To import-> Hits: 135212, Tracks: 21691 Events: 70
Filter with Cuda 1
Time GPU Kernel Cuda1 Events: 70 Tracks: 21691 Hits: 135212 = 2.701760e-04 s
Time CPU Kernel Cuda1 Events: 70 Tracks: 21691 Hits: 135212 = 2.701283e-04 s
Time CPU total Cuda1 Events: 70 Tracks: 21691 Hits: 135212 = 6.867049e-01 s

Test for Good
To import-> Hits: 135212, Tracks: 21691 Events: 70
Filter with Good method
Time CPU total Good Events: 70 Tracks: 21691 Hits: 135212 = 3.575087e-03 s

Test for OpenCL
To import-> Hits: 135212, Tracks: 21691 Events: 70
Filter with OpenCL 2
Time GPU Kernel OpenCl2 Events: 70 Tracks: 21691 Hits: 135212 = 0.00025984 s
Time CPU Kernel OpenCl2 Events: 70 Tracks: 21691 Hits: 135212 = 0.000411987 s
Time CPU total OpenCl2 Events: 70 Tracks: 21691 Hits: 135212 = 7.328961e-01 s

Test for OpenCL
To import-> Hits: 135212, Tracks: 21691 Events: 70
Filter with OpenCL 1
Time GPU Kernel OpenCl1 Events: 70 Tracks: 21691 Hits: 135212 = 0.000219648 s
Time CPU Kernel OpenCl1 Events: 70 Tracks: 21691 Hits: 135212 = 0.000370979 s
Time CPU total OpenCl1 Events: 70 Tracks: 21691 Hits: 135212 = 7.296021e-01 s

-----------------------------
Test for Bad
To import-> Hits: 155915, Tracks: 24967 Events: 80
Filter with Bad method
Time CPU total Bad Events: 80 Tracks: 24967 Hits: 155915 = 7.243872e-03 s

Test for Good
To import-> Hits: 155915, Tracks: 24967 Events: 80
Filter with Cuda 2
Time GPU Kernel Cuda2 Events: 80 Tracks: 24967 Hits: 155915 = 2.359680e-04 s
Time CPU Kernel Cuda2 Events: 80 Tracks: 24967 Hits: 155915 = 2.369881e-04 s
Time CPU total Cuda2 Events: 80 Tracks: 24967 Hits: 155915 = 7.007740e-01 s

Test for Good
To import-> Hits: 155915, Tracks: 24967 Events: 80
Filter with Cuda 1
Time GPU Kernel Cuda1 Events: 80 Tracks: 24967 Hits: 155915 = 3.072640e-04 s
Time CPU Kernel Cuda1 Events: 80 Tracks: 24967 Hits: 155915 = 3.089905e-04 s
Time CPU total Cuda1 Events: 80 Tracks: 24967 Hits: 155915 = 6.916971e-01 s

Test for Good
To import-> Hits: 155915, Tracks: 24967 Events: 80
Filter with Good method
Time CPU total Good Events: 80 Tracks: 24967 Hits: 155915 = 4.176140e-03 s

Test for OpenCL
To import-> Hits: 155915, Tracks: 24967 Events: 80
Filter with OpenCL 2
Time GPU Kernel OpenCl2 Events: 80 Tracks: 24967 Hits: 155915 = 0.000292832 s
Time CPU Kernel OpenCl2 Events: 80 Tracks: 24967 Hits: 155915 = 0.000448942 s
Time CPU total OpenCl2 Events: 80 Tracks: 24967 Hits: 155915 = 1.512117e+00 s

Test for OpenCL
To import-> Hits: 155915, Tracks: 24967 Events: 80
Filter with OpenCL 1
Time GPU Kernel OpenCl1 Events: 80 Tracks: 24967 Hits: 155915 = 0.000246528 s
Time CPU Kernel OpenCl1 Events: 80 Tracks: 24967 Hits: 155915 = 0.000401974 s
Time CPU total OpenCl1 Events: 80 Tracks: 24967 Hits: 155915 = 7.331409e-01 s

-----------------------------
Test for Bad
To import-> Hits: 175352, Tracks: 28121 Events: 90
Filter with Bad method
Time CPU total Bad Events: 90 Tracks: 28121 Hits: 175352 = 9.142876e-03 s

Test for Good
To import-> Hits: 175352, Tracks: 28121 Events: 90
Filter with Cuda 2
Time GPU Kernel Cuda2 Events: 90 Tracks: 28121 Hits: 175352 = 2.535680e-04 s
Time CPU Kernel Cuda2 Events: 90 Tracks: 28121 Hits: 175352 = 2.570152e-04 s
Time CPU total Cuda2 Events: 90 Tracks: 28121 Hits: 175352 = 6.916540e-01 s

Test for Good
To import-> Hits: 175352, Tracks: 28121 Events: 90
Filter with Cuda 1
Time GPU Kernel Cuda1 Events: 90 Tracks: 28121 Hits: 175352 = 3.353920e-04 s
Time CPU Kernel Cuda1 Events: 90 Tracks: 28121 Hits: 175352 = 3.371239e-04 s
Time CPU total Cuda1 Events: 90 Tracks: 28121 Hits: 175352 = 6.927919e-01 s

Test for Good
To import-> Hits: 175352, Tracks: 28121 Events: 90
Filter with Good method
Time CPU total Good Events: 90 Tracks: 28121 Hits: 175352 = 4.642963e-03 s

Test for OpenCL
To import-> Hits: 175352, Tracks: 28121 Events: 90
Filter with OpenCL 2
Time GPU Kernel OpenCl2 Events: 90 Tracks: 28121 Hits: 175352 = 0.000336864 s
Time CPU Kernel OpenCl2 Events: 90 Tracks: 28121 Hits: 175352 = 0.000488997 s
Time CPU total OpenCl2 Events: 90 Tracks: 28121 Hits: 175352 = 7.263889e-01 s

Test for OpenCL
To import-> Hits: 175352, Tracks: 28121 Events: 90
Filter with OpenCL 1
Time GPU Kernel OpenCl1 Events: 90 Tracks: 28121 Hits: 175352 = 0.000270176 s
Time CPU Kernel OpenCl1 Events: 90 Tracks: 28121 Hits: 175352 = 0.000437975 s
Time CPU total OpenCl1 Events: 90 Tracks: 28121 Hits: 175352 = 7.428439e-01 s

-----------------------------
Test for Bad
To import-> Hits: 196714, Tracks: 31506 Events: 100
Filter with Bad method
Time CPU total Bad Events: 100 Tracks: 31506 Hits: 196714 = 1.072812e-02 s

Test for Good
To import-> Hits: 196714, Tracks: 31506 Events: 100
Filter with Cuda 2
Time GPU Kernel Cuda2 Events: 100 Tracks: 31506 Hits: 196714 = 2.852800e-04 s
Time CPU Kernel Cuda2 Events: 100 Tracks: 31506 Hits: 196714 = 2.889633e-04 s
Time CPU total Cuda2 Events: 100 Tracks: 31506 Hits: 196714 = 7.028749e-01 s

Test for Good
To import-> Hits: 196714, Tracks: 31506 Events: 100
Filter with Cuda 1
Time GPU Kernel Cuda1 Events: 100 Tracks: 31506 Hits: 196714 = 3.669440e-04 s
Time CPU Kernel Cuda1 Events: 100 Tracks: 31506 Hits: 196714 = 3.700256e-04 s
Time CPU total Cuda1 Events: 100 Tracks: 31506 Hits: 196714 = 6.904058e-01 s

Test for Good
To import-> Hits: 196714, Tracks: 31506 Events: 100
Filter with Good method
Time CPU total Good Events: 100 Tracks: 31506 Hits: 196714 = 5.219936e-03 s

Test for OpenCL
To import-> Hits: 196714, Tracks: 31506 Events: 100
Filter with OpenCL 2
Time GPU Kernel OpenCl2 Events: 100 Tracks: 31506 Hits: 196714 = 0.000361088 s
Time CPU Kernel OpenCl2 Events: 100 Tracks: 31506 Hits: 196714 = 0.000512838 s
Time CPU total OpenCl2 Events: 100 Tracks: 31506 Hits: 196714 = 7.438431e-01 s

Test for OpenCL
To import-> Hits: 196714, Tracks: 31506 Events: 100
Filter with OpenCL 1
Time GPU Kernel OpenCl1 Events: 100 Tracks: 31506 Hits: 196714 = 0.00029872 s
Time CPU Kernel OpenCl1 Events: 100 Tracks: 31506 Hits: 196714 = 0.000464201 s
Time CPU total OpenCl1 Events: 100 Tracks: 31506 Hits: 196714 = 7.317390e-01 s

-----------------------------
Test for Bad
To import-> Hits: 214801, Tracks: 34413 Events: 110
Filter with Bad method
Time CPU total Bad Events: 110 Tracks: 34413 Hits: 214801 = 1.212478e-02 s

Test for Good
To import-> Hits: 214801, Tracks: 34413 Events: 110
Filter with Cuda 2
Time GPU Kernel Cuda2 Events: 110 Tracks: 34413 Hits: 214801 = 3.036160e-04 s
Time CPU Kernel Cuda2 Events: 110 Tracks: 34413 Hits: 214801 = 3.077984e-04 s
Time CPU total Cuda2 Events: 110 Tracks: 34413 Hits: 214801 = 6.917419e-01 s

Test for Good
To import-> Hits: 214801, Tracks: 34413 Events: 110
Filter with Cuda 1
Time GPU Kernel Cuda1 Events: 110 Tracks: 34413 Hits: 214801 = 3.979200e-04 s
Time CPU Kernel Cuda1 Events: 110 Tracks: 34413 Hits: 214801 = 4.010201e-04 s
Time CPU total Cuda1 Events: 110 Tracks: 34413 Hits: 214801 = 6.899419e-01 s

Test for Good
To import-> Hits: 214801, Tracks: 34413 Events: 110
Filter with Good method
Time CPU total Good Events: 110 Tracks: 34413 Hits: 214801 = 5.780935e-03 s

Test for OpenCL
To import-> Hits: 214801, Tracks: 34413 Events: 110
Filter with OpenCL 2
Time GPU Kernel OpenCl2 Events: 110 Tracks: 34413 Hits: 214801 = 0.000398368 s
Time CPU Kernel OpenCl2 Events: 110 Tracks: 34413 Hits: 214801 = 0.0005548 s
Time CPU total OpenCl2 Events: 110 Tracks: 34413 Hits: 214801 = 7.352772e-01 s

Test for OpenCL
To import-> Hits: 214801, Tracks: 34413 Events: 110
Filter with OpenCL 1
Time GPU Kernel OpenCl1 Events: 110 Tracks: 34413 Hits: 214801 = 0.0003208 s
Time CPU Kernel OpenCl1 Events: 110 Tracks: 34413 Hits: 214801 = 0.000484943 s
Time CPU total OpenCl1 Events: 110 Tracks: 34413 Hits: 214801 = 7.349720e-01 s

-----------------------------
Test for Bad
To import-> Hits: 233881, Tracks: 37459 Events: 120
Filter with Bad method
Time CPU total Bad Events: 120 Tracks: 37459 Hits: 233881 = 1.335883e-02 s

Test for Good
To import-> Hits: 233881, Tracks: 37459 Events: 120
Filter with Cuda 2
Time GPU Kernel Cuda2 Events: 120 Tracks: 37459 Hits: 233881 = 3.275200e-04 s
Time CPU Kernel Cuda2 Events: 120 Tracks: 37459 Hits: 233881 = 3.318787e-04 s
Time CPU total Cuda2 Events: 120 Tracks: 37459 Hits: 233881 = 6.956041e-01 s

Test for Good
To import-> Hits: 233881, Tracks: 37459 Events: 120
Filter with Cuda 1
Time GPU Kernel Cuda1 Events: 120 Tracks: 37459 Hits: 233881 = 4.282880e-04 s
Time CPU Kernel Cuda1 Events: 120 Tracks: 37459 Hits: 233881 = 4.329681e-04 s
Time CPU total Cuda1 Events: 120 Tracks: 37459 Hits: 233881 = 6.958299e-01 s

Test for Good
To import-> Hits: 233881, Tracks: 37459 Events: 120
Filter with Good method
Time CPU total Good Events: 120 Tracks: 37459 Hits: 233881 = 6.206989e-03 s

Test for OpenCL
To import-> Hits: 233881, Tracks: 37459 Events: 120
Filter with OpenCL 2
Time GPU Kernel OpenCl2 Events: 120 Tracks: 37459 Hits: 233881 = 0.000437952 s
Time CPU Kernel OpenCl2 Events: 120 Tracks: 37459 Hits: 233881 = 0.000592947 s
Time CPU total OpenCl2 Events: 120 Tracks: 37459 Hits: 233881 = 7.346611e-01 s

Test for OpenCL
To import-> Hits: 233881, Tracks: 37459 Events: 120
Filter with OpenCL 1
Time GPU Kernel OpenCl1 Events: 120 Tracks: 37459 Hits: 233881 = 0.000350176 s
Time CPU Kernel OpenCl1 Events: 120 Tracks: 37459 Hits: 233881 = 0.000509024 s
Time CPU total OpenCl1 Events: 120 Tracks: 37459 Hits: 233881 = 7.317712e-01 s

-----------------------------
Test for Bad
To import-> Hits: 254225, Tracks: 40754 Events: 130
Filter with Bad method
Time CPU total Bad Events: 130 Tracks: 40754 Hits: 254225 = 1.179194e-02 s

Test for Good
To import-> Hits: 254225, Tracks: 40754 Events: 130
Filter with Cuda 2
Time GPU Kernel Cuda2 Events: 130 Tracks: 40754 Hits: 254225 = 3.480320e-04 s
Time CPU Kernel Cuda2 Events: 130 Tracks: 40754 Hits: 254225 = 3.540516e-04 s
Time CPU total Cuda2 Events: 130 Tracks: 40754 Hits: 254225 = 6.932361e-01 s

Test for Good
To import-> Hits: 254225, Tracks: 40754 Events: 130
Filter with Cuda 1
Time GPU Kernel Cuda1 Events: 130 Tracks: 40754 Hits: 254225 = 4.546240e-04 s
Time CPU Kernel Cuda1 Events: 130 Tracks: 40754 Hits: 254225 = 4.601479e-04 s
Time CPU total Cuda1 Events: 130 Tracks: 40754 Hits: 254225 = 6.913540e-01 s

Test for Good
To import-> Hits: 254225, Tracks: 40754 Events: 130
Filter with Good method
Time CPU total Good Events: 130 Tracks: 40754 Hits: 254225 = 6.685019e-03 s

Test for OpenCL
To import-> Hits: 254225, Tracks: 40754 Events: 130
Filter with OpenCL 2
Time GPU Kernel OpenCl2 Events: 130 Tracks: 40754 Hits: 254225 = 0.000472288 s
Time CPU Kernel OpenCl2 Events: 130 Tracks: 40754 Hits: 254225 = 0.000629902 s
Time CPU total OpenCl2 Events: 130 Tracks: 40754 Hits: 254225 = 7.338600e-01 s

Test for OpenCL
To import-> Hits: 254225, Tracks: 40754 Events: 130
Filter with OpenCL 1
Time GPU Kernel OpenCl1 Events: 130 Tracks: 40754 Hits: 254225 = 0.000375776 s
Time CPU Kernel OpenCl1 Events: 130 Tracks: 40754 Hits: 254225 = 0.00053215 s
Time CPU total OpenCl1 Events: 130 Tracks: 40754 Hits: 254225 = 7.271521e-01 s

-----------------------------
Test for Bad
To import-> Hits: 278857, Tracks: 44705 Events: 140
Filter with Bad method
Time CPU total Bad Events: 140 Tracks: 44705 Hits: 278857 = 1.316881e-02 s

Test for Good
To import-> Hits: 278857, Tracks: 44705 Events: 140
Filter with Cuda 2
Time GPU Kernel Cuda2 Events: 140 Tracks: 44705 Hits: 278857 = 3.760640e-04 s
Time CPU Kernel Cuda2 Events: 140 Tracks: 44705 Hits: 278857 = 3.821850e-04 s
Time CPU total Cuda2 Events: 140 Tracks: 44705 Hits: 278857 = 6.732991e-01 s

Test for Good
To import-> Hits: 278857, Tracks: 44705 Events: 140
Filter with Cuda 1
Time GPU Kernel Cuda1 Events: 140 Tracks: 44705 Hits: 278857 = 4.942400e-04 s
Time CPU Kernel Cuda1 Events: 140 Tracks: 44705 Hits: 278857 = 5.018711e-04 s
Time CPU total Cuda1 Events: 140 Tracks: 44705 Hits: 278857 = 6.925011e-01 s

Test for Good
To import-> Hits: 278857, Tracks: 44705 Events: 140
Filter with Good method
Time CPU total Good Events: 140 Tracks: 44705 Hits: 278857 = 7.404089e-03 s

Test for OpenCL
To import-> Hits: 278857, Tracks: 44705 Events: 140
Filter with OpenCL 2
Time GPU Kernel OpenCl2 Events: 140 Tracks: 44705 Hits: 278857 = 0.000515552 s
Time CPU Kernel OpenCl2 Events: 140 Tracks: 44705 Hits: 278857 = 0.00067687 s
Time CPU total OpenCl2 Events: 140 Tracks: 44705 Hits: 278857 = 7.288079e-01 s

Test for OpenCL
To import-> Hits: 278857, Tracks: 44705 Events: 140
Filter with OpenCL 1
Time GPU Kernel OpenCl1 Events: 140 Tracks: 44705 Hits: 278857 = 0.000406496 s
Time CPU Kernel OpenCl1 Events: 140 Tracks: 44705 Hits: 278857 = 0.000564098 s
Time CPU total OpenCl1 Events: 140 Tracks: 44705 Hits: 278857 = 7.317529e-01 s

-----------------------------
Test for Bad
To import-> Hits: 299938, Tracks: 48106 Events: 150
Filter with Bad method
Time CPU total Bad Events: 150 Tracks: 48106 Hits: 299938 = 1.434493e-02 s

Test for Good
To import-> Hits: 299938, Tracks: 48106 Events: 150
Filter with Cuda 2
Time GPU Kernel Cuda2 Events: 150 Tracks: 48106 Hits: 299938 = 3.960640e-04 s
Time CPU Kernel Cuda2 Events: 150 Tracks: 48106 Hits: 299938 = 4.048347e-04 s
Time CPU total Cuda2 Events: 150 Tracks: 48106 Hits: 299938 = 6.930032e-01 s

Test for Good
To import-> Hits: 299938, Tracks: 48106 Events: 150
Filter with Cuda 1
Time GPU Kernel Cuda1 Events: 150 Tracks: 48106 Hits: 299938 = 5.199680e-04 s
Time CPU Kernel Cuda1 Events: 150 Tracks: 48106 Hits: 299938 = 5.278587e-04 s
Time CPU total Cuda1 Events: 150 Tracks: 48106 Hits: 299938 = 6.921210e-01 s

Test for Good
To import-> Hits: 299938, Tracks: 48106 Events: 150
Filter with Good method
Time CPU total Good Events: 150 Tracks: 48106 Hits: 299938 = 7.942915e-03 s

Test for OpenCL
To import-> Hits: 299938, Tracks: 48106 Events: 150
Filter with OpenCL 2
Time GPU Kernel OpenCl2 Events: 150 Tracks: 48106 Hits: 299938 = 0.000551872 s
Time CPU Kernel OpenCl2 Events: 150 Tracks: 48106 Hits: 299938 = 0.000712872 s
Time CPU total OpenCl2 Events: 150 Tracks: 48106 Hits: 299938 = 7.419159e-01 s

Test for OpenCL
To import-> Hits: 299938, Tracks: 48106 Events: 150
Filter with OpenCL 1
Time GPU Kernel OpenCl1 Events: 150 Tracks: 48106 Hits: 299938 = 0.0004312 s
Time CPU Kernel OpenCl1 Events: 150 Tracks: 48106 Hits: 299938 = 0.00058794 s
Time CPU total OpenCl1 Events: 150 Tracks: 48106 Hits: 299938 = 7.433479e-01 s

-----------------------------
Test for Bad
To import-> Hits: 321407, Tracks: 51627 Events: 160
Filter with Bad method
Time CPU total Bad Events: 160 Tracks: 51627 Hits: 321407 = 1.575303e-02 s

Test for Good
To import-> Hits: 321407, Tracks: 51627 Events: 160
Filter with Cuda 2
Time GPU Kernel Cuda2 Events: 160 Tracks: 51627 Hits: 321407 = 4.222720e-04 s
Time CPU Kernel Cuda2 Events: 160 Tracks: 51627 Hits: 321407 = 4.320145e-04 s
Time CPU total Cuda2 Events: 160 Tracks: 51627 Hits: 321407 = 7.018950e-01 s

Test for Good
To import-> Hits: 321407, Tracks: 51627 Events: 160
Filter with Cuda 1
Time GPU Kernel Cuda1 Events: 160 Tracks: 51627 Hits: 321407 = 5.508160e-04 s
Time CPU Kernel Cuda1 Events: 160 Tracks: 51627 Hits: 321407 = 5.600452e-04 s
Time CPU total Cuda1 Events: 160 Tracks: 51627 Hits: 321407 = 6.957321e-01 s

Test for Good
To import-> Hits: 321407, Tracks: 51627 Events: 160
Filter with Good method
Time CPU total Good Events: 160 Tracks: 51627 Hits: 321407 = 8.491993e-03 s

Test for OpenCL
To import-> Hits: 321407, Tracks: 51627 Events: 160
Filter with OpenCL 2
Time GPU Kernel OpenCl2 Events: 160 Tracks: 51627 Hits: 321407 = 0.000579136 s
Time CPU Kernel OpenCl2 Events: 160 Tracks: 51627 Hits: 321407 = 0.000730991 s
Time CPU total OpenCl2 Events: 160 Tracks: 51627 Hits: 321407 = 7.350271e-01 s

Test for OpenCL
To import-> Hits: 321407, Tracks: 51627 Events: 160
Filter with OpenCL 1
Time GPU Kernel OpenCl1 Events: 160 Tracks: 51627 Hits: 321407 = 0.000455264 s
Time CPU Kernel OpenCl1 Events: 160 Tracks: 51627 Hits: 321407 = 0.000608206 s
Time CPU total OpenCl1 Events: 160 Tracks: 51627 Hits: 321407 = 7.334070e-01 s

-----------------------------
Test for Bad
To import-> Hits: 339287, Tracks: 54445 Events: 170
Filter with Bad method
Time CPU total Bad Events: 170 Tracks: 54445 Hits: 339287 = 1.703191e-02 s

Test for Good
To import-> Hits: 339287, Tracks: 54445 Events: 170
Filter with Cuda 2
Time GPU Kernel Cuda2 Events: 170 Tracks: 54445 Hits: 339287 = 4.327680e-04 s
Time CPU Kernel Cuda2 Events: 170 Tracks: 54445 Hits: 339287 = 4.429817e-04 s
Time CPU total Cuda2 Events: 170 Tracks: 54445 Hits: 339287 = 6.998720e-01 s

Test for Good
To import-> Hits: 339287, Tracks: 54445 Events: 170
Filter with Cuda 1
Time GPU Kernel Cuda1 Events: 170 Tracks: 54445 Hits: 339287 = 5.705600e-04 s
Time CPU Kernel Cuda1 Events: 170 Tracks: 54445 Hits: 339287 = 5.800724e-04 s
Time CPU total Cuda1 Events: 170 Tracks: 54445 Hits: 339287 = 6.959982e-01 s

Test for Good
To import-> Hits: 339287, Tracks: 54445 Events: 170
Filter with Good method
Time CPU total Good Events: 170 Tracks: 54445 Hits: 339287 = 8.745909e-03 s

Test for OpenCL
To import-> Hits: 339287, Tracks: 54445 Events: 170
Filter with OpenCL 2
Time GPU Kernel OpenCl2 Events: 170 Tracks: 54445 Hits: 339287 = 0.000618176 s
Time CPU Kernel OpenCl2 Events: 170 Tracks: 54445 Hits: 339287 = 0.000767946 s
Time CPU total OpenCl2 Events: 170 Tracks: 54445 Hits: 339287 = 7.363031e-01 s

Test for OpenCL
To import-> Hits: 339287, Tracks: 54445 Events: 170
Filter with OpenCL 1
Time GPU Kernel OpenCl1 Events: 170 Tracks: 54445 Hits: 339287 = 0.000476768 s
Time CPU Kernel OpenCl1 Events: 170 Tracks: 54445 Hits: 339287 = 0.000629187 s
Time CPU total OpenCl1 Events: 170 Tracks: 54445 Hits: 339287 = 7.318590e-01 s

-----------------------------
Test for Bad
To import-> Hits: 357414, Tracks: 57335 Events: 180
Filter with Bad method
Time CPU total Bad Events: 180 Tracks: 57335 Hits: 357414 = 1.833797e-02 s

Test for Good
To import-> Hits: 357414, Tracks: 57335 Events: 180
Filter with Cuda 2
Time GPU Kernel Cuda2 Events: 180 Tracks: 57335 Hits: 357414 = 4.575360e-04 s
Time CPU Kernel Cuda2 Events: 180 Tracks: 57335 Hits: 357414 = 4.677773e-04 s
Time CPU total Cuda2 Events: 180 Tracks: 57335 Hits: 357414 = 6.988211e-01 s

Test for Good
To import-> Hits: 357414, Tracks: 57335 Events: 180
Filter with Cuda 1
Time GPU Kernel Cuda1 Events: 180 Tracks: 57335 Hits: 357414 = 6.091520e-04 s
Time CPU Kernel Cuda1 Events: 180 Tracks: 57335 Hits: 357414 = 6.210804e-04 s
Time CPU total Cuda1 Events: 180 Tracks: 57335 Hits: 357414 = 6.953919e-01 s

Test for Good
To import-> Hits: 357414, Tracks: 57335 Events: 180
Filter with Good method
Time CPU total Good Events: 180 Tracks: 57335 Hits: 357414 = 9.351969e-03 s

Test for OpenCL
To import-> Hits: 357414, Tracks: 57335 Events: 180
Filter with OpenCL 2
Time GPU Kernel OpenCl2 Events: 180 Tracks: 57335 Hits: 357414 = 0.000634848 s
Time CPU Kernel OpenCl2 Events: 180 Tracks: 57335 Hits: 357414 = 0.000789881 s
Time CPU total OpenCl2 Events: 180 Tracks: 57335 Hits: 357414 = 7.381430e-01 s

Test for OpenCL
To import-> Hits: 357414, Tracks: 57335 Events: 180
Filter with OpenCL 1
Time GPU Kernel OpenCl1 Events: 180 Tracks: 57335 Hits: 357414 = 0.000499328 s
Time CPU Kernel OpenCl1 Events: 180 Tracks: 57335 Hits: 357414 = 0.000648022 s
Time CPU total OpenCl1 Events: 180 Tracks: 57335 Hits: 357414 = 7.359748e-01 s

-----------------------------
Test for Bad
To import-> Hits: 377316, Tracks: 60572 Events: 190
Filter with Bad method
Time CPU total Bad Events: 190 Tracks: 60572 Hits: 377316 = 1.999998e-02 s

Test for Good
To import-> Hits: 377316, Tracks: 60572 Events: 190
Filter with Cuda 2
Time GPU Kernel Cuda2 Events: 190 Tracks: 60572 Hits: 377316 = 4.769280e-04 s
Time CPU Kernel Cuda2 Events: 190 Tracks: 60572 Hits: 377316 = 4.889965e-04 s
Time CPU total Cuda2 Events: 190 Tracks: 60572 Hits: 377316 = 6.961882e-01 s

Test for Good
To import-> Hits: 377316, Tracks: 60572 Events: 190
Filter with Cuda 1
Time GPU Kernel Cuda1 Events: 190 Tracks: 60572 Hits: 377316 = 6.288320e-04 s
Time CPU Kernel Cuda1 Events: 190 Tracks: 60572 Hits: 377316 = 6.420612e-04 s
Time CPU total Cuda1 Events: 190 Tracks: 60572 Hits: 377316 = 6.986821e-01 s

Test for Good
To import-> Hits: 377316, Tracks: 60572 Events: 190
Filter with Good method
Time CPU total Good Events: 190 Tracks: 60572 Hits: 377316 = 9.562016e-03 s

Test for OpenCL
To import-> Hits: 377316, Tracks: 60572 Events: 190
Filter with OpenCL 2
Time GPU Kernel OpenCl2 Events: 190 Tracks: 60572 Hits: 377316 = 0.000687744 s
Time CPU Kernel OpenCl2 Events: 190 Tracks: 60572 Hits: 377316 = 0.000843048 s
Time CPU total OpenCl2 Events: 190 Tracks: 60572 Hits: 377316 = 7.341950e-01 s

Test for OpenCL
To import-> Hits: 377316, Tracks: 60572 Events: 190
Filter with OpenCL 1
Time GPU Kernel OpenCl1 Events: 190 Tracks: 60572 Hits: 377316 = 0.000522016 s
Time CPU Kernel OpenCl1 Events: 190 Tracks: 60572 Hits: 377316 = 0.000674963 s
Time CPU total OpenCl1 Events: 190 Tracks: 60572 Hits: 377316 = 7.382109e-01 s

-----------------------------
Test for Bad
To import-> Hits: 398354, Tracks: 63921 Events: 200
Filter with Bad method
Time CPU total Bad Events: 200 Tracks: 63921 Hits: 398354 = 2.129698e-02 s

Test for Good
To import-> Hits: 398354, Tracks: 63921 Events: 200
Filter with Cuda 2
Time GPU Kernel Cuda2 Events: 200 Tracks: 63921 Hits: 398354 = 5.038720e-04 s
Time CPU Kernel Cuda2 Events: 200 Tracks: 63921 Hits: 398354 = 5.178452e-04 s
Time CPU total Cuda2 Events: 200 Tracks: 63921 Hits: 398354 = 7.024250e-01 s

Test for Good
To import-> Hits: 398354, Tracks: 63921 Events: 200
Filter with Cuda 1
Time GPU Kernel Cuda1 Events: 200 Tracks: 63921 Hits: 398354 = 6.632000e-04 s
Time CPU Kernel Cuda1 Events: 200 Tracks: 63921 Hits: 398354 = 6.749630e-04 s
Time CPU total Cuda1 Events: 200 Tracks: 63921 Hits: 398354 = 7.018230e-01 s

Test for Good
To import-> Hits: 398354, Tracks: 63921 Events: 200
Filter with Good method
Time CPU total Good Events: 200 Tracks: 63921 Hits: 398354 = 1.022196e-02 s

Test for OpenCL
To import-> Hits: 398354, Tracks: 63921 Events: 200
Filter with OpenCL 2
Time GPU Kernel OpenCl2 Events: 200 Tracks: 63921 Hits: 398354 = 0.000700896 s
Time CPU Kernel OpenCl2 Events: 200 Tracks: 63921 Hits: 398354 = 0.000849962 s
Time CPU total OpenCl2 Events: 200 Tracks: 63921 Hits: 398354 = 7.371240e-01 s

Test for OpenCL
To import-> Hits: 398354, Tracks: 63921 Events: 200
Filter with OpenCL 1
Time GPU Kernel OpenCl1 Events: 200 Tracks: 63921 Hits: 398354 = 0.000555168 s
Time CPU Kernel OpenCl1 Events: 200 Tracks: 63921 Hits: 398354 = 0.000706911 s
Time CPU total OpenCl1 Events: 200 Tracks: 63921 Hits: 398354 = 7.438500e-01 s

-----------------------------
Test for Bad
To import-> Hits: 416406, Tracks: 66802 Events: 210
Filter with Bad method
Time CPU total Bad Events: 210 Tracks: 66802 Hits: 416406 = 2.260494e-02 s

Test for Good
To import-> Hits: 416406, Tracks: 66802 Events: 210
Filter with Cuda 2
Time GPU Kernel Cuda2 Events: 210 Tracks: 66802 Hits: 416406 = 5.300480e-04 s
Time CPU Kernel Cuda2 Events: 210 Tracks: 66802 Hits: 416406 = 5.440712e-04 s
Time CPU total Cuda2 Events: 210 Tracks: 66802 Hits: 416406 = 7.112520e-01 s

Test for Good
To import-> Hits: 416406, Tracks: 66802 Events: 210
Filter with Cuda 1
Time GPU Kernel Cuda1 Events: 210 Tracks: 66802 Hits: 416406 = 7.009600e-04 s
Time CPU Kernel Cuda1 Events: 210 Tracks: 66802 Hits: 416406 = 7.109642e-04 s
Time CPU total Cuda1 Events: 210 Tracks: 66802 Hits: 416406 = 7.026122e-01 s

Test for Good
To import-> Hits: 416406, Tracks: 66802 Events: 210
Filter with Good method
Time CPU total Good Events: 210 Tracks: 66802 Hits: 416406 = 1.047921e-02 s

Test for OpenCL
To import-> Hits: 416406, Tracks: 66802 Events: 210
Filter with OpenCL 2
Time GPU Kernel OpenCl2 Events: 210 Tracks: 66802 Hits: 416406 = 0.000760768 s
Time CPU Kernel OpenCl2 Events: 210 Tracks: 66802 Hits: 416406 = 0.000910997 s
Time CPU total OpenCl2 Events: 210 Tracks: 66802 Hits: 416406 = 7.498062e-01 s

Test for OpenCL
To import-> Hits: 416406, Tracks: 66802 Events: 210
Filter with OpenCL 1
Time GPU Kernel OpenCl1 Events: 210 Tracks: 66802 Hits: 416406 = 0.000578208 s
Time CPU Kernel OpenCl1 Events: 210 Tracks: 66802 Hits: 416406 = 0.000733137 s
Time CPU total OpenCl1 Events: 210 Tracks: 66802 Hits: 416406 = 7.306790e-01 s

-----------------------------
Test for Bad
To import-> Hits: 435132, Tracks: 69786 Events: 220
Filter with Bad method
Time CPU total Bad Events: 220 Tracks: 69786 Hits: 435132 = 2.398920e-02 s

Test for Good
To import-> Hits: 435132, Tracks: 69786 Events: 220
Filter with Cuda 2
Time GPU Kernel Cuda2 Events: 220 Tracks: 69786 Hits: 435132 = 5.450880e-04 s
Time CPU Kernel Cuda2 Events: 220 Tracks: 69786 Hits: 435132 = 5.600452e-04 s
Time CPU total Cuda2 Events: 220 Tracks: 69786 Hits: 435132 = 7.060850e-01 s

Test for Good
To import-> Hits: 435132, Tracks: 69786 Events: 220
Filter with Cuda 1
Time GPU Kernel Cuda1 Events: 220 Tracks: 69786 Hits: 435132 = 7.213760e-04 s
Time CPU Kernel Cuda1 Events: 220 Tracks: 69786 Hits: 435132 = 7.369518e-04 s
Time CPU total Cuda1 Events: 220 Tracks: 69786 Hits: 435132 = 7.074449e-01 s

Test for Good
To import-> Hits: 435132, Tracks: 69786 Events: 220
Filter with Good method
Time CPU total Good Events: 220 Tracks: 69786 Hits: 435132 = 1.115513e-02 s

Test for OpenCL
To import-> Hits: 435132, Tracks: 69786 Events: 220
Filter with OpenCL 2
Time GPU Kernel OpenCl2 Events: 220 Tracks: 69786 Hits: 435132 = 0.000791552 s
Time CPU Kernel OpenCl2 Events: 220 Tracks: 69786 Hits: 435132 = 0.000944138 s
Time CPU total OpenCl2 Events: 220 Tracks: 69786 Hits: 435132 = 7.420151e-01 s

Test for OpenCL
To import-> Hits: 435132, Tracks: 69786 Events: 220
Filter with OpenCL 1
Time GPU Kernel OpenCl1 Events: 220 Tracks: 69786 Hits: 435132 = 0.000601504 s
Time CPU Kernel OpenCl1 Events: 220 Tracks: 69786 Hits: 435132 = 0.000759125 s
Time CPU total OpenCl1 Events: 220 Tracks: 69786 Hits: 435132 = 6.963739e-01 s

-----------------------------
Test for Bad
To import-> Hits: 452586, Tracks: 72547 Events: 230
Filter with Bad method
Time CPU total Bad Events: 230 Tracks: 72547 Hits: 452586 = 2.522802e-02 s

Test for Good
To import-> Hits: 452586, Tracks: 72547 Events: 230
Filter with Cuda 2
Time GPU Kernel Cuda2 Events: 230 Tracks: 72547 Hits: 452586 = 5.696320e-04 s
Time CPU Kernel Cuda2 Events: 230 Tracks: 72547 Hits: 452586 = 5.850792e-04 s
Time CPU total Cuda2 Events: 230 Tracks: 72547 Hits: 452586 = 6.970961e-01 s

Test for Good
To import-> Hits: 452586, Tracks: 72547 Events: 230
Filter with Cuda 1
Time GPU Kernel Cuda1 Events: 230 Tracks: 72547 Hits: 452586 = 7.528320e-04 s
Time CPU Kernel Cuda1 Events: 230 Tracks: 72547 Hits: 452586 = 7.688999e-04 s
Time CPU total Cuda1 Events: 230 Tracks: 72547 Hits: 452586 = 6.999788e-01 s

Test for Good
To import-> Hits: 452586, Tracks: 72547 Events: 230
Filter with Good method
Time CPU total Good Events: 230 Tracks: 72547 Hits: 452586 = 1.156688e-02 s

Test for OpenCL
To import-> Hits: 452586, Tracks: 72547 Events: 230
Filter with OpenCL 2
Time GPU Kernel OpenCl2 Events: 230 Tracks: 72547 Hits: 452586 = 0.00079184 s
Time CPU Kernel OpenCl2 Events: 230 Tracks: 72547 Hits: 452586 = 0.000942945 s
Time CPU total OpenCl2 Events: 230 Tracks: 72547 Hits: 452586 = 7.442880e-01 s

Test for OpenCL
To import-> Hits: 452586, Tracks: 72547 Events: 230
Filter with OpenCL 1
Time GPU Kernel OpenCl1 Events: 230 Tracks: 72547 Hits: 452586 = 0.00062704 s
Time CPU Kernel OpenCl1 Events: 230 Tracks: 72547 Hits: 452586 = 0.000780821 s
Time CPU total OpenCl1 Events: 230 Tracks: 72547 Hits: 452586 = 7.396300e-01 s

-----------------------------
Test for Bad
To import-> Hits: 474872, Tracks: 76144 Events: 240
Filter with Bad method
Time CPU total Bad Events: 240 Tracks: 76144 Hits: 474872 = 2.702379e-02 s

Test for Good
To import-> Hits: 474872, Tracks: 76144 Events: 240
Filter with Cuda 2
Time GPU Kernel Cuda2 Events: 240 Tracks: 76144 Hits: 474872 = 5.844800e-04 s
Time CPU Kernel Cuda2 Events: 240 Tracks: 76144 Hits: 474872 = 6.020069e-04 s
Time CPU total Cuda2 Events: 240 Tracks: 76144 Hits: 474872 = 7.065890e-01 s

Test for Good
To import-> Hits: 474872, Tracks: 76144 Events: 240
Filter with Cuda 1
Time GPU Kernel Cuda1 Events: 240 Tracks: 76144 Hits: 474872 = 7.743040e-04 s
Time CPU Kernel Cuda1 Events: 240 Tracks: 76144 Hits: 474872 = 7.929802e-04 s
Time CPU total Cuda1 Events: 240 Tracks: 76144 Hits: 474872 = 6.989939e-01 s

Test for Good
To import-> Hits: 474872, Tracks: 76144 Events: 240
Filter with Good method
Time CPU total Good Events: 240 Tracks: 76144 Hits: 474872 = 1.207399e-02 s

Test for OpenCL
To import-> Hits: 474872, Tracks: 76144 Events: 240
Filter with OpenCL 2
Time GPU Kernel OpenCl2 Events: 240 Tracks: 76144 Hits: 474872 = 0.00083952 s
Time CPU Kernel OpenCl2 Events: 240 Tracks: 76144 Hits: 474872 = 0.000997066 s
Time CPU total OpenCl2 Events: 240 Tracks: 76144 Hits: 474872 = 7.401581e-01 s

Test for OpenCL
To import-> Hits: 474872, Tracks: 76144 Events: 240
Filter with OpenCL 1
Time GPU Kernel OpenCl1 Events: 240 Tracks: 76144 Hits: 474872 = 0.000650272 s
Time CPU Kernel OpenCl1 Events: 240 Tracks: 76144 Hits: 474872 = 0.000802994 s
Time CPU total OpenCl1 Events: 240 Tracks: 76144 Hits: 474872 = 7.443230e-01 s

-----------------------------
Test for Bad
To import-> Hits: 493810, Tracks: 79172 Events: 250
Filter with Bad method
Time CPU total Bad Events: 250 Tracks: 79172 Hits: 493810 = 2.838778e-02 s

Test for Good
To import-> Hits: 493810, Tracks: 79172 Events: 250
Filter with Cuda 2
Time GPU Kernel Cuda2 Events: 250 Tracks: 79172 Hits: 493810 = 6.046721e-04 s
Time CPU Kernel Cuda2 Events: 250 Tracks: 79172 Hits: 493810 = 6.239414e-04 s
Time CPU total Cuda2 Events: 250 Tracks: 79172 Hits: 493810 = 7.007282e-01 s

Test for Good
To import-> Hits: 493810, Tracks: 79172 Events: 250
Filter with Cuda 1
Time GPU Kernel Cuda1 Events: 250 Tracks: 79172 Hits: 493810 = 8.022080e-04 s
Time CPU Kernel Cuda1 Events: 250 Tracks: 79172 Hits: 493810 = 8.199215e-04 s
Time CPU total Cuda1 Events: 250 Tracks: 79172 Hits: 493810 = 7.013049e-01 s

Test for Good
To import-> Hits: 493810, Tracks: 79172 Events: 250
Filter with Good method
Time CPU total Good Events: 250 Tracks: 79172 Hits: 493810 = 1.251483e-02 s

Test for OpenCL
To import-> Hits: 493810, Tracks: 79172 Events: 250
Filter with OpenCL 2
Time GPU Kernel OpenCl2 Events: 250 Tracks: 79172 Hits: 493810 = 0.000863872 s
Time CPU Kernel OpenCl2 Events: 250 Tracks: 79172 Hits: 493810 = 0.00101995 s
Time CPU total OpenCl2 Events: 250 Tracks: 79172 Hits: 493810 = 7.442169e-01 s

Test for OpenCL
To import-> Hits: 493810, Tracks: 79172 Events: 250
Filter with OpenCL 1
Time GPU Kernel OpenCl1 Events: 250 Tracks: 79172 Hits: 493810 = 0.000669664 s
Time CPU Kernel OpenCl1 Events: 250 Tracks: 79172 Hits: 493810 = 0.000820875 s
Time CPU total OpenCl1 Events: 250 Tracks: 79172 Hits: 493810 = 7.357929e-01 s

-----------------------------
Test for Bad
To import-> Hits: 514314, Tracks: 82444 Events: 260
Filter with Bad method
Time CPU total Bad Events: 260 Tracks: 82444 Hits: 514314 = 2.460504e-02 s

Test for Good
To import-> Hits: 514314, Tracks: 82444 Events: 260
Filter with Cuda 2
Time GPU Kernel Cuda2 Events: 260 Tracks: 82444 Hits: 514314 = 6.235201e-04 s
Time CPU Kernel Cuda2 Events: 260 Tracks: 82444 Hits: 514314 = 6.401539e-04 s
Time CPU total Cuda2 Events: 260 Tracks: 82444 Hits: 514314 = 7.005529e-01 s

Test for Good
To import-> Hits: 514314, Tracks: 82444 Events: 260
Filter with Cuda 1
Time GPU Kernel Cuda1 Events: 260 Tracks: 82444 Hits: 514314 = 8.314560e-04 s
Time CPU Kernel Cuda1 Events: 260 Tracks: 82444 Hits: 514314 = 8.509159e-04 s
Time CPU total Cuda1 Events: 260 Tracks: 82444 Hits: 514314 = 6.749349e-01 s

Test for Good
To import-> Hits: 514314, Tracks: 82444 Events: 260
Filter with Good method
Time CPU total Good Events: 260 Tracks: 82444 Hits: 514314 = 1.372600e-02 s

Test for OpenCL
To import-> Hits: 514314, Tracks: 82444 Events: 260
Filter with OpenCL 2
Time GPU Kernel OpenCl2 Events: 260 Tracks: 82444 Hits: 514314 = 0.000936192 s
Time CPU Kernel OpenCl2 Events: 260 Tracks: 82444 Hits: 514314 = 0.0010879 s
Time CPU total OpenCl2 Events: 260 Tracks: 82444 Hits: 514314 = 7.312360e-01 s

Test for OpenCL
To import-> Hits: 514314, Tracks: 82444 Events: 260
Filter with OpenCL 1
Time GPU Kernel OpenCl1 Events: 260 Tracks: 82444 Hits: 514314 = 0.000701856 s
Time CPU Kernel OpenCl1 Events: 260 Tracks: 82444 Hits: 514314 = 0.000859022 s
Time CPU total OpenCl1 Events: 260 Tracks: 82444 Hits: 514314 = 7.365210e-01 s

-----------------------------
Test for Bad
To import-> Hits: 534537, Tracks: 85661 Events: 270
Filter with Bad method
Time CPU total Bad Events: 270 Tracks: 85661 Hits: 534537 = 2.524090e-02 s

Test for Good
To import-> Hits: 534537, Tracks: 85661 Events: 270
Filter with Cuda 2
Time GPU Kernel Cuda2 Events: 270 Tracks: 85661 Hits: 534537 = 6.471680e-04 s
Time CPU Kernel Cuda2 Events: 270 Tracks: 85661 Hits: 534537 = 6.670952e-04 s
Time CPU total Cuda2 Events: 270 Tracks: 85661 Hits: 534537 = 7.037749e-01 s

Test for Good
To import-> Hits: 534537, Tracks: 85661 Events: 270
Filter with Cuda 1
Time GPU Kernel Cuda1 Events: 270 Tracks: 85661 Hits: 534537 = 8.623040e-04 s
Time CPU Kernel Cuda1 Events: 270 Tracks: 85661 Hits: 534537 = 8.819103e-04 s
Time CPU total Cuda1 Events: 270 Tracks: 85661 Hits: 534537 = 6.980109e-01 s

Test for Good
To import-> Hits: 534537, Tracks: 85661 Events: 270
Filter with Good method
Time CPU total Good Events: 270 Tracks: 85661 Hits: 534537 = 1.416492e-02 s

Test for OpenCL
To import-> Hits: 534537, Tracks: 85661 Events: 270
Filter with OpenCL 2
Time GPU Kernel OpenCl2 Events: 270 Tracks: 85661 Hits: 534537 = 0.000988 s
Time CPU Kernel OpenCl2 Events: 270 Tracks: 85661 Hits: 534537 = 0.00113916 s
Time CPU total OpenCl2 Events: 270 Tracks: 85661 Hits: 534537 = 7.400420e-01 s

Test for OpenCL
To import-> Hits: 534537, Tracks: 85661 Events: 270
Filter with OpenCL 1
Time GPU Kernel OpenCl1 Events: 270 Tracks: 85661 Hits: 534537 = 0.00072624 s
Time CPU Kernel OpenCl1 Events: 270 Tracks: 85661 Hits: 534537 = 0.00088191 s
Time CPU total OpenCl1 Events: 270 Tracks: 85661 Hits: 534537 = 7.444999e-01 s

-----------------------------
Test for Bad
To import-> Hits: 557160, Tracks: 89234 Events: 280
Filter with Bad method
Time CPU total Bad Events: 280 Tracks: 89234 Hits: 557160 = 2.658892e-02 s

Test for Good
To import-> Hits: 557160, Tracks: 89234 Events: 280
Filter with Cuda 2
Time GPU Kernel Cuda2 Events: 280 Tracks: 89234 Hits: 557160 = 6.771520e-04 s
Time CPU Kernel Cuda2 Events: 280 Tracks: 89234 Hits: 557160 = 6.990433e-04 s
Time CPU total Cuda2 Events: 280 Tracks: 89234 Hits: 557160 = 7.027349e-01 s

Test for Good
To import-> Hits: 557160, Tracks: 89234 Events: 280
Filter with Cuda 1
Time GPU Kernel Cuda1 Events: 280 Tracks: 89234 Hits: 557160 = 8.984641e-04 s
Time CPU Kernel Cuda1 Events: 280 Tracks: 89234 Hits: 557160 = 9.200573e-04 s
Time CPU total Cuda1 Events: 280 Tracks: 89234 Hits: 557160 = 7.022462e-01 s

Test for Good
To import-> Hits: 557160, Tracks: 89234 Events: 280
Filter with Good method
Time CPU total Good Events: 280 Tracks: 89234 Hits: 557160 = 1.425219e-02 s

Test for OpenCL
To import-> Hits: 557160, Tracks: 89234 Events: 280
Filter with OpenCL 2
Time GPU Kernel OpenCl2 Events: 280 Tracks: 89234 Hits: 557160 = 0.000982336 s
Time CPU Kernel OpenCl2 Events: 280 Tracks: 89234 Hits: 557160 = 0.00113511 s
Time CPU total OpenCl2 Events: 280 Tracks: 89234 Hits: 557160 = 7.401209e-01 s

Test for OpenCL
To import-> Hits: 557160, Tracks: 89234 Events: 280
Filter with OpenCL 1
Time GPU Kernel OpenCl1 Events: 280 Tracks: 89234 Hits: 557160 = 0.00075008 s
Time CPU Kernel OpenCl1 Events: 280 Tracks: 89234 Hits: 557160 = 0.000905991 s
Time CPU total OpenCl1 Events: 280 Tracks: 89234 Hits: 557160 = 7.480619e-01 s

-----------------------------
Test for Bad
To import-> Hits: 576611, Tracks: 92347 Events: 290
Filter with Bad method
Time CPU total Bad Events: 290 Tracks: 92347 Hits: 576611 = 2.764893e-02 s

Test for Good
To import-> Hits: 576611, Tracks: 92347 Events: 290
Filter with Cuda 2
Time GPU Kernel Cuda2 Events: 290 Tracks: 92347 Hits: 576611 = 6.928640e-04 s
Time CPU Kernel Cuda2 Events: 290 Tracks: 92347 Hits: 576611 = 7.150173e-04 s
Time CPU total Cuda2 Events: 290 Tracks: 92347 Hits: 576611 = 7.046502e-01 s

Test for Good
To import-> Hits: 576611, Tracks: 92347 Events: 290
Filter with Cuda 1
Time GPU Kernel Cuda1 Events: 290 Tracks: 92347 Hits: 576611 = 9.241280e-04 s
Time CPU Kernel Cuda1 Events: 290 Tracks: 92347 Hits: 576611 = 9.469986e-04 s
Time CPU total Cuda1 Events: 290 Tracks: 92347 Hits: 576611 = 7.029119e-01 s

Test for Good
To import-> Hits: 576611, Tracks: 92347 Events: 290
Filter with Good method
Time CPU total Good Events: 290 Tracks: 92347 Hits: 576611 = 1.482701e-02 s

Test for OpenCL
To import-> Hits: 576611, Tracks: 92347 Events: 290
Filter with OpenCL 2
Time GPU Kernel OpenCl2 Events: 290 Tracks: 92347 Hits: 576611 = 0.000996928 s
Time CPU Kernel OpenCl2 Events: 290 Tracks: 92347 Hits: 576611 = 0.00115395 s
Time CPU total OpenCl2 Events: 290 Tracks: 92347 Hits: 576611 = 7.438431e-01 s

Test for OpenCL
To import-> Hits: 576611, Tracks: 92347 Events: 290
Filter with OpenCL 1
Time GPU Kernel OpenCl1 Events: 290 Tracks: 92347 Hits: 576611 = 0.000770752 s
Time CPU Kernel OpenCl1 Events: 290 Tracks: 92347 Hits: 576611 = 0.000936985 s
Time CPU total OpenCl1 Events: 290 Tracks: 92347 Hits: 576611 = 7.404270e-01 s

-----------------------------
Test for Bad
To import-> Hits: 598963, Tracks: 95876 Events: 300
Filter with Bad method
Time CPU total Bad Events: 300 Tracks: 95876 Hits: 598963 = 2.861285e-02 s

Test for Good
To import-> Hits: 598963, Tracks: 95876 Events: 300
Filter with Cuda 2
Time GPU Kernel Cuda2 Events: 300 Tracks: 95876 Hits: 598963 = 7.224320e-04 s
Time CPU Kernel Cuda2 Events: 300 Tracks: 95876 Hits: 598963 = 7.472038e-04 s
Time CPU total Cuda2 Events: 300 Tracks: 95876 Hits: 598963 = 7.096760e-01 s

Test for Good
To import-> Hits: 598963, Tracks: 95876 Events: 300
Filter with Cuda 1
Time GPU Kernel Cuda1 Events: 300 Tracks: 95876 Hits: 598963 = 9.643200e-04 s
Time CPU Kernel Cuda1 Events: 300 Tracks: 95876 Hits: 598963 = 9.880066e-04 s
Time CPU total Cuda1 Events: 300 Tracks: 95876 Hits: 598963 = 7.011020e-01 s

Test for Good
To import-> Hits: 598963, Tracks: 95876 Events: 300
Filter with Good method
Time CPU total Good Events: 300 Tracks: 95876 Hits: 598963 = 1.542783e-02 s

Test for OpenCL
To import-> Hits: 598963, Tracks: 95876 Events: 300
Filter with OpenCL 2
Time GPU Kernel OpenCl2 Events: 300 Tracks: 95876 Hits: 598963 = 0.00106019 s
Time CPU Kernel OpenCl2 Events: 300 Tracks: 95876 Hits: 598963 = 0.00121498 s
Time CPU total OpenCl2 Events: 300 Tracks: 95876 Hits: 598963 = 7.357759e-01 s

Test for OpenCL
To import-> Hits: 598963, Tracks: 95876 Events: 300
Filter with OpenCL 1
Time GPU Kernel OpenCl1 Events: 300 Tracks: 95876 Hits: 598963 = 0.000802144 s
Time CPU Kernel OpenCl1 Events: 300 Tracks: 95876 Hits: 598963 = 0.000955105 s
Time CPU total OpenCl1 Events: 300 Tracks: 95876 Hits: 598963 = 7.429090e-01 s

-----------------------------
