Test for Bad
To import-> Hits: 2093, Tracks: 358 Events: 1
Filter with Bad method
Time CPU total Bad Events: 1 Tracks: 358 Hits: 2093 = 3.221035e-04 s

Test for Good
To import-> Hits: 2093, Tracks: 358 Events: 1
Filter with Good method
Time CPU total Good Events: 1 Tracks: 358 Hits: 2093 = 1.249313e-04 s

Test for OpenCL
To import-> Hits: 2093, Tracks: 358 Events: 1
Filter with OpenCL 2
Time GPU Kernel OpenCl2 Events: 1 Tracks: 358 Hits: 2093 = 7.5407e-05 s
Time CPU Kernel OpenCl2 Events: 1 Tracks: 358 Hits: 2093 = 0.00264001 s
Time CPU total OpenCl2 Events: 1 Tracks: 358 Hits: 2093 = 1.130933e+00 s

Test for OpenCL
To import-> Hits: 2093, Tracks: 358 Events: 1
Filter with OpenCL 1
Time GPU Kernel OpenCl1 Events: 1 Tracks: 358 Hits: 2093 = 0.000111556 s
Time CPU Kernel OpenCl1 Events: 1 Tracks: 358 Hits: 2093 = 0.00117302 s
Time CPU total OpenCl1 Events: 1 Tracks: 358 Hits: 2093 = 5.468731e-01 s

-----------------------------
Test for Bad
To import-> Hits: 3158, Tracks: 532 Events: 2
Filter with Bad method
Time CPU total Bad Events: 2 Tracks: 532 Hits: 3158 = 4.928112e-04 s

Test for Good
To import-> Hits: 3158, Tracks: 532 Events: 2
Filter with Good method
Time CPU total Good Events: 2 Tracks: 532 Hits: 3158 = 7.915497e-05 s

Test for OpenCL
To import-> Hits: 3158, Tracks: 532 Events: 2
Filter with OpenCL 2
Time GPU Kernel OpenCl2 Events: 2 Tracks: 532 Hits: 3158 = 7.837e-05 s
Time CPU Kernel OpenCl2 Events: 2 Tracks: 532 Hits: 3158 = 0.00113606 s
Time CPU total OpenCl2 Events: 2 Tracks: 532 Hits: 3158 = 5.125530e-01 s

Test for OpenCL
To import-> Hits: 3158, Tracks: 532 Events: 2
Filter with OpenCL 1
Time GPU Kernel OpenCl1 Events: 2 Tracks: 532 Hits: 3158 = 0.000113481 s
Time CPU Kernel OpenCl1 Events: 2 Tracks: 532 Hits: 3158 = 0.00117397 s
Time CPU total OpenCl1 Events: 2 Tracks: 532 Hits: 3158 = 4.873271e-01 s

-----------------------------
Test for Bad
To import-> Hits: 4741, Tracks: 779 Events: 3
Filter with Bad method
Time CPU total Bad Events: 3 Tracks: 779 Hits: 4741 = 6.260872e-04 s

Test for Good
To import-> Hits: 4741, Tracks: 779 Events: 3
Filter with Good method
Time CPU total Good Events: 3 Tracks: 779 Hits: 4741 = 1.118183e-04 s

Test for OpenCL
To import-> Hits: 4741, Tracks: 779 Events: 3
Filter with OpenCL 2
Time GPU Kernel OpenCl2 Events: 3 Tracks: 779 Hits: 4741 = 7.5259e-05 s
Time CPU Kernel OpenCl2 Events: 3 Tracks: 779 Hits: 4741 = 0.00115895 s
Time CPU total OpenCl2 Events: 3 Tracks: 779 Hits: 4741 = 4.746211e-01 s

Test for OpenCL
To import-> Hits: 4741, Tracks: 779 Events: 3
Filter with OpenCL 1
Time GPU Kernel OpenCl1 Events: 3 Tracks: 779 Hits: 4741 = 0.000113629 s
Time CPU Kernel OpenCl1 Events: 3 Tracks: 779 Hits: 4741 = 0.00118899 s
Time CPU total OpenCl1 Events: 3 Tracks: 779 Hits: 4741 = 4.900491e-01 s

-----------------------------
Test for Bad
To import-> Hits: 8061, Tracks: 1300 Events: 4
Filter with Bad method
Time CPU total Bad Events: 4 Tracks: 1300 Hits: 8061 = 1.256227e-03 s

Test for Good
To import-> Hits: 8061, Tracks: 1300 Events: 4
Filter with Good method
Time CPU total Good Events: 4 Tracks: 1300 Hits: 8061 = 1.959801e-04 s

Test for OpenCL
To import-> Hits: 8061, Tracks: 1300 Events: 4
Filter with OpenCL 2
Time GPU Kernel OpenCl2 Events: 4 Tracks: 1300 Hits: 8061 = 7.7778e-05 s
Time CPU Kernel OpenCl2 Events: 4 Tracks: 1300 Hits: 8061 = 0.00109196 s
Time CPU total OpenCl2 Events: 4 Tracks: 1300 Hits: 8061 = 4.889982e-01 s

Test for OpenCL
To import-> Hits: 8061, Tracks: 1300 Events: 4
Filter with OpenCL 1
Time GPU Kernel OpenCl1 Events: 4 Tracks: 1300 Hits: 8061 = 0.000113778 s
Time CPU Kernel OpenCl1 Events: 4 Tracks: 1300 Hits: 8061 = 0.00114703 s
Time CPU total OpenCl1 Events: 4 Tracks: 1300 Hits: 8061 = 4.910982e-01 s

-----------------------------
Test for Bad
To import-> Hits: 11850, Tracks: 1914 Events: 5
Filter with Bad method
Time CPU total Bad Events: 5 Tracks: 1914 Hits: 11850 = 1.753092e-03 s

Test for Good
To import-> Hits: 11850, Tracks: 1914 Events: 5
Filter with Good method
Time CPU total Good Events: 5 Tracks: 1914 Hits: 11850 = 2.858639e-04 s

Test for OpenCL
To import-> Hits: 11850, Tracks: 1914 Events: 5
Filter with OpenCL 2
Time GPU Kernel OpenCl2 Events: 5 Tracks: 1914 Hits: 11850 = 7.7482e-05 s
Time CPU Kernel OpenCl2 Events: 5 Tracks: 1914 Hits: 11850 = 0.00118399 s
Time CPU total OpenCl2 Events: 5 Tracks: 1914 Hits: 11850 = 4.829910e-01 s

Test for OpenCL
To import-> Hits: 11850, Tracks: 1914 Events: 5
Filter with OpenCL 1
Time GPU Kernel OpenCl1 Events: 5 Tracks: 1914 Hits: 11850 = 0.000114518 s
Time CPU Kernel OpenCl1 Events: 5 Tracks: 1914 Hits: 11850 = 0.00116014 s
Time CPU total OpenCl1 Events: 5 Tracks: 1914 Hits: 11850 = 4.790759e-01 s

-----------------------------
Test for Bad
To import-> Hits: 12849, Tracks: 2089 Events: 6
Filter with Bad method
Time CPU total Bad Events: 6 Tracks: 2089 Hits: 12849 = 1.643896e-03 s

Test for Good
To import-> Hits: 12849, Tracks: 2089 Events: 6
Filter with Good method
Time CPU total Good Events: 6 Tracks: 2089 Hits: 12849 = 3.070831e-04 s

Test for OpenCL
To import-> Hits: 12849, Tracks: 2089 Events: 6
Filter with OpenCL 2
Time GPU Kernel OpenCl2 Events: 6 Tracks: 2089 Hits: 12849 = 7.7481e-05 s
Time CPU Kernel OpenCl2 Events: 6 Tracks: 2089 Hits: 12849 = 0.0011189 s
Time CPU total OpenCl2 Events: 6 Tracks: 2089 Hits: 12849 = 4.934242e-01 s

Test for OpenCL
To import-> Hits: 12849, Tracks: 2089 Events: 6
Filter with OpenCL 1
Time GPU Kernel OpenCl1 Events: 6 Tracks: 2089 Hits: 12849 = 0.000114518 s
Time CPU Kernel OpenCl1 Events: 6 Tracks: 2089 Hits: 12849 = 0.00118709 s
Time CPU total OpenCl1 Events: 6 Tracks: 2089 Hits: 12849 = 4.768341e-01 s

-----------------------------
Test for Bad
To import-> Hits: 14812, Tracks: 2418 Events: 7
Filter with Bad method
Time CPU total Bad Events: 7 Tracks: 2418 Hits: 14812 = 2.133846e-03 s

Test for Good
To import-> Hits: 14812, Tracks: 2418 Events: 7
Filter with Good method
Time CPU total Good Events: 7 Tracks: 2418 Hits: 14812 = 3.519058e-04 s

Test for OpenCL
To import-> Hits: 14812, Tracks: 2418 Events: 7
Filter with OpenCL 2
Time GPU Kernel OpenCl2 Events: 7 Tracks: 2418 Hits: 14812 = 7.7926e-05 s
Time CPU Kernel OpenCl2 Events: 7 Tracks: 2418 Hits: 14812 = 0.0202551 s
Time CPU total OpenCl2 Events: 7 Tracks: 2418 Hits: 14812 = 4.755681e-01 s

Test for OpenCL
To import-> Hits: 14812, Tracks: 2418 Events: 7
Filter with OpenCL 1
Time GPU Kernel OpenCl1 Events: 7 Tracks: 2418 Hits: 14812 = 0.000114815 s
Time CPU Kernel OpenCl1 Events: 7 Tracks: 2418 Hits: 14812 = 0.0189271 s
Time CPU total OpenCl1 Events: 7 Tracks: 2418 Hits: 14812 = 4.975839e-01 s

-----------------------------
Test for Bad
To import-> Hits: 15814, Tracks: 2586 Events: 8
Filter with Bad method
Time CPU total Bad Events: 8 Tracks: 2586 Hits: 15814 = 2.246857e-03 s

Test for Good
To import-> Hits: 15814, Tracks: 2586 Events: 8
Filter with Good method
Time CPU total Good Events: 8 Tracks: 2586 Hits: 15814 = 3.790855e-04 s

Test for OpenCL
To import-> Hits: 15814, Tracks: 2586 Events: 8
Filter with OpenCL 2
Time GPU Kernel OpenCl2 Events: 8 Tracks: 2586 Hits: 15814 = 7.8074e-05 s
Time CPU Kernel OpenCl2 Events: 8 Tracks: 2586 Hits: 15814 = 0.0188341 s
Time CPU total OpenCl2 Events: 8 Tracks: 2586 Hits: 15814 = 4.878149e-01 s

Test for OpenCL
To import-> Hits: 15814, Tracks: 2586 Events: 8
Filter with OpenCL 1
Time GPU Kernel OpenCl1 Events: 8 Tracks: 2586 Hits: 15814 = 0.000115111 s
Time CPU Kernel OpenCl1 Events: 8 Tracks: 2586 Hits: 15814 = 0.0182559 s
Time CPU total OpenCl1 Events: 8 Tracks: 2586 Hits: 15814 = 4.992292e-01 s

-----------------------------
Test for Bad
To import-> Hits: 16842, Tracks: 2764 Events: 9
Filter with Bad method
Time CPU total Bad Events: 9 Tracks: 2764 Hits: 16842 = 1.857042e-03 s

Test for Good
To import-> Hits: 16842, Tracks: 2764 Events: 9
Filter with Good method
Time CPU total Good Events: 9 Tracks: 2764 Hits: 16842 = 4.038811e-04 s

Test for OpenCL
To import-> Hits: 16842, Tracks: 2764 Events: 9
Filter with OpenCL 2
Time GPU Kernel OpenCl2 Events: 9 Tracks: 2764 Hits: 16842 = 7.7926e-05 s
Time CPU Kernel OpenCl2 Events: 9 Tracks: 2764 Hits: 16842 = 0.0141549 s
Time CPU total OpenCl2 Events: 9 Tracks: 2764 Hits: 16842 = 4.883969e-01 s

Test for OpenCL
To import-> Hits: 16842, Tracks: 2764 Events: 9
Filter with OpenCL 1
Time GPU Kernel OpenCl1 Events: 9 Tracks: 2764 Hits: 16842 = 0.000115259 s
Time CPU Kernel OpenCl1 Events: 9 Tracks: 2764 Hits: 16842 = 0.0180151 s
Time CPU total OpenCl1 Events: 9 Tracks: 2764 Hits: 16842 = 4.952641e-01 s

-----------------------------
Test for Bad
To import-> Hits: 18940, Tracks: 3094 Events: 10
Filter with Bad method
Time CPU total Bad Events: 10 Tracks: 3094 Hits: 18940 = 2.004862e-03 s

Test for Good
To import-> Hits: 18940, Tracks: 3094 Events: 10
Filter with Good method
Time CPU total Good Events: 10 Tracks: 3094 Hits: 18940 = 4.570484e-04 s

Test for OpenCL
To import-> Hits: 18940, Tracks: 3094 Events: 10
Filter with OpenCL 2
Time GPU Kernel OpenCl2 Events: 10 Tracks: 3094 Hits: 18940 = 7.837e-05 s
Time CPU Kernel OpenCl2 Events: 10 Tracks: 3094 Hits: 18940 = 0.0182528 s
Time CPU total OpenCl2 Events: 10 Tracks: 3094 Hits: 18940 = 5.091259e-01 s

Test for OpenCL
To import-> Hits: 18940, Tracks: 3094 Events: 10
Filter with OpenCL 1
Time GPU Kernel OpenCl1 Events: 10 Tracks: 3094 Hits: 18940 = 0.000115111 s
Time CPU Kernel OpenCl1 Events: 10 Tracks: 3094 Hits: 18940 = 0.018018 s
Time CPU total OpenCl1 Events: 10 Tracks: 3094 Hits: 18940 = 4.966090e-01 s

-----------------------------
Test for Bad
To import-> Hits: 22010, Tracks: 3613 Events: 11
Filter with Bad method
Time CPU total Bad Events: 11 Tracks: 3613 Hits: 22010 = 2.832174e-03 s

Test for Good
To import-> Hits: 22010, Tracks: 3613 Events: 11
Filter with Good method
Time CPU total Good Events: 11 Tracks: 3613 Hits: 22010 = 5.309582e-04 s

Test for OpenCL
To import-> Hits: 22010, Tracks: 3613 Events: 11
Filter with OpenCL 2
Time GPU Kernel OpenCl2 Events: 11 Tracks: 3613 Hits: 22010 = 7.8963e-05 s
Time CPU Kernel OpenCl2 Events: 11 Tracks: 3613 Hits: 22010 = 0.0174739 s
Time CPU total OpenCl2 Events: 11 Tracks: 3613 Hits: 22010 = 4.849570e-01 s

Test for OpenCL
To import-> Hits: 22010, Tracks: 3613 Events: 11
Filter with OpenCL 1
Time GPU Kernel OpenCl1 Events: 11 Tracks: 3613 Hits: 22010 = 0.000116444 s
Time CPU Kernel OpenCl1 Events: 11 Tracks: 3613 Hits: 22010 = 0.018172 s
Time CPU total OpenCl1 Events: 11 Tracks: 3613 Hits: 22010 = 4.842892e-01 s

-----------------------------
Test for Bad
To import-> Hits: 22930, Tracks: 3745 Events: 12
Filter with Bad method
Time CPU total Bad Events: 12 Tracks: 3745 Hits: 22930 = 3.076792e-03 s

Test for Good
To import-> Hits: 22930, Tracks: 3745 Events: 12
Filter with Good method
Time CPU total Good Events: 12 Tracks: 3745 Hits: 22930 = 5.521774e-04 s

Test for OpenCL
To import-> Hits: 22930, Tracks: 3745 Events: 12
Filter with OpenCL 2
Time GPU Kernel OpenCl2 Events: 12 Tracks: 3745 Hits: 22930 = 7.9408e-05 s
Time CPU Kernel OpenCl2 Events: 12 Tracks: 3745 Hits: 22930 = 0.0355189 s
Time CPU total OpenCl2 Events: 12 Tracks: 3745 Hits: 22930 = 5.158279e-01 s

Test for OpenCL
To import-> Hits: 22930, Tracks: 3745 Events: 12
Filter with OpenCL 1
Time GPU Kernel OpenCl1 Events: 12 Tracks: 3745 Hits: 22930 = 0.000116445 s
Time CPU Kernel OpenCl1 Events: 12 Tracks: 3745 Hits: 22930 = 0.0178308 s
Time CPU total OpenCl1 Events: 12 Tracks: 3745 Hits: 22930 = 4.952500e-01 s

-----------------------------
Test for Bad
To import-> Hits: 27034, Tracks: 4414 Events: 13
Filter with Bad method
Time CPU total Bad Events: 13 Tracks: 4414 Hits: 27034 = 3.447056e-03 s

Test for Good
To import-> Hits: 27034, Tracks: 4414 Events: 13
Filter with Good method
Time CPU total Good Events: 13 Tracks: 4414 Hits: 27034 = 6.330013e-04 s

Test for OpenCL
To import-> Hits: 27034, Tracks: 4414 Events: 13
Filter with OpenCL 2
Time GPU Kernel OpenCl2 Events: 13 Tracks: 4414 Hits: 27034 = 8.0444e-05 s
Time CPU Kernel OpenCl2 Events: 13 Tracks: 4414 Hits: 27034 = 0.00121093 s
Time CPU total OpenCl2 Events: 13 Tracks: 4414 Hits: 27034 = 4.885230e-01 s

Test for OpenCL
To import-> Hits: 27034, Tracks: 4414 Events: 13
Filter with OpenCL 1
Time GPU Kernel OpenCl1 Events: 13 Tracks: 4414 Hits: 27034 = 0.000140592 s
Time CPU Kernel OpenCl1 Events: 13 Tracks: 4414 Hits: 27034 = 0.00121212 s
Time CPU total OpenCl1 Events: 13 Tracks: 4414 Hits: 27034 = 4.716680e-01 s

-----------------------------
Test for Bad
To import-> Hits: 28064, Tracks: 4587 Events: 14
Filter with Bad method
Time CPU total Bad Events: 14 Tracks: 4587 Hits: 28064 = 3.871918e-03 s

Test for Good
To import-> Hits: 28064, Tracks: 4587 Events: 14
Filter with Good method
Time CPU total Good Events: 14 Tracks: 4587 Hits: 28064 = 6.799698e-04 s

Test for OpenCL
To import-> Hits: 28064, Tracks: 4587 Events: 14
Filter with OpenCL 2
Time GPU Kernel OpenCl2 Events: 14 Tracks: 4587 Hits: 28064 = 8.3407e-05 s
Time CPU Kernel OpenCl2 Events: 14 Tracks: 4587 Hits: 28064 = 0.00117087 s
Time CPU total OpenCl2 Events: 14 Tracks: 4587 Hits: 28064 = 4.554009e-01 s

Test for OpenCL
To import-> Hits: 28064, Tracks: 4587 Events: 14
Filter with OpenCL 1
Time GPU Kernel OpenCl1 Events: 14 Tracks: 4587 Hits: 28064 = 0.000140444 s
Time CPU Kernel OpenCl1 Events: 14 Tracks: 4587 Hits: 28064 = 0.00119495 s
Time CPU total OpenCl1 Events: 14 Tracks: 4587 Hits: 28064 = 4.771049e-01 s

-----------------------------
Test for Bad
To import-> Hits: 30895, Tracks: 5044 Events: 15
Filter with Bad method
Time CPU total Bad Events: 15 Tracks: 5044 Hits: 30895 = 4.235029e-03 s

Test for Good
To import-> Hits: 30895, Tracks: 5044 Events: 15
Filter with Good method
Time CPU total Good Events: 15 Tracks: 5044 Hits: 30895 = 7.488728e-04 s

Test for OpenCL
To import-> Hits: 30895, Tracks: 5044 Events: 15
Filter with OpenCL 2
Time GPU Kernel OpenCl2 Events: 15 Tracks: 5044 Hits: 30895 = 8.5333e-05 s
Time CPU Kernel OpenCl2 Events: 15 Tracks: 5044 Hits: 30895 = 0.001158 s
Time CPU total OpenCl2 Events: 15 Tracks: 5044 Hits: 30895 = 4.807930e-01 s

Test for OpenCL
To import-> Hits: 30895, Tracks: 5044 Events: 15
Filter with OpenCL 1
Time GPU Kernel OpenCl1 Events: 15 Tracks: 5044 Hits: 30895 = 0.000148148 s
Time CPU Kernel OpenCl1 Events: 15 Tracks: 5044 Hits: 30895 = 0.00120497 s
Time CPU total OpenCl1 Events: 15 Tracks: 5044 Hits: 30895 = 4.929910e-01 s

-----------------------------
Test for Bad
To import-> Hits: 31449, Tracks: 5141 Events: 16
Filter with Bad method
Time CPU total Bad Events: 16 Tracks: 5141 Hits: 31449 = 4.279137e-03 s

Test for Good
To import-> Hits: 31449, Tracks: 5141 Events: 16
Filter with Good method
Time CPU total Good Events: 16 Tracks: 5141 Hits: 31449 = 7.538795e-04 s

Test for OpenCL
To import-> Hits: 31449, Tracks: 5141 Events: 16
Filter with OpenCL 2
Time GPU Kernel OpenCl2 Events: 16 Tracks: 5141 Hits: 31449 = 8.5333e-05 s
Time CPU Kernel OpenCl2 Events: 16 Tracks: 5141 Hits: 31449 = 0.00115299 s
Time CPU total OpenCl2 Events: 16 Tracks: 5141 Hits: 31449 = 4.705880e-01 s

Test for OpenCL
To import-> Hits: 31449, Tracks: 5141 Events: 16
Filter with OpenCL 1
Time GPU Kernel OpenCl1 Events: 16 Tracks: 5141 Hits: 31449 = 0.000148593 s
Time CPU Kernel OpenCl1 Events: 16 Tracks: 5141 Hits: 31449 = 0.00120211 s
Time CPU total OpenCl1 Events: 16 Tracks: 5141 Hits: 31449 = 4.824681e-01 s

-----------------------------
Test for Bad
To import-> Hits: 32810, Tracks: 5353 Events: 17
Filter with Bad method
Time CPU total Bad Events: 17 Tracks: 5353 Hits: 32810 = 3.733873e-03 s

Test for Good
To import-> Hits: 32810, Tracks: 5353 Events: 17
Filter with Good method
Time CPU total Good Events: 17 Tracks: 5353 Hits: 32810 = 7.719994e-04 s

Test for OpenCL
To import-> Hits: 32810, Tracks: 5353 Events: 17
Filter with OpenCL 2
Time GPU Kernel OpenCl2 Events: 17 Tracks: 5353 Hits: 32810 = 9.8518e-05 s
Time CPU Kernel OpenCl2 Events: 17 Tracks: 5353 Hits: 32810 = 0.00118494 s
Time CPU total OpenCl2 Events: 17 Tracks: 5353 Hits: 32810 = 4.779470e-01 s

Test for OpenCL
To import-> Hits: 32810, Tracks: 5353 Events: 17
Filter with OpenCL 1
Time GPU Kernel OpenCl1 Events: 17 Tracks: 5353 Hits: 32810 = 0.000160889 s
Time CPU Kernel OpenCl1 Events: 17 Tracks: 5353 Hits: 32810 = 0.0012269 s
Time CPU total OpenCl1 Events: 17 Tracks: 5353 Hits: 32810 = 4.693639e-01 s

-----------------------------
Test for Bad
To import-> Hits: 35226, Tracks: 5750 Events: 18
Filter with Bad method
Time CPU total Bad Events: 18 Tracks: 5750 Hits: 35226 = 4.063845e-03 s

Test for Good
To import-> Hits: 35226, Tracks: 5750 Events: 18
Filter with Good method
Time CPU total Good Events: 18 Tracks: 5750 Hits: 35226 = 8.358955e-04 s

Test for OpenCL
To import-> Hits: 35226, Tracks: 5750 Events: 18
Filter with OpenCL 2
Time GPU Kernel OpenCl2 Events: 18 Tracks: 5750 Hits: 35226 = 8.6519e-05 s
Time CPU Kernel OpenCl2 Events: 18 Tracks: 5750 Hits: 35226 = 0.00114799 s
Time CPU total OpenCl2 Events: 18 Tracks: 5750 Hits: 35226 = 4.743741e-01 s

Test for OpenCL
To import-> Hits: 35226, Tracks: 5750 Events: 18
Filter with OpenCL 1
Time GPU Kernel OpenCl1 Events: 18 Tracks: 5750 Hits: 35226 = 0.000169185 s
Time CPU Kernel OpenCl1 Events: 18 Tracks: 5750 Hits: 35226 = 0.00124788 s
Time CPU total OpenCl1 Events: 18 Tracks: 5750 Hits: 35226 = 4.922981e-01 s

-----------------------------
Test for Bad
To import-> Hits: 38329, Tracks: 6260 Events: 19
Filter with Bad method
Time CPU total Bad Events: 19 Tracks: 6260 Hits: 38329 = 4.434824e-03 s

Test for Good
To import-> Hits: 38329, Tracks: 6260 Events: 19
Filter with Good method
Time CPU total Good Events: 19 Tracks: 6260 Hits: 38329 = 9.160042e-04 s

Test for OpenCL
To import-> Hits: 38329, Tracks: 6260 Events: 19
Filter with OpenCL 2
Time GPU Kernel OpenCl2 Events: 19 Tracks: 6260 Hits: 38329 = 9.3629e-05 s
Time CPU Kernel OpenCl2 Events: 19 Tracks: 6260 Hits: 38329 = 0.00117111 s
Time CPU total OpenCl2 Events: 19 Tracks: 6260 Hits: 38329 = 4.859741e-01 s

Test for OpenCL
To import-> Hits: 38329, Tracks: 6260 Events: 19
Filter with OpenCL 1
Time GPU Kernel OpenCl1 Events: 19 Tracks: 6260 Hits: 38329 = 0.000168296 s
Time CPU Kernel OpenCl1 Events: 19 Tracks: 6260 Hits: 38329 = 0.0012219 s
Time CPU total OpenCl1 Events: 19 Tracks: 6260 Hits: 38329 = 4.804308e-01 s

-----------------------------
Test for Bad
To import-> Hits: 40004, Tracks: 6560 Events: 20
Filter with Bad method
Time CPU total Bad Events: 20 Tracks: 6560 Hits: 40004 = 4.681826e-03 s

Test for Good
To import-> Hits: 40004, Tracks: 6560 Events: 20
Filter with Good method
Time CPU total Good Events: 20 Tracks: 6560 Hits: 40004 = 9.508133e-04 s

Test for OpenCL
To import-> Hits: 40004, Tracks: 6560 Events: 20
Filter with OpenCL 2
Time GPU Kernel OpenCl2 Events: 20 Tracks: 6560 Hits: 40004 = 8.8444e-05 s
Time CPU Kernel OpenCl2 Events: 20 Tracks: 6560 Hits: 40004 = 0.000917912 s
Time CPU total OpenCl2 Events: 20 Tracks: 6560 Hits: 40004 = 4.722221e-01 s

Test for OpenCL
To import-> Hits: 40004, Tracks: 6560 Events: 20
Filter with OpenCL 1
Time GPU Kernel OpenCl1 Events: 20 Tracks: 6560 Hits: 40004 = 0.000169186 s
Time CPU Kernel OpenCl1 Events: 20 Tracks: 6560 Hits: 40004 = 0.00125909 s
Time CPU total OpenCl1 Events: 20 Tracks: 6560 Hits: 40004 = 4.694400e-01 s

-----------------------------
Test for Bad
To import-> Hits: 57158, Tracks: 9310 Events: 30
Filter with Bad method
Time CPU total Bad Events: 30 Tracks: 9310 Hits: 57158 = 6.983995e-03 s

Test for Good
To import-> Hits: 57158, Tracks: 9310 Events: 30
Filter with Good method
Time CPU total Good Events: 30 Tracks: 9310 Hits: 57158 = 1.237154e-03 s

Error at Filter_OpenCL.c:242 : CL_OUT_OF_RESOURCES calling: clEnqueueNDRangeKernel(queue, kernel, dimension, NULL, global_size, local_size, 0, NULL, &kernelEvent)
Test for OpenCL
To import-> Hits: 57158, Tracks: 9310 Events: 30
Filter with OpenCL 2
Error at Filter_OpenCL.c:242 : CL_OUT_OF_RESOURCES calling: clEnqueueNDRangeKernel(queue, kernel, dimension, NULL, global_size, local_size, 0, NULL, &kernelEvent)
Test for OpenCL
To import-> Hits: 57158, Tracks: 9310 Events: 30
Filter with OpenCL 1
-----------------------------
Test for Bad
To import-> Hits: 75953, Tracks: 12174 Events: 40
Filter with Bad method
Time CPU total Bad Events: 40 Tracks: 12174 Hits: 75953 = 7.987022e-03 s

Test for Good
To import-> Hits: 75953, Tracks: 12174 Events: 40
Filter with Good method
Time CPU total Good Events: 40 Tracks: 12174 Hits: 75953 = 1.780987e-03 s

Error at Filter_OpenCL.c:242 : CL_OUT_OF_RESOURCES calling: clEnqueueNDRangeKernel(queue, kernel, dimension, NULL, global_size, local_size, 0, NULL, &kernelEvent)
Test for OpenCL
To import-> Hits: 75953, Tracks: 12174 Events: 40
Filter with OpenCL 2
Error at Filter_OpenCL.c:242 : CL_OUT_OF_RESOURCES calling: clEnqueueNDRangeKernel(queue, kernel, dimension, NULL, global_size, local_size, 0, NULL, &kernelEvent)
Test for OpenCL
To import-> Hits: 75953, Tracks: 12174 Events: 40
Filter with OpenCL 1
-----------------------------
Test for Bad
To import-> Hits: 93663, Tracks: 15024 Events: 50
Filter with Bad method
Time CPU total Bad Events: 50 Tracks: 15024 Hits: 93663 = 7.748842e-03 s

Test for Good
To import-> Hits: 93663, Tracks: 15024 Events: 50
Filter with Good method
Time CPU total Good Events: 50 Tracks: 15024 Hits: 93663 = 1.936913e-03 s

Error at Filter_OpenCL.c:242 : CL_OUT_OF_RESOURCES calling: clEnqueueNDRangeKernel(queue, kernel, dimension, NULL, global_size, local_size, 0, NULL, &kernelEvent)
Test for OpenCL
To import-> Hits: 93663, Tracks: 15024 Events: 50
Filter with OpenCL 2
Error at Filter_OpenCL.c:242 : CL_OUT_OF_RESOURCES calling: clEnqueueNDRangeKernel(queue, kernel, dimension, NULL, global_size, local_size, 0, NULL, &kernelEvent)
Test for OpenCL
To import-> Hits: 93663, Tracks: 15024 Events: 50
Filter with OpenCL 1
-----------------------------
Test for Bad
To import-> Hits: 114400, Tracks: 18356 Events: 60
Filter with Bad method
Time CPU total Bad Events: 60 Tracks: 18356 Hits: 114400 = 8.622885e-03 s

Test for Good
To import-> Hits: 114400, Tracks: 18356 Events: 60
Filter with Good method
Time CPU total Good Events: 60 Tracks: 18356 Hits: 114400 = 2.408981e-03 s

Error at Filter_OpenCL.c:242 : CL_OUT_OF_RESOURCES calling: clEnqueueNDRangeKernel(queue, kernel, dimension, NULL, global_size, local_size, 0, NULL, &kernelEvent)
Test for OpenCL
To import-> Hits: 114400, Tracks: 18356 Events: 60
Filter with OpenCL 2
Error at Filter_OpenCL.c:242 : CL_OUT_OF_RESOURCES calling: clEnqueueNDRangeKernel(queue, kernel, dimension, NULL, global_size, local_size, 0, NULL, &kernelEvent)
Test for OpenCL
To import-> Hits: 114400, Tracks: 18356 Events: 60
Filter with OpenCL 1
-----------------------------
Test for Bad
To import-> Hits: 135212, Tracks: 21691 Events: 70
Filter with Bad method
Time CPU total Bad Events: 70 Tracks: 21691 Hits: 135212 = 1.232505e-02 s

Test for Good
To import-> Hits: 135212, Tracks: 21691 Events: 70
Filter with Good method
Time CPU total Good Events: 70 Tracks: 21691 Hits: 135212 = 2.832890e-03 s

Error at Filter_OpenCL.c:242 : CL_OUT_OF_RESOURCES calling: clEnqueueNDRangeKernel(queue, kernel, dimension, NULL, global_size, local_size, 0, NULL, &kernelEvent)
Test for OpenCL
To import-> Hits: 135212, Tracks: 21691 Events: 70
Filter with OpenCL 2
Error at Filter_OpenCL.c:242 : CL_OUT_OF_RESOURCES calling: clEnqueueNDRangeKernel(queue, kernel, dimension, NULL, global_size, local_size, 0, NULL, &kernelEvent)
Test for OpenCL
To import-> Hits: 135212, Tracks: 21691 Events: 70
Filter with OpenCL 1
-----------------------------
Test for Bad
To import-> Hits: 155915, Tracks: 24967 Events: 80
Filter with Bad method
Time CPU total Bad Events: 80 Tracks: 24967 Hits: 155915 = 9.721041e-03 s

Test for Good
To import-> Hits: 155915, Tracks: 24967 Events: 80
Filter with Good method
Time CPU total Good Events: 80 Tracks: 24967 Hits: 155915 = 3.229141e-03 s

Error at Filter_OpenCL.c:242 : CL_OUT_OF_RESOURCES calling: clEnqueueNDRangeKernel(queue, kernel, dimension, NULL, global_size, local_size, 0, NULL, &kernelEvent)
Test for OpenCL
To import-> Hits: 155915, Tracks: 24967 Events: 80
Filter with OpenCL 2
Error at Filter_OpenCL.c:242 : CL_OUT_OF_RESOURCES calling: clEnqueueNDRangeKernel(queue, kernel, dimension, NULL, global_size, local_size, 0, NULL, &kernelEvent)
Test for OpenCL
To import-> Hits: 155915, Tracks: 24967 Events: 80
Filter with OpenCL 1
-----------------------------
Test for Bad
To import-> Hits: 175352, Tracks: 28121 Events: 90
Filter with Bad method
Time CPU total Bad Events: 90 Tracks: 28121 Hits: 175352 = 1.244998e-02 s

Test for Good
To import-> Hits: 175352, Tracks: 28121 Events: 90
Filter with Good method
Time CPU total Good Events: 90 Tracks: 28121 Hits: 175352 = 3.648043e-03 s

Error at Filter_OpenCL.c:242 : CL_OUT_OF_RESOURCES calling: clEnqueueNDRangeKernel(queue, kernel, dimension, NULL, global_size, local_size, 0, NULL, &kernelEvent)
Test for OpenCL
To import-> Hits: 175352, Tracks: 28121 Events: 90
Filter with OpenCL 2
Error at Filter_OpenCL.c:242 : CL_OUT_OF_RESOURCES calling: clEnqueueNDRangeKernel(queue, kernel, dimension, NULL, global_size, local_size, 0, NULL, &kernelEvent)
Test for OpenCL
To import-> Hits: 175352, Tracks: 28121 Events: 90
Filter with OpenCL 1
-----------------------------
Test for Bad
To import-> Hits: 196714, Tracks: 31506 Events: 100
Filter with Bad method
Time CPU total Bad Events: 100 Tracks: 31506 Hits: 196714 = 1.237512e-02 s

Test for Good
To import-> Hits: 196714, Tracks: 31506 Events: 100
Filter with Good method
Time CPU total Good Events: 100 Tracks: 31506 Hits: 196714 = 4.085064e-03 s

Error at Filter_OpenCL.c:242 : CL_OUT_OF_RESOURCES calling: clEnqueueNDRangeKernel(queue, kernel, dimension, NULL, global_size, local_size, 0, NULL, &kernelEvent)
Test for OpenCL
To import-> Hits: 196714, Tracks: 31506 Events: 100
Filter with OpenCL 2
Error at Filter_OpenCL.c:242 : CL_OUT_OF_RESOURCES calling: clEnqueueNDRangeKernel(queue, kernel, dimension, NULL, global_size, local_size, 0, NULL, &kernelEvent)
Test for OpenCL
To import-> Hits: 196714, Tracks: 31506 Events: 100
Filter with OpenCL 1
-----------------------------
Test for Bad
To import-> Hits: 214801, Tracks: 34413 Events: 110
Filter with Bad method
Time CPU total Bad Events: 110 Tracks: 34413 Hits: 214801 = 1.772189e-02 s

Test for Good
To import-> Hits: 214801, Tracks: 34413 Events: 110
Filter with Good method
Time CPU total Good Events: 110 Tracks: 34413 Hits: 214801 = 4.446983e-03 s

Error at Filter_OpenCL.c:242 : CL_OUT_OF_RESOURCES calling: clEnqueueNDRangeKernel(queue, kernel, dimension, NULL, global_size, local_size, 0, NULL, &kernelEvent)
Test for OpenCL
To import-> Hits: 214801, Tracks: 34413 Events: 110
Filter with OpenCL 2
Error at Filter_OpenCL.c:242 : CL_OUT_OF_RESOURCES calling: clEnqueueNDRangeKernel(queue, kernel, dimension, NULL, global_size, local_size, 0, NULL, &kernelEvent)
Test for OpenCL
To import-> Hits: 214801, Tracks: 34413 Events: 110
Filter with OpenCL 1
-----------------------------
Test for Bad
To import-> Hits: 233881, Tracks: 37459 Events: 120
Filter with Bad method
Time CPU total Bad Events: 120 Tracks: 37459 Hits: 233881 = 1.706290e-02 s

Test for Good
To import-> Hits: 233881, Tracks: 37459 Events: 120
Filter with Good method
Time CPU total Good Events: 120 Tracks: 37459 Hits: 233881 = 4.894972e-03 s

Error at Filter_OpenCL.c:242 : CL_OUT_OF_RESOURCES calling: clEnqueueNDRangeKernel(queue, kernel, dimension, NULL, global_size, local_size, 0, NULL, &kernelEvent)
Test for OpenCL
To import-> Hits: 233881, Tracks: 37459 Events: 120
Filter with OpenCL 2
Error at Filter_OpenCL.c:242 : CL_OUT_OF_RESOURCES calling: clEnqueueNDRangeKernel(queue, kernel, dimension, NULL, global_size, local_size, 0, NULL, &kernelEvent)
Test for OpenCL
To import-> Hits: 233881, Tracks: 37459 Events: 120
Filter with OpenCL 1
-----------------------------
Test for Bad
To import-> Hits: 254225, Tracks: 40754 Events: 130
Filter with Bad method
Time CPU total Bad Events: 130 Tracks: 40754 Hits: 254225 = 1.319790e-02 s

Test for Good
To import-> Hits: 254225, Tracks: 40754 Events: 130
Filter with Good method
Time CPU total Good Events: 130 Tracks: 40754 Hits: 254225 = 5.244970e-03 s

Error at Filter_OpenCL.c:242 : CL_OUT_OF_RESOURCES calling: clEnqueueNDRangeKernel(queue, kernel, dimension, NULL, global_size, local_size, 0, NULL, &kernelEvent)
Test for OpenCL
To import-> Hits: 254225, Tracks: 40754 Events: 130
Filter with OpenCL 2
Error at Filter_OpenCL.c:242 : CL_OUT_OF_RESOURCES calling: clEnqueueNDRangeKernel(queue, kernel, dimension, NULL, global_size, local_size, 0, NULL, &kernelEvent)
Test for OpenCL
To import-> Hits: 254225, Tracks: 40754 Events: 130
Filter with OpenCL 1
-----------------------------
Test for Bad
To import-> Hits: 278857, Tracks: 44705 Events: 140
Filter with Bad method
Time CPU total Bad Events: 140 Tracks: 44705 Hits: 278857 = 1.805806e-02 s

Test for Good
To import-> Hits: 278857, Tracks: 44705 Events: 140
Filter with Good method
Time CPU total Good Events: 140 Tracks: 44705 Hits: 278857 = 5.771875e-03 s

Error at Filter_OpenCL.c:242 : CL_OUT_OF_RESOURCES calling: clEnqueueNDRangeKernel(queue, kernel, dimension, NULL, global_size, local_size, 0, NULL, &kernelEvent)
Test for OpenCL
To import-> Hits: 278857, Tracks: 44705 Events: 140
Filter with OpenCL 2
Error at Filter_OpenCL.c:242 : CL_OUT_OF_RESOURCES calling: clEnqueueNDRangeKernel(queue, kernel, dimension, NULL, global_size, local_size, 0, NULL, &kernelEvent)
Test for OpenCL
To import-> Hits: 278857, Tracks: 44705 Events: 140
Filter with OpenCL 1
-----------------------------
Test for Bad
To import-> Hits: 299938, Tracks: 48106 Events: 150
Filter with Bad method
Time CPU total Bad Events: 150 Tracks: 48106 Hits: 299938 = 1.684189e-02 s

Test for Good
To import-> Hits: 299938, Tracks: 48106 Events: 150
Filter with Good method
Time CPU total Good Events: 150 Tracks: 48106 Hits: 299938 = 6.222010e-03 s

Error at Filter_OpenCL.c:242 : CL_OUT_OF_RESOURCES calling: clEnqueueNDRangeKernel(queue, kernel, dimension, NULL, global_size, local_size, 0, NULL, &kernelEvent)
Test for OpenCL
To import-> Hits: 299938, Tracks: 48106 Events: 150
Filter with OpenCL 2
Error at Filter_OpenCL.c:242 : CL_OUT_OF_RESOURCES calling: clEnqueueNDRangeKernel(queue, kernel, dimension, NULL, global_size, local_size, 0, NULL, &kernelEvent)
Test for OpenCL
To import-> Hits: 299938, Tracks: 48106 Events: 150
Filter with OpenCL 1
-----------------------------
Test for Bad
To import-> Hits: 321407, Tracks: 51627 Events: 160
Filter with Bad method
Time CPU total Bad Events: 160 Tracks: 51627 Hits: 321407 = 1.779699e-02 s

Test for Good
To import-> Hits: 321407, Tracks: 51627 Events: 160
Filter with Good method
Time CPU total Good Events: 160 Tracks: 51627 Hits: 321407 = 6.685019e-03 s

Error at Filter_OpenCL.c:242 : CL_OUT_OF_RESOURCES calling: clEnqueueNDRangeKernel(queue, kernel, dimension, NULL, global_size, local_size, 0, NULL, &kernelEvent)
Test for OpenCL
To import-> Hits: 321407, Tracks: 51627 Events: 160
Filter with OpenCL 2
Error at Filter_OpenCL.c:242 : CL_OUT_OF_RESOURCES calling: clEnqueueNDRangeKernel(queue, kernel, dimension, NULL, global_size, local_size, 0, NULL, &kernelEvent)
Test for OpenCL
To import-> Hits: 321407, Tracks: 51627 Events: 160
Filter with OpenCL 1
-----------------------------
Test for Bad
To import-> Hits: 339287, Tracks: 54445 Events: 170
Filter with Bad method
Time CPU total Bad Events: 170 Tracks: 54445 Hits: 339287 = 2.313590e-02 s

Test for Good
To import-> Hits: 339287, Tracks: 54445 Events: 170
Filter with Good method
Time CPU total Good Events: 170 Tracks: 54445 Hits: 339287 = 7.011890e-03 s

Error at Filter_OpenCL.c:242 : CL_OUT_OF_RESOURCES calling: clEnqueueNDRangeKernel(queue, kernel, dimension, NULL, global_size, local_size, 0, NULL, &kernelEvent)
Test for OpenCL
To import-> Hits: 339287, Tracks: 54445 Events: 170
Filter with OpenCL 2
Error at Filter_OpenCL.c:242 : CL_OUT_OF_RESOURCES calling: clEnqueueNDRangeKernel(queue, kernel, dimension, NULL, global_size, local_size, 0, NULL, &kernelEvent)
Test for OpenCL
To import-> Hits: 339287, Tracks: 54445 Events: 170
Filter with OpenCL 1
-----------------------------
Test for Bad
To import-> Hits: 357414, Tracks: 57335 Events: 180
Filter with Bad method
Time CPU total Bad Events: 180 Tracks: 57335 Hits: 357414 = 2.457595e-02 s

Test for Good
To import-> Hits: 357414, Tracks: 57335 Events: 180
Filter with Good method
Time CPU total Good Events: 180 Tracks: 57335 Hits: 357414 = 7.466078e-03 s

Error at Filter_OpenCL.c:242 : CL_OUT_OF_RESOURCES calling: clEnqueueNDRangeKernel(queue, kernel, dimension, NULL, global_size, local_size, 0, NULL, &kernelEvent)
Test for OpenCL
To import-> Hits: 357414, Tracks: 57335 Events: 180
Filter with OpenCL 2
Error at Filter_OpenCL.c:242 : CL_OUT_OF_RESOURCES calling: clEnqueueNDRangeKernel(queue, kernel, dimension, NULL, global_size, local_size, 0, NULL, &kernelEvent)
Test for OpenCL
To import-> Hits: 357414, Tracks: 57335 Events: 180
Filter with OpenCL 1
-----------------------------
Test for Bad
To import-> Hits: 377316, Tracks: 60572 Events: 190
Filter with Bad method
Time CPU total Bad Events: 190 Tracks: 60572 Hits: 377316 = 2.814603e-02 s

Test for Good
To import-> Hits: 377316, Tracks: 60572 Events: 190
Filter with Good method
Time CPU total Good Events: 190 Tracks: 60572 Hits: 377316 = 7.844925e-03 s

Error at Filter_OpenCL.c:242 : CL_OUT_OF_RESOURCES calling: clEnqueueNDRangeKernel(queue, kernel, dimension, NULL, global_size, local_size, 0, NULL, &kernelEvent)
Test for OpenCL
To import-> Hits: 377316, Tracks: 60572 Events: 190
Filter with OpenCL 2
Error at Filter_OpenCL.c:242 : CL_OUT_OF_RESOURCES calling: clEnqueueNDRangeKernel(queue, kernel, dimension, NULL, global_size, local_size, 0, NULL, &kernelEvent)
Test for OpenCL
To import-> Hits: 377316, Tracks: 60572 Events: 190
Filter with OpenCL 1
-----------------------------
Test for Bad
To import-> Hits: 398354, Tracks: 63921 Events: 200
Filter with Bad method
Time CPU total Bad Events: 200 Tracks: 63921 Hits: 398354 = 2.607298e-02 s

Test for Good
To import-> Hits: 398354, Tracks: 63921 Events: 200
Filter with Good method
Time CPU total Good Events: 200 Tracks: 63921 Hits: 398354 = 8.279085e-03 s

Error at Filter_OpenCL.c:242 : CL_OUT_OF_RESOURCES calling: clEnqueueNDRangeKernel(queue, kernel, dimension, NULL, global_size, local_size, 0, NULL, &kernelEvent)
Test for OpenCL
To import-> Hits: 398354, Tracks: 63921 Events: 200
Filter with OpenCL 2
Error at Filter_OpenCL.c:242 : CL_OUT_OF_RESOURCES calling: clEnqueueNDRangeKernel(queue, kernel, dimension, NULL, global_size, local_size, 0, NULL, &kernelEvent)
Test for OpenCL
To import-> Hits: 398354, Tracks: 63921 Events: 200
Filter with OpenCL 1
-----------------------------
Test for Bad
To import-> Hits: 416406, Tracks: 66802 Events: 210
Filter with Bad method
Time CPU total Bad Events: 210 Tracks: 66802 Hits: 416406 = 2.798986e-02 s

Test for Good
To import-> Hits: 416406, Tracks: 66802 Events: 210
Filter with Good method
Time CPU total Good Events: 210 Tracks: 66802 Hits: 416406 = 8.316040e-03 s

Error at Filter_OpenCL.c:242 : CL_OUT_OF_RESOURCES calling: clEnqueueNDRangeKernel(queue, kernel, dimension, NULL, global_size, local_size, 0, NULL, &kernelEvent)
Test for OpenCL
To import-> Hits: 416406, Tracks: 66802 Events: 210
Filter with OpenCL 2
Error at Filter_OpenCL.c:242 : CL_OUT_OF_RESOURCES calling: clEnqueueNDRangeKernel(queue, kernel, dimension, NULL, global_size, local_size, 0, NULL, &kernelEvent)
Test for OpenCL
To import-> Hits: 416406, Tracks: 66802 Events: 210
Filter with OpenCL 1
-----------------------------
Test for Bad
To import-> Hits: 435132, Tracks: 69786 Events: 220
Filter with Bad method
Time CPU total Bad Events: 220 Tracks: 69786 Hits: 435132 = 2.663898e-02 s

Test for Good
To import-> Hits: 435132, Tracks: 69786 Events: 220
Filter with Good method
Time CPU total Good Events: 220 Tracks: 69786 Hits: 435132 = 9.078979e-03 s

Error at Filter_OpenCL.c:242 : CL_OUT_OF_RESOURCES calling: clEnqueueNDRangeKernel(queue, kernel, dimension, NULL, global_size, local_size, 0, NULL, &kernelEvent)
Test for OpenCL
To import-> Hits: 435132, Tracks: 69786 Events: 220
Filter with OpenCL 2
Error at Filter_OpenCL.c:242 : CL_OUT_OF_RESOURCES calling: clEnqueueNDRangeKernel(queue, kernel, dimension, NULL, global_size, local_size, 0, NULL, &kernelEvent)
Test for OpenCL
To import-> Hits: 435132, Tracks: 69786 Events: 220
Filter with OpenCL 1
-----------------------------
Test for Bad
To import-> Hits: 452586, Tracks: 72547 Events: 230
Filter with Bad method
Time CPU total Bad Events: 230 Tracks: 72547 Hits: 452586 = 3.014898e-02 s

Test for Good
To import-> Hits: 452586, Tracks: 72547 Events: 230
Filter with Good method
Time CPU total Good Events: 230 Tracks: 72547 Hits: 452586 = 9.455919e-03 s

Error at Filter_OpenCL.c:242 : CL_OUT_OF_RESOURCES calling: clEnqueueNDRangeKernel(queue, kernel, dimension, NULL, global_size, local_size, 0, NULL, &kernelEvent)
Test for OpenCL
To import-> Hits: 452586, Tracks: 72547 Events: 230
Filter with OpenCL 2
Error at Filter_OpenCL.c:242 : CL_OUT_OF_RESOURCES calling: clEnqueueNDRangeKernel(queue, kernel, dimension, NULL, global_size, local_size, 0, NULL, &kernelEvent)
Test for OpenCL
To import-> Hits: 452586, Tracks: 72547 Events: 230
Filter with OpenCL 1
-----------------------------
Test for Bad
To import-> Hits: 474872, Tracks: 76144 Events: 240
Filter with Bad method
Time CPU total Bad Events: 240 Tracks: 76144 Hits: 474872 = 3.126597e-02 s

Test for Good
To import-> Hits: 474872, Tracks: 76144 Events: 240
Filter with Good method
Time CPU total Good Events: 240 Tracks: 76144 Hits: 474872 = 9.565830e-03 s

Error at Filter_OpenCL.c:242 : CL_OUT_OF_RESOURCES calling: clEnqueueNDRangeKernel(queue, kernel, dimension, NULL, global_size, local_size, 0, NULL, &kernelEvent)
Test for OpenCL
To import-> Hits: 474872, Tracks: 76144 Events: 240
Filter with OpenCL 2
Error at Filter_OpenCL.c:242 : CL_OUT_OF_RESOURCES calling: clEnqueueNDRangeKernel(queue, kernel, dimension, NULL, global_size, local_size, 0, NULL, &kernelEvent)
Test for OpenCL
To import-> Hits: 474872, Tracks: 76144 Events: 240
Filter with OpenCL 1
-----------------------------
Test for Bad
To import-> Hits: 493810, Tracks: 79172 Events: 250
Filter with Bad method
Time CPU total Bad Events: 250 Tracks: 79172 Hits: 493810 = 3.161502e-02 s

Test for Good
To import-> Hits: 493810, Tracks: 79172 Events: 250
Filter with Good method
Time CPU total Good Events: 250 Tracks: 79172 Hits: 493810 = 9.819031e-03 s

Error at Filter_OpenCL.c:242 : CL_OUT_OF_RESOURCES calling: clEnqueueNDRangeKernel(queue, kernel, dimension, NULL, global_size, local_size, 0, NULL, &kernelEvent)
Test for OpenCL
To import-> Hits: 493810, Tracks: 79172 Events: 250
Filter with OpenCL 2
Error at Filter_OpenCL.c:242 : CL_OUT_OF_RESOURCES calling: clEnqueueNDRangeKernel(queue, kernel, dimension, NULL, global_size, local_size, 0, NULL, &kernelEvent)
Test for OpenCL
To import-> Hits: 493810, Tracks: 79172 Events: 250
Filter with OpenCL 1
-----------------------------
Test for Bad
To import-> Hits: 514314, Tracks: 82444 Events: 260
Filter with Bad method
Time CPU total Bad Events: 260 Tracks: 82444 Hits: 514314 = 3.156805e-02 s

Test for Good
To import-> Hits: 514314, Tracks: 82444 Events: 260
Filter with Good method
Time CPU total Good Events: 260 Tracks: 82444 Hits: 514314 = 1.029301e-02 s

Error at Filter_OpenCL.c:242 : CL_OUT_OF_RESOURCES calling: clEnqueueNDRangeKernel(queue, kernel, dimension, NULL, global_size, local_size, 0, NULL, &kernelEvent)
Test for OpenCL
To import-> Hits: 514314, Tracks: 82444 Events: 260
Filter with OpenCL 2
Error at Filter_OpenCL.c:242 : CL_OUT_OF_RESOURCES calling: clEnqueueNDRangeKernel(queue, kernel, dimension, NULL, global_size, local_size, 0, NULL, &kernelEvent)
Test for OpenCL
To import-> Hits: 514314, Tracks: 82444 Events: 260
Filter with OpenCL 1
-----------------------------
Test for Bad
To import-> Hits: 534537, Tracks: 85661 Events: 270
Filter with Bad method
Time CPU total Bad Events: 270 Tracks: 85661 Hits: 534537 = 3.143597e-02 s

Test for Good
To import-> Hits: 534537, Tracks: 85661 Events: 270
Filter with Good method
Time CPU total Good Events: 270 Tracks: 85661 Hits: 534537 = 1.070404e-02 s

Error at Filter_OpenCL.c:242 : CL_OUT_OF_RESOURCES calling: clEnqueueNDRangeKernel(queue, kernel, dimension, NULL, global_size, local_size, 0, NULL, &kernelEvent)
Test for OpenCL
To import-> Hits: 534537, Tracks: 85661 Events: 270
Filter with OpenCL 2
Error at Filter_OpenCL.c:242 : CL_OUT_OF_RESOURCES calling: clEnqueueNDRangeKernel(queue, kernel, dimension, NULL, global_size, local_size, 0, NULL, &kernelEvent)
Test for OpenCL
To import-> Hits: 534537, Tracks: 85661 Events: 270
Filter with OpenCL 1
-----------------------------
Test for Bad
To import-> Hits: 557160, Tracks: 89234 Events: 280
Filter with Bad method
Time CPU total Bad Events: 280 Tracks: 89234 Hits: 557160 = 3.502679e-02 s

Test for Good
To import-> Hits: 557160, Tracks: 89234 Events: 280
Filter with Good method
Time CPU total Good Events: 280 Tracks: 89234 Hits: 557160 = 1.117396e-02 s

Error at Filter_OpenCL.c:242 : CL_OUT_OF_RESOURCES calling: clEnqueueNDRangeKernel(queue, kernel, dimension, NULL, global_size, local_size, 0, NULL, &kernelEvent)
Test for OpenCL
To import-> Hits: 557160, Tracks: 89234 Events: 280
Filter with OpenCL 2
Error at Filter_OpenCL.c:242 : CL_OUT_OF_RESOURCES calling: clEnqueueNDRangeKernel(queue, kernel, dimension, NULL, global_size, local_size, 0, NULL, &kernelEvent)
Test for OpenCL
To import-> Hits: 557160, Tracks: 89234 Events: 280
Filter with OpenCL 1
-----------------------------
Test for Bad
To import-> Hits: 576611, Tracks: 92347 Events: 290
Filter with Bad method
Time CPU total Bad Events: 290 Tracks: 92347 Hits: 576611 = 3.481293e-02 s

Test for Good
To import-> Hits: 576611, Tracks: 92347 Events: 290
Filter with Good method
Time CPU total Good Events: 290 Tracks: 92347 Hits: 576611 = 1.163101e-02 s

Error at Filter_OpenCL.c:242 : CL_OUT_OF_RESOURCES calling: clEnqueueNDRangeKernel(queue, kernel, dimension, NULL, global_size, local_size, 0, NULL, &kernelEvent)
Test for OpenCL
To import-> Hits: 576611, Tracks: 92347 Events: 290
Filter with OpenCL 2
Error at Filter_OpenCL.c:242 : CL_OUT_OF_RESOURCES calling: clEnqueueNDRangeKernel(queue, kernel, dimension, NULL, global_size, local_size, 0, NULL, &kernelEvent)
Test for OpenCL
To import-> Hits: 576611, Tracks: 92347 Events: 290
Filter with OpenCL 1
-----------------------------
Test for Bad
To import-> Hits: 598963, Tracks: 95876 Events: 300
Filter with Bad method
Time CPU total Bad Events: 300 Tracks: 95876 Hits: 598963 = 3.232813e-02 s

Test for Good
To import-> Hits: 598963, Tracks: 95876 Events: 300
Filter with Good method
Time CPU total Good Events: 300 Tracks: 95876 Hits: 598963 = 1.205993e-02 s

Error at Filter_OpenCL.c:242 : CL_OUT_OF_RESOURCES calling: clEnqueueNDRangeKernel(queue, kernel, dimension, NULL, global_size, local_size, 0, NULL, &kernelEvent)
Test for OpenCL
To import-> Hits: 598963, Tracks: 95876 Events: 300
Filter with OpenCL 2
Error at Filter_OpenCL.c:242 : CL_OUT_OF_RESOURCES calling: clEnqueueNDRangeKernel(queue, kernel, dimension, NULL, global_size, local_size, 0, NULL, &kernelEvent)
Test for OpenCL
To import-> Hits: 598963, Tracks: 95876 Events: 300
Filter with OpenCL 1
-----------------------------
