Test for Bad
To import-> Hits: 2093, Tracks: 358 Events: 1
Filter with Bad method
Time CPU total Bad Events: 1 Tracks: 358 Hits: 2093 = 1.659393e-04 s

Test for Good
To import-> Hits: 2093, Tracks: 358 Events: 1
Filter with Cuda 2
Time GPU Kernel Cuda2 Events: 1 Tracks: 358 Hits: 2093 = 1.045760e-04 s
Time CPU Kernel Cuda2 Events: 1 Tracks: 358 Hits: 2093 = 1.010895e-04 s
Time CPU total Cuda2 Events: 1 Tracks: 358 Hits: 2093 = 6.904840e-01 s

Test for Good
To import-> Hits: 2093, Tracks: 358 Events: 1
Filter with Cuda 1
Time GPU Kernel Cuda1 Events: 1 Tracks: 358 Hits: 2093 = 1.054400e-04 s
Time CPU Kernel Cuda1 Events: 1 Tracks: 358 Hits: 2093 = 1.029968e-04 s
Time CPU total Cuda1 Events: 1 Tracks: 358 Hits: 2093 = 6.511331e-01 s

Test for Good
To import-> Hits: 2093, Tracks: 358 Events: 1
Filter with Good method
Time CPU total Good Events: 1 Tracks: 358 Hits: 2093 = 5.507469e-05 s

./opencl2.x: /opt/AMDAPPSDK-3.0-0-Beta/lib/x86/libOpenCL.so.1: no version information available (required by ./opencl2.x)
Test for OpenCL
To import-> Hits: 2093, Tracks: 358 Events: 1
Filter with OpenCL 2
Time GPU Kernel OpenCl2 Events: 1 Tracks: 358 Hits: 2093 = 0.000100721 s
Time CPU Kernel OpenCl2 Events: 1 Tracks: 358 Hits: 2093 = 0.000147104 s
Time CPU total OpenCl2 Events: 1 Tracks: 358 Hits: 2093 = 1.021078e+00 s

./opencl.x: /opt/AMDAPPSDK-3.0-0-Beta/lib/x86/libOpenCL.so.1: no version information available (required by ./opencl.x)
Test for OpenCL
To import-> Hits: 2093, Tracks: 358 Events: 1
Filter with OpenCL 1
Time GPU Kernel OpenCl1 Events: 1 Tracks: 358 Hits: 2093 = 9.8304e-05 s
Time CPU Kernel OpenCl1 Events: 1 Tracks: 358 Hits: 2093 = 0.000168085 s
Time CPU total OpenCl1 Events: 1 Tracks: 358 Hits: 2093 = 1.005607e+00 s

-----------------------------
Test for Bad
To import-> Hits: 3158, Tracks: 532 Events: 2
Filter with Bad method
Time CPU total Bad Events: 2 Tracks: 532 Hits: 3158 = 1.850128e-04 s

Test for Good
To import-> Hits: 3158, Tracks: 532 Events: 2
Filter with Cuda 2
Time GPU Kernel Cuda2 Events: 2 Tracks: 532 Hits: 3158 = 8.409601e-05 s
Time CPU Kernel Cuda2 Events: 2 Tracks: 532 Hits: 3158 = 8.010864e-05 s
Time CPU total Cuda2 Events: 2 Tracks: 532 Hits: 3158 = 6.830659e-01 s

Test for Good
To import-> Hits: 3158, Tracks: 532 Events: 2
Filter with Cuda 1
Time GPU Kernel Cuda1 Events: 2 Tracks: 532 Hits: 3158 = 1.090240e-04 s
Time CPU Kernel Cuda1 Events: 2 Tracks: 532 Hits: 3158 = 1.060963e-04 s
Time CPU total Cuda1 Events: 2 Tracks: 532 Hits: 3158 = 6.796811e-01 s

Test for Good
To import-> Hits: 3158, Tracks: 532 Events: 2
Filter with Good method
Time CPU total Good Events: 2 Tracks: 532 Hits: 3158 = 9.703636e-05 s

./opencl2.x: /opt/AMDAPPSDK-3.0-0-Beta/lib/x86/libOpenCL.so.1: no version information available (required by ./opencl2.x)
Test for OpenCL
To import-> Hits: 3158, Tracks: 532 Events: 2
Filter with OpenCL 2
Time GPU Kernel OpenCl2 Events: 2 Tracks: 532 Hits: 3158 = 0.00013965 s
Time CPU Kernel OpenCl2 Events: 2 Tracks: 532 Hits: 3158 = 0.00018692 s
Time CPU total OpenCl2 Events: 2 Tracks: 532 Hits: 3158 = 1.039408e+00 s

./opencl.x: /opt/AMDAPPSDK-3.0-0-Beta/lib/x86/libOpenCL.so.1: no version information available (required by ./opencl.x)
Test for OpenCL
To import-> Hits: 3158, Tracks: 532 Events: 2
Filter with OpenCL 1
Time GPU Kernel OpenCl1 Events: 2 Tracks: 532 Hits: 3158 = 0.0001244 s
Time CPU Kernel OpenCl1 Events: 2 Tracks: 532 Hits: 3158 = 0.000173092 s
Time CPU total OpenCl1 Events: 2 Tracks: 532 Hits: 3158 = 1.029379e+00 s

-----------------------------
Test for Bad
To import-> Hits: 4741, Tracks: 779 Events: 3
Filter with Bad method
Time CPU total Bad Events: 3 Tracks: 779 Hits: 4741 = 2.579689e-04 s

Test for Good
To import-> Hits: 4741, Tracks: 779 Events: 3
Filter with Cuda 2
Time GPU Kernel Cuda2 Events: 3 Tracks: 779 Hits: 4741 = 1.014720e-04 s
Time CPU Kernel Cuda2 Events: 3 Tracks: 779 Hits: 4741 = 9.703636e-05 s
Time CPU total Cuda2 Events: 3 Tracks: 779 Hits: 4741 = 6.816900e-01 s

Test for Good
To import-> Hits: 4741, Tracks: 779 Events: 3
Filter with Cuda 1
Time GPU Kernel Cuda1 Events: 3 Tracks: 779 Hits: 4741 = 1.097280e-04 s
Time CPU Kernel Cuda1 Events: 3 Tracks: 779 Hits: 4741 = 1.068115e-04 s
Time CPU total Cuda1 Events: 3 Tracks: 779 Hits: 4741 = 6.877849e-01 s

Test for Good
To import-> Hits: 4741, Tracks: 779 Events: 3
Filter with Good method
Time CPU total Good Events: 3 Tracks: 779 Hits: 4741 = 1.249313e-04 s

./opencl2.x: /opt/AMDAPPSDK-3.0-0-Beta/lib/x86/libOpenCL.so.1: no version information available (required by ./opencl2.x)
Test for OpenCL
To import-> Hits: 4741, Tracks: 779 Events: 3
Filter with OpenCL 2
Time GPU Kernel OpenCl2 Events: 3 Tracks: 779 Hits: 4741 = 0.000126486 s
Time CPU Kernel OpenCl2 Events: 3 Tracks: 779 Hits: 4741 = 0.000174999 s
Time CPU total OpenCl2 Events: 3 Tracks: 779 Hits: 4741 = 1.086109e+00 s

./opencl.x: /opt/AMDAPPSDK-3.0-0-Beta/lib/x86/libOpenCL.so.1: no version information available (required by ./opencl.x)
Test for OpenCL
To import-> Hits: 4741, Tracks: 779 Events: 3
Filter with OpenCL 1
Time GPU Kernel OpenCl1 Events: 3 Tracks: 779 Hits: 4741 = 0.000185098 s
Time CPU Kernel OpenCl1 Events: 3 Tracks: 779 Hits: 4741 = 0.000231981 s
Time CPU total OpenCl1 Events: 3 Tracks: 779 Hits: 4741 = 1.035969e+00 s

-----------------------------
Test for Bad
To import-> Hits: 8061, Tracks: 1300 Events: 4
Filter with Bad method
Time CPU total Bad Events: 4 Tracks: 1300 Hits: 8061 = 5.059242e-04 s

Test for Good
To import-> Hits: 8061, Tracks: 1300 Events: 4
Filter with Cuda 2
Time GPU Kernel Cuda2 Events: 4 Tracks: 1300 Hits: 8061 = 8.848001e-05 s
Time CPU Kernel Cuda2 Events: 4 Tracks: 1300 Hits: 8061 = 8.511543e-05 s
Time CPU total Cuda2 Events: 4 Tracks: 1300 Hits: 8061 = 6.900189e-01 s

Test for Good
To import-> Hits: 8061, Tracks: 1300 Events: 4
Filter with Cuda 1
Time GPU Kernel Cuda1 Events: 4 Tracks: 1300 Hits: 8061 = 1.096960e-04 s
Time CPU Kernel Cuda1 Events: 4 Tracks: 1300 Hits: 8061 = 1.060963e-04 s
Time CPU total Cuda1 Events: 4 Tracks: 1300 Hits: 8061 = 6.859169e-01 s

Test for Good
To import-> Hits: 8061, Tracks: 1300 Events: 4
Filter with Good method
Time CPU total Good Events: 4 Tracks: 1300 Hits: 8061 = 2.129078e-04 s

./opencl2.x: /opt/AMDAPPSDK-3.0-0-Beta/lib/x86/libOpenCL.so.1: no version information available (required by ./opencl2.x)
Test for OpenCL
To import-> Hits: 8061, Tracks: 1300 Events: 4
Filter with OpenCL 2
Time GPU Kernel OpenCl2 Events: 4 Tracks: 1300 Hits: 8061 = 0.000204687 s
Time CPU Kernel OpenCl2 Events: 4 Tracks: 1300 Hits: 8061 = 0.000251055 s
Time CPU total OpenCl2 Events: 4 Tracks: 1300 Hits: 8061 = 1.097134e+00 s

./opencl.x: /opt/AMDAPPSDK-3.0-0-Beta/lib/x86/libOpenCL.so.1: no version information available (required by ./opencl.x)
Test for OpenCL
To import-> Hits: 8061, Tracks: 1300 Events: 4
Filter with OpenCL 1
Time GPU Kernel OpenCl1 Events: 4 Tracks: 1300 Hits: 8061 = 0.000189035 s
Time CPU Kernel OpenCl1 Events: 4 Tracks: 1300 Hits: 8061 = 0.000239134 s
Time CPU total OpenCl1 Events: 4 Tracks: 1300 Hits: 8061 = 1.011416e+00 s

-----------------------------
Test for Bad
To import-> Hits: 11850, Tracks: 1914 Events: 5
Filter with Bad method
Time CPU total Bad Events: 5 Tracks: 1914 Hits: 11850 = 7.159710e-04 s

Test for Good
To import-> Hits: 11850, Tracks: 1914 Events: 5
Filter with Cuda 2
Time GPU Kernel Cuda2 Events: 5 Tracks: 1914 Hits: 11850 = 8.844801e-05 s
Time CPU Kernel Cuda2 Events: 5 Tracks: 1914 Hits: 11850 = 8.511543e-05 s
Time CPU total Cuda2 Events: 5 Tracks: 1914 Hits: 11850 = 6.805661e-01 s

Test for Good
To import-> Hits: 11850, Tracks: 1914 Events: 5
Filter with Cuda 1
Time GPU Kernel Cuda1 Events: 5 Tracks: 1914 Hits: 11850 = 1.131520e-04 s
Time CPU Kernel Cuda1 Events: 5 Tracks: 1914 Hits: 11850 = 1.099110e-04 s
Time CPU total Cuda1 Events: 5 Tracks: 1914 Hits: 11850 = 6.810441e-01 s

Test for Good
To import-> Hits: 11850, Tracks: 1914 Events: 5
Filter with Good method
Time CPU total Good Events: 5 Tracks: 1914 Hits: 11850 = 3.118515e-04 s

./opencl2.x: /opt/AMDAPPSDK-3.0-0-Beta/lib/x86/libOpenCL.so.1: no version information available (required by ./opencl2.x)
Test for OpenCL
To import-> Hits: 11850, Tracks: 1914 Events: 5
Filter with OpenCL 2
Time GPU Kernel OpenCl2 Events: 5 Tracks: 1914 Hits: 11850 = 0.000167264 s
Time CPU Kernel OpenCl2 Events: 5 Tracks: 1914 Hits: 11850 = 0.000219107 s
Time CPU total OpenCl2 Events: 5 Tracks: 1914 Hits: 11850 = 1.077292e+00 s

./opencl.x: /opt/AMDAPPSDK-3.0-0-Beta/lib/x86/libOpenCL.so.1: no version information available (required by ./opencl.x)
Test for OpenCL
To import-> Hits: 11850, Tracks: 1914 Events: 5
Filter with OpenCL 1
Time GPU Kernel OpenCl1 Events: 5 Tracks: 1914 Hits: 11850 = 0.000185681 s
Time CPU Kernel OpenCl1 Events: 5 Tracks: 1914 Hits: 11850 = 0.000237942 s
Time CPU total OpenCl1 Events: 5 Tracks: 1914 Hits: 11850 = 1.041386e+00 s

-----------------------------
Test for Bad
To import-> Hits: 12849, Tracks: 2089 Events: 6
Filter with Bad method
Time CPU total Bad Events: 6 Tracks: 2089 Hits: 12849 = 7.748604e-04 s

Test for Good
To import-> Hits: 12849, Tracks: 2089 Events: 6
Filter with Cuda 2
Time GPU Kernel Cuda2 Events: 6 Tracks: 2089 Hits: 12849 = 9.340801e-05 s
Time CPU Kernel Cuda2 Events: 6 Tracks: 2089 Hits: 12849 = 8.916855e-05 s
Time CPU total Cuda2 Events: 6 Tracks: 2089 Hits: 12849 = 6.866441e-01 s

Test for Good
To import-> Hits: 12849, Tracks: 2089 Events: 6
Filter with Cuda 1
Time GPU Kernel Cuda1 Events: 6 Tracks: 2089 Hits: 12849 = 1.159040e-04 s
Time CPU Kernel Cuda1 Events: 6 Tracks: 2089 Hits: 12849 = 1.130104e-04 s
Time CPU total Cuda1 Events: 6 Tracks: 2089 Hits: 12849 = 6.871879e-01 s

Test for Good
To import-> Hits: 12849, Tracks: 2089 Events: 6
Filter with Good method
Time CPU total Good Events: 6 Tracks: 2089 Hits: 12849 = 3.368855e-04 s

./opencl2.x: /opt/AMDAPPSDK-3.0-0-Beta/lib/x86/libOpenCL.so.1: no version information available (required by ./opencl2.x)
Test for OpenCL
To import-> Hits: 12849, Tracks: 2089 Events: 6
Filter with OpenCL 2
Time GPU Kernel OpenCl2 Events: 6 Tracks: 2089 Hits: 12849 = 0.000153172 s
Time CPU Kernel OpenCl2 Events: 6 Tracks: 2089 Hits: 12849 = 0.000200987 s
Time CPU total OpenCl2 Events: 6 Tracks: 2089 Hits: 12849 = 1.078239e+00 s

./opencl.x: /opt/AMDAPPSDK-3.0-0-Beta/lib/x86/libOpenCL.so.1: no version information available (required by ./opencl.x)
Test for OpenCL
To import-> Hits: 12849, Tracks: 2089 Events: 6
Filter with OpenCL 1
Time GPU Kernel OpenCl1 Events: 6 Tracks: 2089 Hits: 12849 = 0.0002112 s
Time CPU Kernel OpenCl1 Events: 6 Tracks: 2089 Hits: 12849 = 0.000259876 s
Time CPU total OpenCl1 Events: 6 Tracks: 2089 Hits: 12849 = 1.002143e+00 s

-----------------------------
Test for Bad
To import-> Hits: 14812, Tracks: 2418 Events: 7
Filter with Bad method
Time CPU total Bad Events: 7 Tracks: 2418 Hits: 14812 = 9.579659e-04 s

Test for Good
To import-> Hits: 14812, Tracks: 2418 Events: 7
Filter with Cuda 2
Time GPU Kernel Cuda2 Events: 7 Tracks: 2418 Hits: 14812 = 9.984001e-05 s
Time CPU Kernel Cuda2 Events: 7 Tracks: 2418 Hits: 14812 = 9.584427e-05 s
Time CPU total Cuda2 Events: 7 Tracks: 2418 Hits: 14812 = 6.878369e-01 s

Test for Good
To import-> Hits: 14812, Tracks: 2418 Events: 7
Filter with Cuda 1
Time GPU Kernel Cuda1 Events: 7 Tracks: 2418 Hits: 14812 = 1.414720e-04 s
Time CPU Kernel Cuda1 Events: 7 Tracks: 2418 Hits: 14812 = 1.370907e-04 s
Time CPU total Cuda1 Events: 7 Tracks: 2418 Hits: 14812 = 6.834600e-01 s

Test for Good
To import-> Hits: 14812, Tracks: 2418 Events: 7
Filter with Good method
Time CPU total Good Events: 7 Tracks: 2418 Hits: 14812 = 3.991127e-04 s

./opencl2.x: /opt/AMDAPPSDK-3.0-0-Beta/lib/x86/libOpenCL.so.1: no version information available (required by ./opencl2.x)
Test for OpenCL
To import-> Hits: 14812, Tracks: 2418 Events: 7
Filter with OpenCL 2
Time GPU Kernel OpenCl2 Events: 7 Tracks: 2418 Hits: 14812 = 0.000181611 s
Time CPU Kernel OpenCl2 Events: 7 Tracks: 2418 Hits: 14812 = 0.000230074 s
Time CPU total OpenCl2 Events: 7 Tracks: 2418 Hits: 14812 = 1.095129e+00 s

./opencl.x: /opt/AMDAPPSDK-3.0-0-Beta/lib/x86/libOpenCL.so.1: no version information available (required by ./opencl.x)
Test for OpenCL
To import-> Hits: 14812, Tracks: 2418 Events: 7
Filter with OpenCL 1
Time GPU Kernel OpenCl1 Events: 7 Tracks: 2418 Hits: 14812 = 0.000196771 s
Time CPU Kernel OpenCl1 Events: 7 Tracks: 2418 Hits: 14812 = 0.000246048 s
Time CPU total OpenCl1 Events: 7 Tracks: 2418 Hits: 14812 = 1.052084e+00 s

-----------------------------
Test for Bad
To import-> Hits: 15814, Tracks: 2586 Events: 8
Filter with Bad method
Time CPU total Bad Events: 8 Tracks: 2586 Hits: 15814 = 9.338856e-04 s

Test for Good
To import-> Hits: 15814, Tracks: 2586 Events: 8
Filter with Cuda 2
Time GPU Kernel Cuda2 Events: 8 Tracks: 2586 Hits: 15814 = 1.011840e-04 s
Time CPU Kernel Cuda2 Events: 8 Tracks: 2586 Hits: 15814 = 9.703636e-05 s
Time CPU total Cuda2 Events: 8 Tracks: 2586 Hits: 15814 = 6.664670e-01 s

Test for Good
To import-> Hits: 15814, Tracks: 2586 Events: 8
Filter with Cuda 1
Time GPU Kernel Cuda1 Events: 8 Tracks: 2586 Hits: 15814 = 1.284160e-04 s
Time CPU Kernel Cuda1 Events: 8 Tracks: 2586 Hits: 15814 = 1.249313e-04 s
Time CPU total Cuda1 Events: 8 Tracks: 2586 Hits: 15814 = 6.841400e-01 s

Test for Good
To import-> Hits: 15814, Tracks: 2586 Events: 8
Filter with Good method
Time CPU total Good Events: 8 Tracks: 2586 Hits: 15814 = 4.229546e-04 s

./opencl2.x: /opt/AMDAPPSDK-3.0-0-Beta/lib/x86/libOpenCL.so.1: no version information available (required by ./opencl2.x)
Test for OpenCL
To import-> Hits: 15814, Tracks: 2586 Events: 8
Filter with OpenCL 2
Time GPU Kernel OpenCl2 Events: 8 Tracks: 2586 Hits: 15814 = 0.000245286 s
Time CPU Kernel OpenCl2 Events: 8 Tracks: 2586 Hits: 15814 = 0.000294924 s
Time CPU total OpenCl2 Events: 8 Tracks: 2586 Hits: 15814 = 1.107850e+00 s

./opencl.x: /opt/AMDAPPSDK-3.0-0-Beta/lib/x86/libOpenCL.so.1: no version information available (required by ./opencl.x)
Test for OpenCL
To import-> Hits: 15814, Tracks: 2586 Events: 8
Filter with OpenCL 1
Time GPU Kernel OpenCl1 Events: 8 Tracks: 2586 Hits: 15814 = 0.000177376 s
Time CPU Kernel OpenCl1 Events: 8 Tracks: 2586 Hits: 15814 = 0.000233889 s
Time CPU total OpenCl1 Events: 8 Tracks: 2586 Hits: 15814 = 9.974952e-01 s

-----------------------------
Test for Bad
To import-> Hits: 16842, Tracks: 2764 Events: 9
Filter with Bad method
Time CPU total Bad Events: 9 Tracks: 2764 Hits: 16842 = 8.029938e-04 s

Test for Good
To import-> Hits: 16842, Tracks: 2764 Events: 9
Filter with Cuda 2
Time GPU Kernel Cuda2 Events: 9 Tracks: 2764 Hits: 16842 = 1.037760e-04 s
Time CPU Kernel Cuda2 Events: 9 Tracks: 2764 Hits: 16842 = 1.001358e-04 s
Time CPU total Cuda2 Events: 9 Tracks: 2764 Hits: 16842 = 6.886871e-01 s

Test for Good
To import-> Hits: 16842, Tracks: 2764 Events: 9
Filter with Cuda 1
Time GPU Kernel Cuda1 Events: 9 Tracks: 2764 Hits: 16842 = 1.263040e-04 s
Time CPU Kernel Cuda1 Events: 9 Tracks: 2764 Hits: 16842 = 1.230240e-04 s
Time CPU total Cuda1 Events: 9 Tracks: 2764 Hits: 16842 = 6.940629e-01 s

Test for Good
To import-> Hits: 16842, Tracks: 2764 Events: 9
Filter with Good method
Time CPU total Good Events: 9 Tracks: 2764 Hits: 16842 = 4.539490e-04 s

./opencl2.x: /opt/AMDAPPSDK-3.0-0-Beta/lib/x86/libOpenCL.so.1: no version information available (required by ./opencl2.x)
Test for OpenCL
To import-> Hits: 16842, Tracks: 2764 Events: 9
Filter with OpenCL 2
Time GPU Kernel OpenCl2 Events: 9 Tracks: 2764 Hits: 16842 = 0.000158651 s
Time CPU Kernel OpenCl2 Events: 9 Tracks: 2764 Hits: 16842 = 0.000206947 s
Time CPU total OpenCl2 Events: 9 Tracks: 2764 Hits: 16842 = 1.049070e+00 s

./opencl.x: /opt/AMDAPPSDK-3.0-0-Beta/lib/x86/libOpenCL.so.1: no version information available (required by ./opencl.x)
Test for OpenCL
To import-> Hits: 16842, Tracks: 2764 Events: 9
Filter with OpenCL 1
Time GPU Kernel OpenCl1 Events: 9 Tracks: 2764 Hits: 16842 = 0.000169057 s
Time CPU Kernel OpenCl1 Events: 9 Tracks: 2764 Hits: 16842 = 0.000216961 s
Time CPU total OpenCl1 Events: 9 Tracks: 2764 Hits: 16842 = 1.025091e+00 s

-----------------------------
Test for Bad
To import-> Hits: 18940, Tracks: 3094 Events: 10
Filter with Bad method
Time CPU total Bad Events: 10 Tracks: 3094 Hits: 18940 = 9.119511e-04 s

Test for Good
To import-> Hits: 18940, Tracks: 3094 Events: 10
Filter with Cuda 2
Time GPU Kernel Cuda2 Events: 10 Tracks: 3094 Hits: 18940 = 1.064960e-04 s
Time CPU Kernel Cuda2 Events: 10 Tracks: 3094 Hits: 18940 = 1.020432e-04 s
Time CPU total Cuda2 Events: 10 Tracks: 3094 Hits: 18940 = 6.901700e-01 s

Test for Good
To import-> Hits: 18940, Tracks: 3094 Events: 10
Filter with Cuda 1
Time GPU Kernel Cuda1 Events: 10 Tracks: 3094 Hits: 18940 = 1.271360e-04 s
Time CPU Kernel Cuda1 Events: 10 Tracks: 3094 Hits: 18940 = 1.239777e-04 s
Time CPU total Cuda1 Events: 10 Tracks: 3094 Hits: 18940 = 6.863170e-01 s

Test for Good
To import-> Hits: 18940, Tracks: 3094 Events: 10
Filter with Good method
Time CPU total Good Events: 10 Tracks: 3094 Hits: 18940 = 4.999638e-04 s

./opencl2.x: /opt/AMDAPPSDK-3.0-0-Beta/lib/x86/libOpenCL.so.1: no version information available (required by ./opencl2.x)
Test for OpenCL
To import-> Hits: 18940, Tracks: 3094 Events: 10
Filter with OpenCL 2
Time GPU Kernel OpenCl2 Events: 10 Tracks: 3094 Hits: 18940 = 0.000265189 s
Time CPU Kernel OpenCl2 Events: 10 Tracks: 3094 Hits: 18940 = 0.000320911 s
Time CPU total OpenCl2 Events: 10 Tracks: 3094 Hits: 18940 = 1.046964e+00 s

./opencl.x: /opt/AMDAPPSDK-3.0-0-Beta/lib/x86/libOpenCL.so.1: no version information available (required by ./opencl.x)
Test for OpenCL
To import-> Hits: 18940, Tracks: 3094 Events: 10
Filter with OpenCL 1
Time GPU Kernel OpenCl1 Events: 10 Tracks: 3094 Hits: 18940 = 0.00025419 s
Time CPU Kernel OpenCl1 Events: 10 Tracks: 3094 Hits: 18940 = 0.000305891 s
Time CPU total OpenCl1 Events: 10 Tracks: 3094 Hits: 18940 = 1.058959e+00 s

-----------------------------
Test for Bad
To import-> Hits: 22010, Tracks: 3613 Events: 11
Filter with Bad method
Time CPU total Bad Events: 11 Tracks: 3613 Hits: 22010 = 1.341105e-03 s

Test for Good
To import-> Hits: 22010, Tracks: 3613 Events: 11
Filter with Cuda 2
Time GPU Kernel Cuda2 Events: 11 Tracks: 3613 Hits: 22010 = 1.139200e-04 s
Time CPU Kernel Cuda2 Events: 11 Tracks: 3613 Hits: 22010 = 1.099110e-04 s
Time CPU total Cuda2 Events: 11 Tracks: 3613 Hits: 22010 = 6.876001e-01 s

Test for Good
To import-> Hits: 22010, Tracks: 3613 Events: 11
Filter with Cuda 1
Time GPU Kernel Cuda1 Events: 11 Tracks: 3613 Hits: 22010 = 1.350080e-04 s
Time CPU Kernel Cuda1 Events: 11 Tracks: 3613 Hits: 22010 = 1.311302e-04 s
Time CPU total Cuda1 Events: 11 Tracks: 3613 Hits: 22010 = 6.857970e-01 s

Test for Good
To import-> Hits: 22010, Tracks: 3613 Events: 11
Filter with Good method
Time CPU total Good Events: 11 Tracks: 3613 Hits: 22010 = 5.769730e-04 s

./opencl2.x: /opt/AMDAPPSDK-3.0-0-Beta/lib/x86/libOpenCL.so.1: no version information available (required by ./opencl2.x)
Test for OpenCL
To import-> Hits: 22010, Tracks: 3613 Events: 11
Filter with OpenCL 2
Time GPU Kernel OpenCl2 Events: 11 Tracks: 3613 Hits: 22010 = 0.000165126 s
Time CPU Kernel OpenCl2 Events: 11 Tracks: 3613 Hits: 22010 = 0.000210047 s
Time CPU total OpenCl2 Events: 11 Tracks: 3613 Hits: 22010 = 1.082651e+00 s

./opencl.x: /opt/AMDAPPSDK-3.0-0-Beta/lib/x86/libOpenCL.so.1: no version information available (required by ./opencl.x)
Test for OpenCL
To import-> Hits: 22010, Tracks: 3613 Events: 11
Filter with OpenCL 1
Time GPU Kernel OpenCl1 Events: 11 Tracks: 3613 Hits: 22010 = 0.000216311 s
Time CPU Kernel OpenCl1 Events: 11 Tracks: 3613 Hits: 22010 = 0.00026989 s
Time CPU total OpenCl1 Events: 11 Tracks: 3613 Hits: 22010 = 1.059381e+00 s

-----------------------------
Test for Bad
To import-> Hits: 22930, Tracks: 3745 Events: 12
Filter with Bad method
Time CPU total Bad Events: 12 Tracks: 3745 Hits: 22930 = 1.368999e-03 s

Test for Good
To import-> Hits: 22930, Tracks: 3745 Events: 12
Filter with Cuda 2
Time GPU Kernel Cuda2 Events: 12 Tracks: 3745 Hits: 22930 = 1.181440e-04 s
Time CPU Kernel Cuda2 Events: 12 Tracks: 3745 Hits: 22930 = 1.149178e-04 s
Time CPU total Cuda2 Events: 12 Tracks: 3745 Hits: 22930 = 6.828749e-01 s

Test for Good
To import-> Hits: 22930, Tracks: 3745 Events: 12
Filter with Cuda 1
Time GPU Kernel Cuda1 Events: 12 Tracks: 3745 Hits: 22930 = 1.363200e-04 s
Time CPU Kernel Cuda1 Events: 12 Tracks: 3745 Hits: 22930 = 1.318455e-04 s
Time CPU total Cuda1 Events: 12 Tracks: 3745 Hits: 22930 = 6.905429e-01 s

Test for Good
To import-> Hits: 22930, Tracks: 3745 Events: 12
Filter with Good method
Time CPU total Good Events: 12 Tracks: 3745 Hits: 22930 = 6.089211e-04 s

./opencl2.x: /opt/AMDAPPSDK-3.0-0-Beta/lib/x86/libOpenCL.so.1: no version information available (required by ./opencl2.x)
Test for OpenCL
To import-> Hits: 22930, Tracks: 3745 Events: 12
Filter with OpenCL 2
Time GPU Kernel OpenCl2 Events: 12 Tracks: 3745 Hits: 22930 = 0.000195617 s
Time CPU Kernel OpenCl2 Events: 12 Tracks: 3745 Hits: 22930 = 0.000257015 s
Time CPU total OpenCl2 Events: 12 Tracks: 3745 Hits: 22930 = 1.068387e+00 s

./opencl.x: /opt/AMDAPPSDK-3.0-0-Beta/lib/x86/libOpenCL.so.1: no version information available (required by ./opencl.x)
Test for OpenCL
To import-> Hits: 22930, Tracks: 3745 Events: 12
Filter with OpenCL 1
Time GPU Kernel OpenCl1 Events: 12 Tracks: 3745 Hits: 22930 = 0.000246384 s
Time CPU Kernel OpenCl1 Events: 12 Tracks: 3745 Hits: 22930 = 0.000298977 s
Time CPU total OpenCl1 Events: 12 Tracks: 3745 Hits: 22930 = 1.026763e+00 s

-----------------------------
Test for Bad
To import-> Hits: 27034, Tracks: 4414 Events: 13
Filter with Bad method
Time CPU total Bad Events: 13 Tracks: 4414 Hits: 27034 = 1.630068e-03 s

Test for Good
To import-> Hits: 27034, Tracks: 4414 Events: 13
Filter with Cuda 2
Time GPU Kernel Cuda2 Events: 13 Tracks: 4414 Hits: 27034 = 1.230720e-04 s
Time CPU Kernel Cuda2 Events: 13 Tracks: 4414 Hits: 27034 = 1.199245e-04 s
Time CPU total Cuda2 Events: 13 Tracks: 4414 Hits: 27034 = 6.877511e-01 s

Test for Good
To import-> Hits: 27034, Tracks: 4414 Events: 13
Filter with Cuda 1
Time GPU Kernel Cuda1 Events: 13 Tracks: 4414 Hits: 27034 = 1.416960e-04 s
Time CPU Kernel Cuda1 Events: 13 Tracks: 4414 Hits: 27034 = 1.368523e-04 s
Time CPU total Cuda1 Events: 13 Tracks: 4414 Hits: 27034 = 9.494832e-01 s

Test for Good
To import-> Hits: 27034, Tracks: 4414 Events: 13
Filter with Good method
Time CPU total Good Events: 13 Tracks: 4414 Hits: 27034 = 7.200241e-04 s

./opencl2.x: /opt/AMDAPPSDK-3.0-0-Beta/lib/x86/libOpenCL.so.1: no version information available (required by ./opencl2.x)
Test for OpenCL
To import-> Hits: 27034, Tracks: 4414 Events: 13
Filter with OpenCL 2
Time GPU Kernel OpenCl2 Events: 13 Tracks: 4414 Hits: 27034 = 0.000570737 s
Time CPU Kernel OpenCl2 Events: 13 Tracks: 4414 Hits: 27034 = 0.000619888 s
Time CPU total OpenCl2 Events: 13 Tracks: 4414 Hits: 27034 = 1.113317e+00 s

./opencl.x: /opt/AMDAPPSDK-3.0-0-Beta/lib/x86/libOpenCL.so.1: no version information available (required by ./opencl.x)
Test for OpenCL
To import-> Hits: 27034, Tracks: 4414 Events: 13
Filter with OpenCL 1
Time GPU Kernel OpenCl1 Events: 13 Tracks: 4414 Hits: 27034 = 0.000198616 s
Time CPU Kernel OpenCl1 Events: 13 Tracks: 4414 Hits: 27034 = 0.000246048 s
Time CPU total OpenCl1 Events: 13 Tracks: 4414 Hits: 27034 = 1.005948e+00 s

-----------------------------
Test for Bad
To import-> Hits: 28064, Tracks: 4587 Events: 14
Filter with Bad method
Time CPU total Bad Events: 14 Tracks: 4587 Hits: 28064 = 1.721144e-03 s

Test for Good
To import-> Hits: 28064, Tracks: 4587 Events: 14
Filter with Cuda 2
Time GPU Kernel Cuda2 Events: 14 Tracks: 4587 Hits: 28064 = 1.392320e-04 s
Time CPU Kernel Cuda2 Events: 14 Tracks: 4587 Hits: 28064 = 1.349449e-04 s
Time CPU total Cuda2 Events: 14 Tracks: 4587 Hits: 28064 = 6.877348e-01 s

Test for Good
To import-> Hits: 28064, Tracks: 4587 Events: 14
Filter with Cuda 1
Time GPU Kernel Cuda1 Events: 14 Tracks: 4587 Hits: 28064 = 1.408960e-04 s
Time CPU Kernel Cuda1 Events: 14 Tracks: 4587 Hits: 28064 = 1.380444e-04 s
Time CPU total Cuda1 Events: 14 Tracks: 4587 Hits: 28064 = 6.854279e-01 s

Test for Good
To import-> Hits: 28064, Tracks: 4587 Events: 14
Filter with Good method
Time CPU total Good Events: 14 Tracks: 4587 Hits: 28064 = 7.548332e-04 s

./opencl2.x: /opt/AMDAPPSDK-3.0-0-Beta/lib/x86/libOpenCL.so.1: no version information available (required by ./opencl2.x)
Test for OpenCL
To import-> Hits: 28064, Tracks: 4587 Events: 14
Filter with OpenCL 2
Time GPU Kernel OpenCl2 Events: 14 Tracks: 4587 Hits: 28064 = 0.000224479 s
Time CPU Kernel OpenCl2 Events: 14 Tracks: 4587 Hits: 28064 = 0.000332117 s
Time CPU total OpenCl2 Events: 14 Tracks: 4587 Hits: 28064 = 1.058404e+00 s

./opencl.x: /opt/AMDAPPSDK-3.0-0-Beta/lib/x86/libOpenCL.so.1: no version information available (required by ./opencl.x)
Test for OpenCL
To import-> Hits: 28064, Tracks: 4587 Events: 14
Filter with OpenCL 1
Time GPU Kernel OpenCl1 Events: 14 Tracks: 4587 Hits: 28064 = 0.000228802 s
Time CPU Kernel OpenCl1 Events: 14 Tracks: 4587 Hits: 28064 = 0.000277996 s
Time CPU total OpenCl1 Events: 14 Tracks: 4587 Hits: 28064 = 1.001148e+00 s

-----------------------------
Test for Bad
To import-> Hits: 30895, Tracks: 5044 Events: 15
Filter with Bad method
Time CPU total Bad Events: 15 Tracks: 5044 Hits: 30895 = 1.749992e-03 s

Test for Good
To import-> Hits: 30895, Tracks: 5044 Events: 15
Filter with Cuda 2
Time GPU Kernel Cuda2 Events: 15 Tracks: 5044 Hits: 30895 = 1.352320e-04 s
Time CPU Kernel Cuda2 Events: 15 Tracks: 5044 Hits: 30895 = 1.311302e-04 s
Time CPU total Cuda2 Events: 15 Tracks: 5044 Hits: 30895 = 7.022769e-01 s

Test for Good
To import-> Hits: 30895, Tracks: 5044 Events: 15
Filter with Cuda 1
Time GPU Kernel Cuda1 Events: 15 Tracks: 5044 Hits: 30895 = 1.494080e-04 s
Time CPU Kernel Cuda1 Events: 15 Tracks: 5044 Hits: 30895 = 1.449585e-04 s
Time CPU total Cuda1 Events: 15 Tracks: 5044 Hits: 30895 = 6.813979e-01 s

Test for Good
To import-> Hits: 30895, Tracks: 5044 Events: 15
Filter with Good method
Time CPU total Good Events: 15 Tracks: 5044 Hits: 30895 = 8.330345e-04 s

./opencl2.x: /opt/AMDAPPSDK-3.0-0-Beta/lib/x86/libOpenCL.so.1: no version information available (required by ./opencl2.x)
Test for OpenCL
To import-> Hits: 30895, Tracks: 5044 Events: 15
Filter with OpenCL 2
Time GPU Kernel OpenCl2 Events: 15 Tracks: 5044 Hits: 30895 = 0.000213628 s
Time CPU Kernel OpenCl2 Events: 15 Tracks: 5044 Hits: 30895 = 0.000261068 s
Time CPU total OpenCl2 Events: 15 Tracks: 5044 Hits: 30895 = 1.120854e+00 s

./opencl.x: /opt/AMDAPPSDK-3.0-0-Beta/lib/x86/libOpenCL.so.1: no version information available (required by ./opencl.x)
Test for OpenCL
To import-> Hits: 30895, Tracks: 5044 Events: 15
Filter with OpenCL 1
Time GPU Kernel OpenCl1 Events: 15 Tracks: 5044 Hits: 30895 = 0.000239089 s
Time CPU Kernel OpenCl1 Events: 15 Tracks: 5044 Hits: 30895 = 0.000287056 s
Time CPU total OpenCl1 Events: 15 Tracks: 5044 Hits: 30895 = 1.003560e+00 s

-----------------------------
Test for Bad
To import-> Hits: 31449, Tracks: 5141 Events: 16
Filter with Bad method
Time CPU total Bad Events: 16 Tracks: 5141 Hits: 31449 = 1.903057e-03 s

Test for Good
To import-> Hits: 31449, Tracks: 5141 Events: 16
Filter with Cuda 2
Time GPU Kernel Cuda2 Events: 16 Tracks: 5141 Hits: 31449 = 1.389120e-04 s
Time CPU Kernel Cuda2 Events: 16 Tracks: 5141 Hits: 31449 = 1.349449e-04 s
Time CPU total Cuda2 Events: 16 Tracks: 5141 Hits: 31449 = 6.813068e-01 s

Test for Good
To import-> Hits: 31449, Tracks: 5141 Events: 16
Filter with Cuda 1
Time GPU Kernel Cuda1 Events: 16 Tracks: 5141 Hits: 31449 = 1.490880e-04 s
Time CPU Kernel Cuda1 Events: 16 Tracks: 5141 Hits: 31449 = 1.449585e-04 s
Time CPU total Cuda1 Events: 16 Tracks: 5141 Hits: 31449 = 6.852372e-01 s

Test for Good
To import-> Hits: 31449, Tracks: 5141 Events: 16
Filter with Good method
Time CPU total Good Events: 16 Tracks: 5141 Hits: 31449 = 8.277893e-04 s

./opencl2.x: /opt/AMDAPPSDK-3.0-0-Beta/lib/x86/libOpenCL.so.1: no version information available (required by ./opencl2.x)
Test for OpenCL
To import-> Hits: 31449, Tracks: 5141 Events: 16
Filter with OpenCL 2
Time GPU Kernel OpenCl2 Events: 16 Tracks: 5141 Hits: 31449 = 0.000221602 s
Time CPU Kernel OpenCl2 Events: 16 Tracks: 5141 Hits: 31449 = 0.000272036 s
Time CPU total OpenCl2 Events: 16 Tracks: 5141 Hits: 31449 = 1.116077e+00 s

./opencl.x: /opt/AMDAPPSDK-3.0-0-Beta/lib/x86/libOpenCL.so.1: no version information available (required by ./opencl.x)
Test for OpenCL
To import-> Hits: 31449, Tracks: 5141 Events: 16
Filter with OpenCL 1
Time GPU Kernel OpenCl1 Events: 16 Tracks: 5141 Hits: 31449 = 0.000252093 s
Time CPU Kernel OpenCl1 Events: 16 Tracks: 5141 Hits: 31449 = 0.000300884 s
Time CPU total OpenCl1 Events: 16 Tracks: 5141 Hits: 31449 = 1.021680e+00 s

-----------------------------
Test for Bad
To import-> Hits: 32810, Tracks: 5353 Events: 17
Filter with Bad method
Time CPU total Bad Events: 17 Tracks: 5353 Hits: 32810 = 1.654863e-03 s

Test for Good
To import-> Hits: 32810, Tracks: 5353 Events: 17
Filter with Cuda 2
Time GPU Kernel Cuda2 Events: 17 Tracks: 5353 Hits: 32810 = 1.428800e-04 s
Time CPU Kernel Cuda2 Events: 17 Tracks: 5353 Hits: 32810 = 1.358986e-04 s
Time CPU total Cuda2 Events: 17 Tracks: 5353 Hits: 32810 = 6.892281e-01 s

Test for Good
To import-> Hits: 32810, Tracks: 5353 Events: 17
Filter with Cuda 1
Time GPU Kernel Cuda1 Events: 17 Tracks: 5353 Hits: 32810 = 1.549120e-04 s
Time CPU Kernel Cuda1 Events: 17 Tracks: 5353 Hits: 32810 = 1.511574e-04 s
Time CPU total Cuda1 Events: 17 Tracks: 5353 Hits: 32810 = 6.880050e-01 s

Test for Good
To import-> Hits: 32810, Tracks: 5353 Events: 17
Filter with Good method
Time CPU total Good Events: 17 Tracks: 5353 Hits: 32810 = 8.900166e-04 s

./opencl2.x: /opt/AMDAPPSDK-3.0-0-Beta/lib/x86/libOpenCL.so.1: no version information available (required by ./opencl2.x)
Test for OpenCL
To import-> Hits: 32810, Tracks: 5353 Events: 17
Filter with OpenCL 2
Time GPU Kernel OpenCl2 Events: 17 Tracks: 5353 Hits: 32810 = 0.000210917 s
Time CPU Kernel OpenCl2 Events: 17 Tracks: 5353 Hits: 32810 = 0.000269175 s
Time CPU total OpenCl2 Events: 17 Tracks: 5353 Hits: 32810 = 1.065495e+00 s

./opencl.x: /opt/AMDAPPSDK-3.0-0-Beta/lib/x86/libOpenCL.so.1: no version information available (required by ./opencl.x)
Test for OpenCL
To import-> Hits: 32810, Tracks: 5353 Events: 17
Filter with OpenCL 1
Time GPU Kernel OpenCl1 Events: 17 Tracks: 5353 Hits: 32810 = 0.000218662 s
Time CPU Kernel OpenCl1 Events: 17 Tracks: 5353 Hits: 32810 = 0.000285149 s
Time CPU total OpenCl1 Events: 17 Tracks: 5353 Hits: 32810 = 9.999230e-01 s

-----------------------------
Test for Bad
To import-> Hits: 35226, Tracks: 5750 Events: 18
Filter with Bad method
Time CPU total Bad Events: 18 Tracks: 5750 Hits: 35226 = 1.833916e-03 s

Test for Good
To import-> Hits: 35226, Tracks: 5750 Events: 18
Filter with Cuda 2
Time GPU Kernel Cuda2 Events: 18 Tracks: 5750 Hits: 35226 = 1.432320e-04 s
Time CPU Kernel Cuda2 Events: 18 Tracks: 5750 Hits: 35226 = 1.389980e-04 s
Time CPU total Cuda2 Events: 18 Tracks: 5750 Hits: 35226 = 6.937668e-01 s

Test for Good
To import-> Hits: 35226, Tracks: 5750 Events: 18
Filter with Cuda 1
Time GPU Kernel Cuda1 Events: 18 Tracks: 5750 Hits: 35226 = 1.605760e-04 s
Time CPU Kernel Cuda1 Events: 18 Tracks: 5750 Hits: 35226 = 1.559258e-04 s
Time CPU total Cuda1 Events: 18 Tracks: 5750 Hits: 35226 = 6.876631e-01 s

Test for Good
To import-> Hits: 35226, Tracks: 5750 Events: 18
Filter with Good method
Time CPU total Good Events: 18 Tracks: 5750 Hits: 35226 = 9.350777e-04 s

./opencl2.x: /opt/AMDAPPSDK-3.0-0-Beta/lib/x86/libOpenCL.so.1: no version information available (required by ./opencl2.x)
Test for OpenCL
To import-> Hits: 35226, Tracks: 5750 Events: 18
Filter with OpenCL 2
Time GPU Kernel OpenCl2 Events: 18 Tracks: 5750 Hits: 35226 = 0.000221224 s
Time CPU Kernel OpenCl2 Events: 18 Tracks: 5750 Hits: 35226 = 0.000298023 s
Time CPU total OpenCl2 Events: 18 Tracks: 5750 Hits: 35226 = 1.057860e+00 s

./opencl.x: /opt/AMDAPPSDK-3.0-0-Beta/lib/x86/libOpenCL.so.1: no version information available (required by ./opencl.x)
Test for OpenCL
To import-> Hits: 35226, Tracks: 5750 Events: 18
Filter with OpenCL 1
Time GPU Kernel OpenCl1 Events: 18 Tracks: 5750 Hits: 35226 = 0.000226402 s
Time CPU Kernel OpenCl1 Events: 18 Tracks: 5750 Hits: 35226 = 0.000310183 s
Time CPU total OpenCl1 Events: 18 Tracks: 5750 Hits: 35226 = 9.814270e-01 s

-----------------------------
Test for Bad
To import-> Hits: 38329, Tracks: 6260 Events: 19
Filter with Bad method
Time CPU total Bad Events: 19 Tracks: 6260 Hits: 38329 = 1.986980e-03 s

Test for Good
To import-> Hits: 38329, Tracks: 6260 Events: 19
Filter with Cuda 2
Time GPU Kernel Cuda2 Events: 19 Tracks: 6260 Hits: 38329 = 1.424000e-04 s
Time CPU Kernel Cuda2 Events: 19 Tracks: 6260 Hits: 38329 = 1.380444e-04 s
Time CPU total Cuda2 Events: 19 Tracks: 6260 Hits: 38329 = 6.879680e-01 s

Test for Good
To import-> Hits: 38329, Tracks: 6260 Events: 19
Filter with Cuda 1
Time GPU Kernel Cuda1 Events: 19 Tracks: 6260 Hits: 38329 = 1.648000e-04 s
Time CPU Kernel Cuda1 Events: 19 Tracks: 6260 Hits: 38329 = 1.609325e-04 s
Time CPU total Cuda1 Events: 19 Tracks: 6260 Hits: 38329 = 6.862791e-01 s

Test for Good
To import-> Hits: 38329, Tracks: 6260 Events: 19
Filter with Good method
Time CPU total Good Events: 19 Tracks: 6260 Hits: 38329 = 1.015902e-03 s

./opencl2.x: /opt/AMDAPPSDK-3.0-0-Beta/lib/x86/libOpenCL.so.1: no version information available (required by ./opencl2.x)
Test for OpenCL
To import-> Hits: 38329, Tracks: 6260 Events: 19
Filter with OpenCL 2
Time GPU Kernel OpenCl2 Events: 19 Tracks: 6260 Hits: 38329 = 0.000203398 s
Time CPU Kernel OpenCl2 Events: 19 Tracks: 6260 Hits: 38329 = 0.000255823 s
Time CPU total OpenCl2 Events: 19 Tracks: 6260 Hits: 38329 = 1.049856e+00 s

./opencl.x: /opt/AMDAPPSDK-3.0-0-Beta/lib/x86/libOpenCL.so.1: no version information available (required by ./opencl.x)
Test for OpenCL
To import-> Hits: 38329, Tracks: 6260 Events: 19
Filter with OpenCL 1
Time GPU Kernel OpenCl1 Events: 19 Tracks: 6260 Hits: 38329 = 0.000224673 s
Time CPU Kernel OpenCl1 Events: 19 Tracks: 6260 Hits: 38329 = 0.000299931 s
Time CPU total OpenCl1 Events: 19 Tracks: 6260 Hits: 38329 = 1.072879e+00 s

-----------------------------
Test for Bad
To import-> Hits: 40004, Tracks: 6560 Events: 20
Filter with Bad method
Time CPU total Bad Events: 20 Tracks: 6560 Hits: 40004 = 2.101898e-03 s

Test for Good
To import-> Hits: 40004, Tracks: 6560 Events: 20
Filter with Cuda 2
Time GPU Kernel Cuda2 Events: 20 Tracks: 6560 Hits: 40004 = 1.430080e-04 s
Time CPU Kernel Cuda2 Events: 20 Tracks: 6560 Hits: 40004 = 1.378059e-04 s
Time CPU total Cuda2 Events: 20 Tracks: 6560 Hits: 40004 = 6.929750e-01 s

Test for Good
To import-> Hits: 40004, Tracks: 6560 Events: 20
Filter with Cuda 1
Time GPU Kernel Cuda1 Events: 20 Tracks: 6560 Hits: 40004 = 1.678720e-04 s
Time CPU Kernel Cuda1 Events: 20 Tracks: 6560 Hits: 40004 = 1.621246e-04 s
Time CPU total Cuda1 Events: 20 Tracks: 6560 Hits: 40004 = 6.830170e-01 s

Test for Good
To import-> Hits: 40004, Tracks: 6560 Events: 20
Filter with Good method
Time CPU total Good Events: 20 Tracks: 6560 Hits: 40004 = 1.064062e-03 s

./opencl2.x: /opt/AMDAPPSDK-3.0-0-Beta/lib/x86/libOpenCL.so.1: no version information available (required by ./opencl2.x)
Test for OpenCL
To import-> Hits: 40004, Tracks: 6560 Events: 20
Filter with OpenCL 2
Time GPU Kernel OpenCl2 Events: 20 Tracks: 6560 Hits: 40004 = 0.0002503 s
Time CPU Kernel OpenCl2 Events: 20 Tracks: 6560 Hits: 40004 = 0.000349998 s
Time CPU total OpenCl2 Events: 20 Tracks: 6560 Hits: 40004 = 1.133468e+00 s

./opencl.x: /opt/AMDAPPSDK-3.0-0-Beta/lib/x86/libOpenCL.so.1: no version information available (required by ./opencl.x)
Test for OpenCL
To import-> Hits: 40004, Tracks: 6560 Events: 20
Filter with OpenCL 1
Time GPU Kernel OpenCl1 Events: 20 Tracks: 6560 Hits: 40004 = 0.000280724 s
Time CPU Kernel OpenCl1 Events: 20 Tracks: 6560 Hits: 40004 = 0.000329971 s
Time CPU total OpenCl1 Events: 20 Tracks: 6560 Hits: 40004 = 1.006542e+00 s

-----------------------------
Test for Bad
To import-> Hits: 57158, Tracks: 9310 Events: 30
Filter with Bad method
Time CPU total Bad Events: 30 Tracks: 9310 Hits: 57158 = 3.333807e-03 s

Test for Good
To import-> Hits: 57158, Tracks: 9310 Events: 30
Filter with Cuda 2
Time GPU Kernel Cuda2 Events: 30 Tracks: 9310 Hits: 57158 = 1.800000e-04 s
Time CPU Kernel Cuda2 Events: 30 Tracks: 9310 Hits: 57158 = 1.728535e-04 s
Time CPU total Cuda2 Events: 30 Tracks: 9310 Hits: 57158 = 6.904831e-01 s

Test for Good
To import-> Hits: 57158, Tracks: 9310 Events: 30
Filter with Cuda 1
Time GPU Kernel Cuda1 Events: 30 Tracks: 9310 Hits: 57158 = 2.086080e-04 s
Time CPU Kernel Cuda1 Events: 30 Tracks: 9310 Hits: 57158 = 2.031326e-04 s
Time CPU total Cuda1 Events: 30 Tracks: 9310 Hits: 57158 = 6.809640e-01 s

Test for Good
To import-> Hits: 57158, Tracks: 9310 Events: 30
Filter with Good method
Time CPU total Good Events: 30 Tracks: 9310 Hits: 57158 = 1.511097e-03 s

./opencl2.x: /opt/AMDAPPSDK-3.0-0-Beta/lib/x86/libOpenCL.so.1: no version information available (required by ./opencl2.x)
Test for OpenCL
To import-> Hits: 57158, Tracks: 9310 Events: 30
Filter with OpenCL 2
Time GPU Kernel OpenCl2 Events: 30 Tracks: 9310 Hits: 57158 = 0.000286473 s
Time CPU Kernel OpenCl2 Events: 30 Tracks: 9310 Hits: 57158 = 0.000325918 s
Time CPU total OpenCl2 Events: 30 Tracks: 9310 Hits: 57158 = 1.071866e+00 s

./opencl.x: /opt/AMDAPPSDK-3.0-0-Beta/lib/x86/libOpenCL.so.1: no version information available (required by ./opencl.x)
Test for OpenCL
To import-> Hits: 57158, Tracks: 9310 Events: 30
Filter with OpenCL 1
Time GPU Kernel OpenCl1 Events: 30 Tracks: 9310 Hits: 57158 = 0.000261755 s
Time CPU Kernel OpenCl1 Events: 30 Tracks: 9310 Hits: 57158 = 0.000322104 s
Time CPU total OpenCl1 Events: 30 Tracks: 9310 Hits: 57158 = 1.010516e+00 s

-----------------------------
Test for Bad
To import-> Hits: 75953, Tracks: 12174 Events: 40
Filter with Bad method
Time CPU total Bad Events: 40 Tracks: 12174 Hits: 75953 = 3.758192e-03 s

Test for Good
To import-> Hits: 75953, Tracks: 12174 Events: 40
Filter with Cuda 2
Time GPU Kernel Cuda2 Events: 40 Tracks: 12174 Hits: 75953 = 2.108800e-04 s
Time CPU Kernel Cuda2 Events: 40 Tracks: 12174 Hits: 75953 = 2.069473e-04 s
Time CPU total Cuda2 Events: 40 Tracks: 12174 Hits: 75953 = 6.838799e-01 s

Test for Good
To import-> Hits: 75953, Tracks: 12174 Events: 40
Filter with Cuda 1
Time GPU Kernel Cuda1 Events: 40 Tracks: 12174 Hits: 75953 = 2.432640e-04 s
Time CPU Kernel Cuda1 Events: 40 Tracks: 12174 Hits: 75953 = 2.381802e-04 s
Time CPU total Cuda1 Events: 40 Tracks: 12174 Hits: 75953 = 6.885991e-01 s

Test for Good
To import-> Hits: 75953, Tracks: 12174 Events: 40
Filter with Good method
Time CPU total Good Events: 40 Tracks: 12174 Hits: 75953 = 1.987934e-03 s

./opencl2.x: /opt/AMDAPPSDK-3.0-0-Beta/lib/x86/libOpenCL.so.1: no version information available (required by ./opencl2.x)
Test for OpenCL
To import-> Hits: 75953, Tracks: 12174 Events: 40
Filter with OpenCL 2
Time GPU Kernel OpenCl2 Events: 40 Tracks: 12174 Hits: 75953 = 0.0003591 s
Time CPU Kernel OpenCl2 Events: 40 Tracks: 12174 Hits: 75953 = 0.00041914 s
Time CPU total OpenCl2 Events: 40 Tracks: 12174 Hits: 75953 = 1.109922e+00 s

./opencl.x: /opt/AMDAPPSDK-3.0-0-Beta/lib/x86/libOpenCL.so.1: no version information available (required by ./opencl.x)
Test for OpenCL
To import-> Hits: 75953, Tracks: 12174 Events: 40
Filter with OpenCL 1
Time GPU Kernel OpenCl1 Events: 40 Tracks: 12174 Hits: 75953 = 0.000272002 s
Time CPU Kernel OpenCl1 Events: 40 Tracks: 12174 Hits: 75953 = 0.000341177 s
Time CPU total OpenCl1 Events: 40 Tracks: 12174 Hits: 75953 = 1.046380e+00 s

-----------------------------
Test for Bad
To import-> Hits: 93663, Tracks: 15024 Events: 50
Filter with Bad method
Time CPU total Bad Events: 50 Tracks: 15024 Hits: 93663 = 4.960060e-03 s

Test for Good
To import-> Hits: 93663, Tracks: 15024 Events: 50
Filter with Cuda 2
Time GPU Kernel Cuda2 Events: 50 Tracks: 15024 Hits: 93663 = 2.302080e-04 s
Time CPU Kernel Cuda2 Events: 50 Tracks: 15024 Hits: 93663 = 2.269745e-04 s
Time CPU total Cuda2 Events: 50 Tracks: 15024 Hits: 93663 = 6.892400e-01 s

Test for Good
To import-> Hits: 93663, Tracks: 15024 Events: 50
Filter with Cuda 1
Time GPU Kernel Cuda1 Events: 50 Tracks: 15024 Hits: 93663 = 2.695680e-04 s
Time CPU Kernel Cuda1 Events: 50 Tracks: 15024 Hits: 93663 = 2.658367e-04 s
Time CPU total Cuda1 Events: 50 Tracks: 15024 Hits: 93663 = 6.896300e-01 s

Test for Good
To import-> Hits: 93663, Tracks: 15024 Events: 50
Filter with Good method
Time CPU total Good Events: 50 Tracks: 15024 Hits: 93663 = 2.474070e-03 s

./opencl2.x: /opt/AMDAPPSDK-3.0-0-Beta/lib/x86/libOpenCL.so.1: no version information available (required by ./opencl2.x)
Test for OpenCL
To import-> Hits: 93663, Tracks: 15024 Events: 50
Filter with OpenCL 2
Time GPU Kernel OpenCl2 Events: 50 Tracks: 15024 Hits: 93663 = 0.000459933 s
Time CPU Kernel OpenCl2 Events: 50 Tracks: 15024 Hits: 93663 = 0.000540018 s
Time CPU total OpenCl2 Events: 50 Tracks: 15024 Hits: 93663 = 1.093720e+00 s

./opencl.x: /opt/AMDAPPSDK-3.0-0-Beta/lib/x86/libOpenCL.so.1: no version information available (required by ./opencl.x)
Test for OpenCL
To import-> Hits: 93663, Tracks: 15024 Events: 50
Filter with OpenCL 1
Time GPU Kernel OpenCl1 Events: 50 Tracks: 15024 Hits: 93663 = 0.000389938 s
Time CPU Kernel OpenCl1 Events: 50 Tracks: 15024 Hits: 93663 = 0.000447989 s
Time CPU total OpenCl1 Events: 50 Tracks: 15024 Hits: 93663 = 1.017710e+00 s

-----------------------------
Test for Bad
To import-> Hits: 114400, Tracks: 18356 Events: 60
Filter with Bad method
Time CPU total Bad Events: 60 Tracks: 18356 Hits: 114400 = 6.515980e-03 s

Test for Good
To import-> Hits: 114400, Tracks: 18356 Events: 60
Filter with Cuda 2
Time GPU Kernel Cuda2 Events: 60 Tracks: 18356 Hits: 114400 = 2.506880e-04 s
Time CPU Kernel Cuda2 Events: 60 Tracks: 18356 Hits: 114400 = 2.501011e-04 s
Time CPU total Cuda2 Events: 60 Tracks: 18356 Hits: 114400 = 6.910620e-01 s

Test for Good
To import-> Hits: 114400, Tracks: 18356 Events: 60
Filter with Cuda 1
Time GPU Kernel Cuda1 Events: 60 Tracks: 18356 Hits: 114400 = 2.994880e-04 s
Time CPU Kernel Cuda1 Events: 60 Tracks: 18356 Hits: 114400 = 2.980232e-04 s
Time CPU total Cuda1 Events: 60 Tracks: 18356 Hits: 114400 = 6.867309e-01 s

Test for Good
To import-> Hits: 114400, Tracks: 18356 Events: 60
Filter with Good method
Time CPU total Good Events: 60 Tracks: 18356 Hits: 114400 = 3.023148e-03 s

./opencl2.x: /opt/AMDAPPSDK-3.0-0-Beta/lib/x86/libOpenCL.so.1: no version information available (required by ./opencl2.x)
Test for OpenCL
To import-> Hits: 114400, Tracks: 18356 Events: 60
Filter with OpenCL 2
Time GPU Kernel OpenCl2 Events: 60 Tracks: 18356 Hits: 114400 = 0.000509132 s
Time CPU Kernel OpenCl2 Events: 60 Tracks: 18356 Hits: 114400 = 0.000561953 s
Time CPU total OpenCl2 Events: 60 Tracks: 18356 Hits: 114400 = 1.073411e+00 s

./opencl.x: /opt/AMDAPPSDK-3.0-0-Beta/lib/x86/libOpenCL.so.1: no version information available (required by ./opencl.x)
Test for OpenCL
To import-> Hits: 114400, Tracks: 18356 Events: 60
Filter with OpenCL 1
Time GPU Kernel OpenCl1 Events: 60 Tracks: 18356 Hits: 114400 = 0.000361102 s
Time CPU Kernel OpenCl1 Events: 60 Tracks: 18356 Hits: 114400 = 0.000459909 s
Time CPU total OpenCl1 Events: 60 Tracks: 18356 Hits: 114400 = 1.047377e+00 s

-----------------------------
Test for Bad
To import-> Hits: 135212, Tracks: 21691 Events: 70
Filter with Bad method
Time CPU total Bad Events: 70 Tracks: 21691 Hits: 135212 = 6.385088e-03 s

Test for Good
To import-> Hits: 135212, Tracks: 21691 Events: 70
Filter with Cuda 2
Time GPU Kernel Cuda2 Events: 70 Tracks: 21691 Hits: 135212 = 2.751040e-04 s
Time CPU Kernel Cuda2 Events: 70 Tracks: 21691 Hits: 135212 = 2.760887e-04 s
Time CPU total Cuda2 Events: 70 Tracks: 21691 Hits: 135212 = 6.976988e-01 s

Test for Good
To import-> Hits: 135212, Tracks: 21691 Events: 70
Filter with Cuda 1
Time GPU Kernel Cuda1 Events: 70 Tracks: 21691 Hits: 135212 = 3.338560e-04 s
Time CPU Kernel Cuda1 Events: 70 Tracks: 21691 Hits: 135212 = 3.328323e-04 s
Time CPU total Cuda1 Events: 70 Tracks: 21691 Hits: 135212 = 6.670258e-01 s

Test for Good
To import-> Hits: 135212, Tracks: 21691 Events: 70
Filter with Good method
Time CPU total Good Events: 70 Tracks: 21691 Hits: 135212 = 3.537893e-03 s

./opencl2.x: /opt/AMDAPPSDK-3.0-0-Beta/lib/x86/libOpenCL.so.1: no version information available (required by ./opencl2.x)
Test for OpenCL
To import-> Hits: 135212, Tracks: 21691 Events: 70
Filter with OpenCL 2
Time GPU Kernel OpenCl2 Events: 70 Tracks: 21691 Hits: 135212 = 0.000355323 s
Time CPU Kernel OpenCl2 Events: 70 Tracks: 21691 Hits: 135212 = 0.000402927 s
Time CPU total OpenCl2 Events: 70 Tracks: 21691 Hits: 135212 = 1.124931e+00 s

./opencl.x: /opt/AMDAPPSDK-3.0-0-Beta/lib/x86/libOpenCL.so.1: no version information available (required by ./opencl.x)
Test for OpenCL
To import-> Hits: 135212, Tracks: 21691 Events: 70
Filter with OpenCL 1
Time GPU Kernel OpenCl1 Events: 70 Tracks: 21691 Hits: 135212 = 0.00023869 s
Time CPU Kernel OpenCl1 Events: 70 Tracks: 21691 Hits: 135212 = 0.000392199 s
Time CPU total OpenCl1 Events: 70 Tracks: 21691 Hits: 135212 = 1.060964e+00 s

-----------------------------
Test for Bad
To import-> Hits: 155915, Tracks: 24967 Events: 80
Filter with Bad method
Time CPU total Bad Events: 80 Tracks: 24967 Hits: 155915 = 7.661104e-03 s

Test for Good
To import-> Hits: 155915, Tracks: 24967 Events: 80
Filter with Cuda 2
Time GPU Kernel Cuda2 Events: 80 Tracks: 24967 Hits: 155915 = 3.129280e-04 s
Time CPU Kernel Cuda2 Events: 80 Tracks: 24967 Hits: 155915 = 3.149509e-04 s
Time CPU total Cuda2 Events: 80 Tracks: 24967 Hits: 155915 = 6.930242e-01 s

Test for Good
To import-> Hits: 155915, Tracks: 24967 Events: 80
Filter with Cuda 1
Time GPU Kernel Cuda1 Events: 80 Tracks: 24967 Hits: 155915 = 3.732480e-04 s
Time CPU Kernel Cuda1 Events: 80 Tracks: 24967 Hits: 155915 = 3.740788e-04 s
Time CPU total Cuda1 Events: 80 Tracks: 24967 Hits: 155915 = 6.983249e-01 s

Test for Good
To import-> Hits: 155915, Tracks: 24967 Events: 80
Filter with Good method
Time CPU total Good Events: 80 Tracks: 24967 Hits: 155915 = 4.019976e-03 s

./opencl2.x: /opt/AMDAPPSDK-3.0-0-Beta/lib/x86/libOpenCL.so.1: no version information available (required by ./opencl2.x)
Test for OpenCL
To import-> Hits: 155915, Tracks: 24967 Events: 80
Filter with OpenCL 2
Time GPU Kernel OpenCl2 Events: 80 Tracks: 24967 Hits: 155915 = 0.000306068 s
Time CPU Kernel OpenCl2 Events: 80 Tracks: 24967 Hits: 155915 = 0.000358105 s
Time CPU total OpenCl2 Events: 80 Tracks: 24967 Hits: 155915 = 1.081414e+00 s

./opencl.x: /opt/AMDAPPSDK-3.0-0-Beta/lib/x86/libOpenCL.so.1: no version information available (required by ./opencl.x)
Test for OpenCL
To import-> Hits: 155915, Tracks: 24967 Events: 80
Filter with OpenCL 1
Time GPU Kernel OpenCl1 Events: 80 Tracks: 24967 Hits: 155915 = 0.000734197 s
Time CPU Kernel OpenCl1 Events: 80 Tracks: 24967 Hits: 155915 = 0.000792027 s
Time CPU total OpenCl1 Events: 80 Tracks: 24967 Hits: 155915 = 1.038659e+00 s

-----------------------------
Test for Bad
To import-> Hits: 175352, Tracks: 28121 Events: 90
Filter with Bad method
Time CPU total Bad Events: 90 Tracks: 28121 Hits: 175352 = 9.103060e-03 s

Test for Good
To import-> Hits: 175352, Tracks: 28121 Events: 90
Filter with Cuda 2
Time GPU Kernel Cuda2 Events: 90 Tracks: 28121 Hits: 175352 = 3.398720e-04 s
Time CPU Kernel Cuda2 Events: 90 Tracks: 28121 Hits: 175352 = 3.430843e-04 s
Time CPU total Cuda2 Events: 90 Tracks: 28121 Hits: 175352 = 6.960030e-01 s

Test for Good
To import-> Hits: 175352, Tracks: 28121 Events: 90
Filter with Cuda 1
Time GPU Kernel Cuda1 Events: 90 Tracks: 28121 Hits: 175352 = 4.089920e-04 s
Time CPU Kernel Cuda1 Events: 90 Tracks: 28121 Hits: 175352 = 4.110336e-04 s
Time CPU total Cuda1 Events: 90 Tracks: 28121 Hits: 175352 = 6.850369e-01 s

Test for Good
To import-> Hits: 175352, Tracks: 28121 Events: 90
Filter with Good method
Time CPU total Good Events: 90 Tracks: 28121 Hits: 175352 = 4.647970e-03 s

./opencl2.x: /opt/AMDAPPSDK-3.0-0-Beta/lib/x86/libOpenCL.so.1: no version information available (required by ./opencl2.x)
Test for OpenCL
To import-> Hits: 175352, Tracks: 28121 Events: 90
Filter with OpenCL 2
Time GPU Kernel OpenCl2 Events: 90 Tracks: 28121 Hits: 175352 = 0.00037513 s
Time CPU Kernel OpenCl2 Events: 90 Tracks: 28121 Hits: 175352 = 0.000416994 s
Time CPU total OpenCl2 Events: 90 Tracks: 28121 Hits: 175352 = 1.136043e+00 s

./opencl.x: /opt/AMDAPPSDK-3.0-0-Beta/lib/x86/libOpenCL.so.1: no version information available (required by ./opencl.x)
Test for OpenCL
To import-> Hits: 175352, Tracks: 28121 Events: 90
Filter with OpenCL 1
Time GPU Kernel OpenCl1 Events: 90 Tracks: 28121 Hits: 175352 = 0.000403776 s
Time CPU Kernel OpenCl1 Events: 90 Tracks: 28121 Hits: 175352 = 0.000579119 s
Time CPU total OpenCl1 Events: 90 Tracks: 28121 Hits: 175352 = 1.045632e+00 s

-----------------------------
Test for Bad
To import-> Hits: 196714, Tracks: 31506 Events: 100
Filter with Bad method
Time CPU total Bad Events: 100 Tracks: 31506 Hits: 196714 = 1.051402e-02 s

Test for Good
To import-> Hits: 196714, Tracks: 31506 Events: 100
Filter with Cuda 2
Time GPU Kernel Cuda2 Events: 100 Tracks: 31506 Hits: 196714 = 3.616640e-04 s
Time CPU Kernel Cuda2 Events: 100 Tracks: 31506 Hits: 196714 = 3.650188e-04 s
Time CPU total Cuda2 Events: 100 Tracks: 31506 Hits: 196714 = 6.956329e-01 s

Test for Good
To import-> Hits: 196714, Tracks: 31506 Events: 100
Filter with Cuda 1
Time GPU Kernel Cuda1 Events: 100 Tracks: 31506 Hits: 196714 = 4.446400e-04 s
Time CPU Kernel Cuda1 Events: 100 Tracks: 31506 Hits: 196714 = 4.489422e-04 s
Time CPU total Cuda1 Events: 100 Tracks: 31506 Hits: 196714 = 6.903720e-01 s

Test for Good
To import-> Hits: 196714, Tracks: 31506 Events: 100
Filter with Good method
Time CPU total Good Events: 100 Tracks: 31506 Hits: 196714 = 5.247831e-03 s

./opencl2.x: /opt/AMDAPPSDK-3.0-0-Beta/lib/x86/libOpenCL.so.1: no version information available (required by ./opencl2.x)
Test for OpenCL
To import-> Hits: 196714, Tracks: 31506 Events: 100
Filter with OpenCL 2
Time GPU Kernel OpenCl2 Events: 100 Tracks: 31506 Hits: 196714 = 0.000735888 s
Time CPU Kernel OpenCl2 Events: 100 Tracks: 31506 Hits: 196714 = 0.000779867 s
Time CPU total OpenCl2 Events: 100 Tracks: 31506 Hits: 196714 = 1.025491e+00 s

./opencl.x: /opt/AMDAPPSDK-3.0-0-Beta/lib/x86/libOpenCL.so.1: no version information available (required by ./opencl.x)
Test for OpenCL
To import-> Hits: 196714, Tracks: 31506 Events: 100
Filter with OpenCL 1
Time GPU Kernel OpenCl1 Events: 100 Tracks: 31506 Hits: 196714 = 0.000448327 s
Time CPU Kernel OpenCl1 Events: 100 Tracks: 31506 Hits: 196714 = 0.00049901 s
Time CPU total OpenCl1 Events: 100 Tracks: 31506 Hits: 196714 = 1.012392e+00 s

-----------------------------
Test for Bad
To import-> Hits: 214801, Tracks: 34413 Events: 110
Filter with Bad method
Time CPU total Bad Events: 110 Tracks: 34413 Hits: 214801 = 1.182699e-02 s

Test for Good
To import-> Hits: 214801, Tracks: 34413 Events: 110
Filter with Cuda 2
Time GPU Kernel Cuda2 Events: 110 Tracks: 34413 Hits: 214801 = 3.937280e-04 s
Time CPU Kernel Cuda2 Events: 110 Tracks: 34413 Hits: 214801 = 3.981590e-04 s
Time CPU total Cuda2 Events: 110 Tracks: 34413 Hits: 214801 = 6.986301e-01 s

Test for Good
To import-> Hits: 214801, Tracks: 34413 Events: 110
Filter with Cuda 1
Time GPU Kernel Cuda1 Events: 110 Tracks: 34413 Hits: 214801 = 4.808000e-04 s
Time CPU Kernel Cuda1 Events: 110 Tracks: 34413 Hits: 214801 = 4.849434e-04 s
Time CPU total Cuda1 Events: 110 Tracks: 34413 Hits: 214801 = 6.915960e-01 s

Test for Good
To import-> Hits: 214801, Tracks: 34413 Events: 110
Filter with Good method
Time CPU total Good Events: 110 Tracks: 34413 Hits: 214801 = 5.657196e-03 s

./opencl2.x: /opt/AMDAPPSDK-3.0-0-Beta/lib/x86/libOpenCL.so.1: no version information available (required by ./opencl2.x)
Test for OpenCL
To import-> Hits: 214801, Tracks: 34413 Events: 110
Filter with OpenCL 2
Time GPU Kernel OpenCl2 Events: 110 Tracks: 34413 Hits: 214801 = 0.000667438 s
Time CPU Kernel OpenCl2 Events: 110 Tracks: 34413 Hits: 214801 = 0.00088501 s
Time CPU total OpenCl2 Events: 110 Tracks: 34413 Hits: 214801 = 1.084961e+00 s

./opencl.x: /opt/AMDAPPSDK-3.0-0-Beta/lib/x86/libOpenCL.so.1: no version information available (required by ./opencl.x)
Test for OpenCL
To import-> Hits: 214801, Tracks: 34413 Events: 110
Filter with OpenCL 1
Time GPU Kernel OpenCl1 Events: 110 Tracks: 34413 Hits: 214801 = 0.000424912 s
Time CPU Kernel OpenCl1 Events: 110 Tracks: 34413 Hits: 214801 = 0.000482082 s
Time CPU total OpenCl1 Events: 110 Tracks: 34413 Hits: 214801 = 1.045959e+00 s

-----------------------------
Test for Bad
To import-> Hits: 233881, Tracks: 37459 Events: 120
Filter with Bad method
Time CPU total Bad Events: 120 Tracks: 37459 Hits: 233881 = 1.310396e-02 s

Test for Good
To import-> Hits: 233881, Tracks: 37459 Events: 120
Filter with Cuda 2
Time GPU Kernel Cuda2 Events: 120 Tracks: 37459 Hits: 233881 = 4.247040e-04 s
Time CPU Kernel Cuda2 Events: 120 Tracks: 37459 Hits: 233881 = 4.289150e-04 s
Time CPU total Cuda2 Events: 120 Tracks: 37459 Hits: 233881 = 6.979840e-01 s

Test for Good
To import-> Hits: 233881, Tracks: 37459 Events: 120
Filter with Cuda 1
Time GPU Kernel Cuda1 Events: 120 Tracks: 37459 Hits: 233881 = 5.204800e-04 s
Time CPU Kernel Cuda1 Events: 120 Tracks: 37459 Hits: 233881 = 5.249977e-04 s
Time CPU total Cuda1 Events: 120 Tracks: 37459 Hits: 233881 = 6.947851e-01 s

Test for Good
To import-> Hits: 233881, Tracks: 37459 Events: 120
Filter with Good method
Time CPU total Good Events: 120 Tracks: 37459 Hits: 233881 = 6.269932e-03 s

./opencl2.x: /opt/AMDAPPSDK-3.0-0-Beta/lib/x86/libOpenCL.so.1: no version information available (required by ./opencl2.x)
Test for OpenCL
To import-> Hits: 233881, Tracks: 37459 Events: 120
Filter with OpenCL 2
Time GPU Kernel OpenCl2 Events: 120 Tracks: 37459 Hits: 233881 = 0.000891913 s
Time CPU Kernel OpenCl2 Events: 120 Tracks: 37459 Hits: 233881 = 0.000965118 s
Time CPU total OpenCl2 Events: 120 Tracks: 37459 Hits: 233881 = 1.088774e+00 s

./opencl.x: /opt/AMDAPPSDK-3.0-0-Beta/lib/x86/libOpenCL.so.1: no version information available (required by ./opencl.x)
Test for OpenCL
To import-> Hits: 233881, Tracks: 37459 Events: 120
Filter with OpenCL 1
Time GPU Kernel OpenCl1 Events: 120 Tracks: 37459 Hits: 233881 = 0.000377133 s
Time CPU Kernel OpenCl1 Events: 120 Tracks: 37459 Hits: 233881 = 0.000427961 s
Time CPU total OpenCl1 Events: 120 Tracks: 37459 Hits: 233881 = 9.831591e-01 s

-----------------------------
Test for Bad
To import-> Hits: 254225, Tracks: 40754 Events: 130
Filter with Bad method
Time CPU total Bad Events: 130 Tracks: 40754 Hits: 254225 = 1.170492e-02 s

Test for Good
To import-> Hits: 254225, Tracks: 40754 Events: 130
Filter with Cuda 2
Time GPU Kernel Cuda2 Events: 130 Tracks: 40754 Hits: 254225 = 4.479360e-04 s
Time CPU Kernel Cuda2 Events: 130 Tracks: 40754 Hits: 254225 = 4.539490e-04 s
Time CPU total Cuda2 Events: 130 Tracks: 40754 Hits: 254225 = 6.994290e-01 s

Test for Good
To import-> Hits: 254225, Tracks: 40754 Events: 130
Filter with Cuda 1
Time GPU Kernel Cuda1 Events: 130 Tracks: 40754 Hits: 254225 = 5.525760e-04 s
Time CPU Kernel Cuda1 Events: 130 Tracks: 40754 Hits: 254225 = 5.588531e-04 s
Time CPU total Cuda1 Events: 130 Tracks: 40754 Hits: 254225 = 6.940160e-01 s

Test for Good
To import-> Hits: 254225, Tracks: 40754 Events: 130
Filter with Good method
Time CPU total Good Events: 130 Tracks: 40754 Hits: 254225 = 6.639957e-03 s

./opencl2.x: /opt/AMDAPPSDK-3.0-0-Beta/lib/x86/libOpenCL.so.1: no version information available (required by ./opencl2.x)
Test for OpenCL
To import-> Hits: 254225, Tracks: 40754 Events: 130
Filter with OpenCL 2
Time GPU Kernel OpenCl2 Events: 130 Tracks: 40754 Hits: 254225 = 0.00044565 s
Time CPU Kernel OpenCl2 Events: 130 Tracks: 40754 Hits: 254225 = 0.000503063 s
Time CPU total OpenCl2 Events: 130 Tracks: 40754 Hits: 254225 = 1.110824e+00 s

./opencl.x: /opt/AMDAPPSDK-3.0-0-Beta/lib/x86/libOpenCL.so.1: no version information available (required by ./opencl.x)
Test for OpenCL
To import-> Hits: 254225, Tracks: 40754 Events: 130
Filter with OpenCL 1
Time GPU Kernel OpenCl1 Events: 130 Tracks: 40754 Hits: 254225 = 0.000528849 s
Time CPU Kernel OpenCl1 Events: 130 Tracks: 40754 Hits: 254225 = 0.000596046 s
Time CPU total OpenCl1 Events: 130 Tracks: 40754 Hits: 254225 = 9.943800e-01 s

-----------------------------
Test for Bad
To import-> Hits: 278857, Tracks: 44705 Events: 140
Filter with Bad method
Time CPU total Bad Events: 140 Tracks: 44705 Hits: 278857 = 1.301217e-02 s

Test for Good
To import-> Hits: 278857, Tracks: 44705 Events: 140
Filter with Cuda 2
Time GPU Kernel Cuda2 Events: 140 Tracks: 44705 Hits: 278857 = 4.877120e-04 s
Time CPU Kernel Cuda2 Events: 140 Tracks: 44705 Hits: 278857 = 4.949570e-04 s
Time CPU total Cuda2 Events: 140 Tracks: 44705 Hits: 278857 = 7.009599e-01 s

Test for Good
To import-> Hits: 278857, Tracks: 44705 Events: 140
Filter with Cuda 1
Time GPU Kernel Cuda1 Events: 140 Tracks: 44705 Hits: 278857 = 6.048960e-04 s
Time CPU Kernel Cuda1 Events: 140 Tracks: 44705 Hits: 278857 = 6.120205e-04 s
Time CPU total Cuda1 Events: 140 Tracks: 44705 Hits: 278857 = 7.052381e-01 s

Test for Good
To import-> Hits: 278857, Tracks: 44705 Events: 140
Filter with Good method
Time CPU total Good Events: 140 Tracks: 44705 Hits: 278857 = 7.351875e-03 s

./opencl2.x: /opt/AMDAPPSDK-3.0-0-Beta/lib/x86/libOpenCL.so.1: no version information available (required by ./opencl2.x)
Test for OpenCL
To import-> Hits: 278857, Tracks: 44705 Events: 140
Filter with OpenCL 2
Time GPU Kernel OpenCl2 Events: 140 Tracks: 44705 Hits: 278857 = 0.000655632 s
Time CPU Kernel OpenCl2 Events: 140 Tracks: 44705 Hits: 278857 = 0.000711918 s
Time CPU total OpenCl2 Events: 140 Tracks: 44705 Hits: 278857 = 1.117397e+00 s

./opencl.x: /opt/AMDAPPSDK-3.0-0-Beta/lib/x86/libOpenCL.so.1: no version information available (required by ./opencl.x)
Test for OpenCL
To import-> Hits: 278857, Tracks: 44705 Events: 140
Filter with OpenCL 1
Time GPU Kernel OpenCl1 Events: 140 Tracks: 44705 Hits: 278857 = 0.000732715 s
Time CPU Kernel OpenCl1 Events: 140 Tracks: 44705 Hits: 278857 = 0.00079608 s
Time CPU total OpenCl1 Events: 140 Tracks: 44705 Hits: 278857 = 9.973021e-01 s

-----------------------------
Test for Bad
To import-> Hits: 299938, Tracks: 48106 Events: 150
Filter with Bad method
Time CPU total Bad Events: 150 Tracks: 48106 Hits: 299938 = 1.416397e-02 s

Test for Good
To import-> Hits: 299938, Tracks: 48106 Events: 150
Filter with Cuda 2
Time GPU Kernel Cuda2 Events: 150 Tracks: 48106 Hits: 299938 = 5.054400e-04 s
Time CPU Kernel Cuda2 Events: 150 Tracks: 48106 Hits: 299938 = 5.149841e-04 s
Time CPU total Cuda2 Events: 150 Tracks: 48106 Hits: 299938 = 7.010119e-01 s

Test for Good
To import-> Hits: 299938, Tracks: 48106 Events: 150
Filter with Cuda 1
Time GPU Kernel Cuda1 Events: 150 Tracks: 48106 Hits: 299938 = 6.350400e-04 s
Time CPU Kernel Cuda1 Events: 150 Tracks: 48106 Hits: 299938 = 6.430149e-04 s
Time CPU total Cuda1 Events: 150 Tracks: 48106 Hits: 299938 = 6.917439e-01 s

Test for Good
To import-> Hits: 299938, Tracks: 48106 Events: 150
Filter with Good method
Time CPU total Good Events: 150 Tracks: 48106 Hits: 299938 = 7.924795e-03 s

./opencl2.x: /opt/AMDAPPSDK-3.0-0-Beta/lib/x86/libOpenCL.so.1: no version information available (required by ./opencl2.x)
Test for OpenCL
To import-> Hits: 299938, Tracks: 48106 Events: 150
Filter with OpenCL 2
Time GPU Kernel OpenCl2 Events: 150 Tracks: 48106 Hits: 299938 = 0.00214633 s
Time CPU Kernel OpenCl2 Events: 150 Tracks: 48106 Hits: 299938 = 0.0022161 s
Time CPU total OpenCl2 Events: 150 Tracks: 48106 Hits: 299938 = 1.099607e+00 s

./opencl.x: /opt/AMDAPPSDK-3.0-0-Beta/lib/x86/libOpenCL.so.1: no version information available (required by ./opencl.x)
Test for OpenCL
To import-> Hits: 299938, Tracks: 48106 Events: 150
Filter with OpenCL 1
Time GPU Kernel OpenCl1 Events: 150 Tracks: 48106 Hits: 299938 = 0.000586305 s
Time CPU Kernel OpenCl1 Events: 150 Tracks: 48106 Hits: 299938 = 0.000638962 s
Time CPU total OpenCl1 Events: 150 Tracks: 48106 Hits: 299938 = 1.067106e+00 s

-----------------------------
Test for Bad
To import-> Hits: 321407, Tracks: 51627 Events: 160
Filter with Bad method
Time CPU total Bad Events: 160 Tracks: 51627 Hits: 321407 = 1.562285e-02 s

Test for Good
To import-> Hits: 321407, Tracks: 51627 Events: 160
Filter with Cuda 2
Time GPU Kernel Cuda2 Events: 160 Tracks: 51627 Hits: 321407 = 5.425600e-04 s
Time CPU Kernel Cuda2 Events: 160 Tracks: 51627 Hits: 321407 = 5.481243e-04 s
Time CPU total Cuda2 Events: 160 Tracks: 51627 Hits: 321407 = 7.000089e-01 s

Test for Good
To import-> Hits: 321407, Tracks: 51627 Events: 160
Filter with Cuda 1
Time GPU Kernel Cuda1 Events: 160 Tracks: 51627 Hits: 321407 = 6.708161e-04 s
Time CPU Kernel Cuda1 Events: 160 Tracks: 51627 Hits: 321407 = 6.790161e-04 s
Time CPU total Cuda1 Events: 160 Tracks: 51627 Hits: 321407 = 6.932809e-01 s

Test for Good
To import-> Hits: 321407, Tracks: 51627 Events: 160
Filter with Good method
Time CPU total Good Events: 160 Tracks: 51627 Hits: 321407 = 8.120060e-03 s

./opencl2.x: /opt/AMDAPPSDK-3.0-0-Beta/lib/x86/libOpenCL.so.1: no version information available (required by ./opencl2.x)
Test for OpenCL
To import-> Hits: 321407, Tracks: 51627 Events: 160
Filter with OpenCL 2
Time GPU Kernel OpenCl2 Events: 160 Tracks: 51627 Hits: 321407 = 0.000796816 s
Time CPU Kernel OpenCl2 Events: 160 Tracks: 51627 Hits: 321407 = 0.000849009 s
Time CPU total OpenCl2 Events: 160 Tracks: 51627 Hits: 321407 = 1.134056e+00 s

./opencl.x: /opt/AMDAPPSDK-3.0-0-Beta/lib/x86/libOpenCL.so.1: no version information available (required by ./opencl.x)
Test for OpenCL
To import-> Hits: 321407, Tracks: 51627 Events: 160
Filter with OpenCL 1
Time GPU Kernel OpenCl1 Events: 160 Tracks: 51627 Hits: 321407 = 0.000575889 s
Time CPU Kernel OpenCl1 Events: 160 Tracks: 51627 Hits: 321407 = 0.000626087 s
Time CPU total OpenCl1 Events: 160 Tracks: 51627 Hits: 321407 = 1.052921e+00 s

-----------------------------
Test for Bad
To import-> Hits: 339287, Tracks: 54445 Events: 170
Filter with Bad method
Time CPU total Bad Events: 170 Tracks: 54445 Hits: 339287 = 1.665902e-02 s

Test for Good
To import-> Hits: 339287, Tracks: 54445 Events: 170
Filter with Cuda 2
Time GPU Kernel Cuda2 Events: 170 Tracks: 54445 Hits: 339287 = 5.643201e-04 s
Time CPU Kernel Cuda2 Events: 170 Tracks: 54445 Hits: 339287 = 5.750656e-04 s
Time CPU total Cuda2 Events: 170 Tracks: 54445 Hits: 339287 = 6.993699e-01 s

Test for Good
To import-> Hits: 339287, Tracks: 54445 Events: 170
Filter with Cuda 1
Time GPU Kernel Cuda1 Events: 170 Tracks: 54445 Hits: 339287 = 7.109760e-04 s
Time CPU Kernel Cuda1 Events: 170 Tracks: 54445 Hits: 339287 = 7.181168e-04 s
Time CPU total Cuda1 Events: 170 Tracks: 54445 Hits: 339287 = 6.919730e-01 s

Test for Good
To import-> Hits: 339287, Tracks: 54445 Events: 170
Filter with Good method
Time CPU total Good Events: 170 Tracks: 54445 Hits: 339287 = 8.058071e-03 s

./opencl2.x: /opt/AMDAPPSDK-3.0-0-Beta/lib/x86/libOpenCL.so.1: no version information available (required by ./opencl2.x)
Test for OpenCL
To import-> Hits: 339287, Tracks: 54445 Events: 170
Filter with OpenCL 2
Time GPU Kernel OpenCl2 Events: 170 Tracks: 54445 Hits: 339287 = 0.000722255 s
Time CPU Kernel OpenCl2 Events: 170 Tracks: 54445 Hits: 339287 = 0.000812054 s
Time CPU total OpenCl2 Events: 170 Tracks: 54445 Hits: 339287 = 1.154910e+00 s

./opencl.x: /opt/AMDAPPSDK-3.0-0-Beta/lib/x86/libOpenCL.so.1: no version information available (required by ./opencl.x)
Test for OpenCL
To import-> Hits: 339287, Tracks: 54445 Events: 170
Filter with OpenCL 1
Time GPU Kernel OpenCl1 Events: 170 Tracks: 54445 Hits: 339287 = 0.00404257 s
Time CPU Kernel OpenCl1 Events: 170 Tracks: 54445 Hits: 339287 = 0.00414801 s
Time CPU total OpenCl1 Events: 170 Tracks: 54445 Hits: 339287 = 1.027243e+00 s

-----------------------------
Test for Bad
To import-> Hits: 357414, Tracks: 57335 Events: 180
Filter with Bad method
Time CPU total Bad Events: 180 Tracks: 57335 Hits: 357414 = 1.801801e-02 s

Test for Good
To import-> Hits: 357414, Tracks: 57335 Events: 180
Filter with Cuda 2
Time GPU Kernel Cuda2 Events: 180 Tracks: 57335 Hits: 357414 = 5.881280e-04 s
Time CPU Kernel Cuda2 Events: 180 Tracks: 57335 Hits: 357414 = 5.991459e-04 s
Time CPU total Cuda2 Events: 180 Tracks: 57335 Hits: 357414 = 6.921620e-01 s

Test for Good
To import-> Hits: 357414, Tracks: 57335 Events: 180
Filter with Cuda 1
Time GPU Kernel Cuda1 Events: 180 Tracks: 57335 Hits: 357414 = 7.389761e-04 s
Time CPU Kernel Cuda1 Events: 180 Tracks: 57335 Hits: 357414 = 7.510185e-04 s
Time CPU total Cuda1 Events: 180 Tracks: 57335 Hits: 357414 = 7.035761e-01 s

Test for Good
To import-> Hits: 357414, Tracks: 57335 Events: 180
Filter with Good method
Time CPU total Good Events: 180 Tracks: 57335 Hits: 357414 = 9.043932e-03 s

./opencl2.x: /opt/AMDAPPSDK-3.0-0-Beta/lib/x86/libOpenCL.so.1: no version information available (required by ./opencl2.x)
Test for OpenCL
To import-> Hits: 357414, Tracks: 57335 Events: 180
Filter with OpenCL 2
Time GPU Kernel OpenCl2 Events: 180 Tracks: 57335 Hits: 357414 = 0.00300676 s
Time CPU Kernel OpenCl2 Events: 180 Tracks: 57335 Hits: 357414 = 0.00308895 s
Time CPU total OpenCl2 Events: 180 Tracks: 57335 Hits: 357414 = 1.072684e+00 s

./opencl.x: /opt/AMDAPPSDK-3.0-0-Beta/lib/x86/libOpenCL.so.1: no version information available (required by ./opencl.x)
Test for OpenCL
To import-> Hits: 357414, Tracks: 57335 Events: 180
Filter with OpenCL 1
Time GPU Kernel OpenCl1 Events: 180 Tracks: 57335 Hits: 357414 = 0.00273054 s
Time CPU Kernel OpenCl1 Events: 180 Tracks: 57335 Hits: 357414 = 0.00286102 s
Time CPU total OpenCl1 Events: 180 Tracks: 57335 Hits: 357414 = 1.016400e+00 s

-----------------------------
Test for Bad
To import-> Hits: 377316, Tracks: 60572 Events: 190
Filter with Bad method
Time CPU total Bad Events: 190 Tracks: 60572 Hits: 377316 = 1.946807e-02 s

Test for Good
To import-> Hits: 377316, Tracks: 60572 Events: 190
Filter with Cuda 2
Time GPU Kernel Cuda2 Events: 190 Tracks: 60572 Hits: 377316 = 6.165440e-04 s
Time CPU Kernel Cuda2 Events: 190 Tracks: 60572 Hits: 377316 = 6.289482e-04 s
Time CPU total Cuda2 Events: 190 Tracks: 60572 Hits: 377316 = 6.971838e-01 s

Test for Good
To import-> Hits: 377316, Tracks: 60572 Events: 190
Filter with Cuda 1
Time GPU Kernel Cuda1 Events: 190 Tracks: 60572 Hits: 377316 = 7.697601e-04 s
Time CPU Kernel Cuda1 Events: 190 Tracks: 60572 Hits: 377316 = 7.820129e-04 s
Time CPU total Cuda1 Events: 190 Tracks: 60572 Hits: 377316 = 6.998842e-01 s

Test for Good
To import-> Hits: 377316, Tracks: 60572 Events: 190
Filter with Good method
Time CPU total Good Events: 190 Tracks: 60572 Hits: 377316 = 1.003313e-02 s

./opencl2.x: /opt/AMDAPPSDK-3.0-0-Beta/lib/x86/libOpenCL.so.1: no version information available (required by ./opencl2.x)
Test for OpenCL
To import-> Hits: 377316, Tracks: 60572 Events: 190
Filter with OpenCL 2
Time GPU Kernel OpenCl2 Events: 190 Tracks: 60572 Hits: 377316 = 0.000672266 s
Time CPU Kernel OpenCl2 Events: 190 Tracks: 60572 Hits: 377316 = 0.000727892 s
Time CPU total OpenCl2 Events: 190 Tracks: 60572 Hits: 377316 = 1.046818e+00 s

./opencl.x: /opt/AMDAPPSDK-3.0-0-Beta/lib/x86/libOpenCL.so.1: no version information available (required by ./opencl.x)
Test for OpenCL
To import-> Hits: 377316, Tracks: 60572 Events: 190
Filter with OpenCL 1
Time GPU Kernel OpenCl1 Events: 190 Tracks: 60572 Hits: 377316 = 0.000595047 s
Time CPU Kernel OpenCl1 Events: 190 Tracks: 60572 Hits: 377316 = 0.000658035 s
Time CPU total OpenCl1 Events: 190 Tracks: 60572 Hits: 377316 = 1.073765e+00 s

-----------------------------
Test for Bad
To import-> Hits: 398354, Tracks: 63921 Events: 200
Filter with Bad method
Time CPU total Bad Events: 200 Tracks: 63921 Hits: 398354 = 2.121997e-02 s

Test for Good
To import-> Hits: 398354, Tracks: 63921 Events: 200
Filter with Cuda 2
Time GPU Kernel Cuda2 Events: 200 Tracks: 63921 Hits: 398354 = 6.480641e-04 s
Time CPU Kernel Cuda2 Events: 200 Tracks: 63921 Hits: 398354 = 6.611347e-04 s
Time CPU total Cuda2 Events: 200 Tracks: 63921 Hits: 398354 = 6.971262e-01 s

Test for Good
To import-> Hits: 398354, Tracks: 63921 Events: 200
Filter with Cuda 1
Time GPU Kernel Cuda1 Events: 200 Tracks: 63921 Hits: 398354 = 8.143361e-04 s
Time CPU Kernel Cuda1 Events: 200 Tracks: 63921 Hits: 398354 = 8.280277e-04 s
Time CPU total Cuda1 Events: 200 Tracks: 63921 Hits: 398354 = 7.082288e-01 s

Test for Good
To import-> Hits: 398354, Tracks: 63921 Events: 200
Filter with Good method
Time CPU total Good Events: 200 Tracks: 63921 Hits: 398354 = 1.027703e-02 s

./opencl2.x: /opt/AMDAPPSDK-3.0-0-Beta/lib/x86/libOpenCL.so.1: no version information available (required by ./opencl2.x)
Test for OpenCL
To import-> Hits: 398354, Tracks: 63921 Events: 200
Filter with OpenCL 2
Time GPU Kernel OpenCl2 Events: 200 Tracks: 63921 Hits: 398354 = 0.00202149 s
Time CPU Kernel OpenCl2 Events: 200 Tracks: 63921 Hits: 398354 = 0.00209188 s
Time CPU total OpenCl2 Events: 200 Tracks: 63921 Hits: 398354 = 1.125186e+00 s

./opencl.x: /opt/AMDAPPSDK-3.0-0-Beta/lib/x86/libOpenCL.so.1: no version information available (required by ./opencl.x)
Test for OpenCL
To import-> Hits: 398354, Tracks: 63921 Events: 200
Filter with OpenCL 1
Time GPU Kernel OpenCl1 Events: 200 Tracks: 63921 Hits: 398354 = 0.0007689 s
Time CPU Kernel OpenCl1 Events: 200 Tracks: 63921 Hits: 398354 = 0.000823021 s
Time CPU total OpenCl1 Events: 200 Tracks: 63921 Hits: 398354 = 1.027168e+00 s

-----------------------------
Test for Bad
To import-> Hits: 416406, Tracks: 66802 Events: 210
Filter with Bad method
Time CPU total Bad Events: 210 Tracks: 66802 Hits: 416406 = 2.227879e-02 s

Test for Good
To import-> Hits: 416406, Tracks: 66802 Events: 210
Filter with Cuda 2
Time GPU Kernel Cuda2 Events: 210 Tracks: 66802 Hits: 416406 = 6.786240e-04 s
Time CPU Kernel Cuda2 Events: 210 Tracks: 66802 Hits: 416406 = 6.918907e-04 s
Time CPU total Cuda2 Events: 210 Tracks: 66802 Hits: 416406 = 7.012150e-01 s

Test for Good
To import-> Hits: 416406, Tracks: 66802 Events: 210
Filter with Cuda 1
Time GPU Kernel Cuda1 Events: 210 Tracks: 66802 Hits: 416406 = 8.607361e-04 s
Time CPU Kernel Cuda1 Events: 210 Tracks: 66802 Hits: 416406 = 8.749962e-04 s
Time CPU total Cuda1 Events: 210 Tracks: 66802 Hits: 416406 = 6.959851e-01 s

Test for Good
To import-> Hits: 416406, Tracks: 66802 Events: 210
Filter with Good method
Time CPU total Good Events: 210 Tracks: 66802 Hits: 416406 = 1.049781e-02 s

./opencl2.x: /opt/AMDAPPSDK-3.0-0-Beta/lib/x86/libOpenCL.so.1: no version information available (required by ./opencl2.x)
Test for OpenCL
To import-> Hits: 416406, Tracks: 66802 Events: 210
Filter with OpenCL 2
Time GPU Kernel OpenCl2 Events: 210 Tracks: 66802 Hits: 416406 = 0.000753454 s
Time CPU Kernel OpenCl2 Events: 210 Tracks: 66802 Hits: 416406 = 0.000935078 s
Time CPU total OpenCl2 Events: 210 Tracks: 66802 Hits: 416406 = 1.079722e+00 s

./opencl.x: /opt/AMDAPPSDK-3.0-0-Beta/lib/x86/libOpenCL.so.1: no version information available (required by ./opencl.x)
Test for OpenCL
To import-> Hits: 416406, Tracks: 66802 Events: 210
Filter with OpenCL 1
Time GPU Kernel OpenCl1 Events: 210 Tracks: 66802 Hits: 416406 = 0.000666157 s
Time CPU Kernel OpenCl1 Events: 210 Tracks: 66802 Hits: 416406 = 0.000717878 s
Time CPU total OpenCl1 Events: 210 Tracks: 66802 Hits: 416406 = 1.021224e+00 s

-----------------------------
Test for Bad
To import-> Hits: 435132, Tracks: 69786 Events: 220
Filter with Bad method
Time CPU total Bad Events: 220 Tracks: 69786 Hits: 435132 = 2.395797e-02 s

Test for Good
To import-> Hits: 435132, Tracks: 69786 Events: 220
Filter with Cuda 2
Time GPU Kernel Cuda2 Events: 220 Tracks: 69786 Hits: 435132 = 7.046080e-04 s
Time CPU Kernel Cuda2 Events: 220 Tracks: 69786 Hits: 435132 = 7.200241e-04 s
Time CPU total Cuda2 Events: 220 Tracks: 69786 Hits: 435132 = 7.044621e-01 s

Test for Good
To import-> Hits: 435132, Tracks: 69786 Events: 220
Filter with Cuda 1
Time GPU Kernel Cuda1 Events: 220 Tracks: 69786 Hits: 435132 = 8.828480e-04 s
Time CPU Kernel Cuda1 Events: 220 Tracks: 69786 Hits: 435132 = 8.978844e-04 s
Time CPU total Cuda1 Events: 220 Tracks: 69786 Hits: 435132 = 7.006750e-01 s

Test for Good
To import-> Hits: 435132, Tracks: 69786 Events: 220
Filter with Good method
Time CPU total Good Events: 220 Tracks: 69786 Hits: 435132 = 1.104808e-02 s

./opencl2.x: /opt/AMDAPPSDK-3.0-0-Beta/lib/x86/libOpenCL.so.1: no version information available (required by ./opencl2.x)
Test for OpenCL
To import-> Hits: 435132, Tracks: 69786 Events: 220
Filter with OpenCL 2
Time GPU Kernel OpenCl2 Events: 220 Tracks: 69786 Hits: 435132 = 0.00334729 s
Time CPU Kernel OpenCl2 Events: 220 Tracks: 69786 Hits: 435132 = 0.003443 s
Time CPU total OpenCl2 Events: 220 Tracks: 69786 Hits: 435132 = 1.102731e+00 s

./opencl.x: /opt/AMDAPPSDK-3.0-0-Beta/lib/x86/libOpenCL.so.1: no version information available (required by ./opencl.x)
Test for OpenCL
To import-> Hits: 435132, Tracks: 69786 Events: 220
Filter with OpenCL 1
Time GPU Kernel OpenCl1 Events: 220 Tracks: 69786 Hits: 435132 = 0.000817962 s
Time CPU Kernel OpenCl1 Events: 220 Tracks: 69786 Hits: 435132 = 0.000989914 s
Time CPU total OpenCl1 Events: 220 Tracks: 69786 Hits: 435132 = 1.017836e+00 s

-----------------------------
Test for Bad
To import-> Hits: 452586, Tracks: 72547 Events: 230
Filter with Bad method
Time CPU total Bad Events: 230 Tracks: 72547 Hits: 452586 = 2.483988e-02 s

Test for Good
To import-> Hits: 452586, Tracks: 72547 Events: 230
Filter with Cuda 2
Time GPU Kernel Cuda2 Events: 230 Tracks: 72547 Hits: 452586 = 7.298241e-04 s
Time CPU Kernel Cuda2 Events: 230 Tracks: 72547 Hits: 452586 = 7.460117e-04 s
Time CPU total Cuda2 Events: 230 Tracks: 72547 Hits: 452586 = 7.074108e-01 s

Test for Good
To import-> Hits: 452586, Tracks: 72547 Events: 230
Filter with Cuda 1
Time GPU Kernel Cuda1 Events: 230 Tracks: 72547 Hits: 452586 = 9.204801e-04 s
Time CPU Kernel Cuda1 Events: 230 Tracks: 72547 Hits: 452586 = 9.379387e-04 s
Time CPU total Cuda1 Events: 230 Tracks: 72547 Hits: 452586 = 6.971941e-01 s

Test for Good
To import-> Hits: 452586, Tracks: 72547 Events: 230
Filter with Good method
Time CPU total Good Events: 230 Tracks: 72547 Hits: 452586 = 1.105404e-02 s

./opencl2.x: /opt/AMDAPPSDK-3.0-0-Beta/lib/x86/libOpenCL.so.1: no version information available (required by ./opencl2.x)
Test for OpenCL
To import-> Hits: 452586, Tracks: 72547 Events: 230
Filter with OpenCL 2
Time GPU Kernel OpenCl2 Events: 230 Tracks: 72547 Hits: 452586 = 0.00191422 s
Time CPU Kernel OpenCl2 Events: 230 Tracks: 72547 Hits: 452586 = 0.00198698 s
Time CPU total OpenCl2 Events: 230 Tracks: 72547 Hits: 452586 = 1.128937e+00 s

./opencl.x: /opt/AMDAPPSDK-3.0-0-Beta/lib/x86/libOpenCL.so.1: no version information available (required by ./opencl.x)
Test for OpenCL
To import-> Hits: 452586, Tracks: 72547 Events: 230
Filter with OpenCL 1
Time GPU Kernel OpenCl1 Events: 230 Tracks: 72547 Hits: 452586 = 0.00249005 s
Time CPU Kernel OpenCl1 Events: 230 Tracks: 72547 Hits: 452586 = 0.00256205 s
Time CPU total OpenCl1 Events: 230 Tracks: 72547 Hits: 452586 = 1.017327e+00 s

-----------------------------
Test for Bad
To import-> Hits: 474872, Tracks: 76144 Events: 240
Filter with Bad method
Time CPU total Bad Events: 240 Tracks: 76144 Hits: 474872 = 2.649593e-02 s

Test for Good
To import-> Hits: 474872, Tracks: 76144 Events: 240
Filter with Cuda 2
Time GPU Kernel Cuda2 Events: 240 Tracks: 76144 Hits: 474872 = 7.459521e-04 s
Time CPU Kernel Cuda2 Events: 240 Tracks: 76144 Hits: 474872 = 7.638931e-04 s
Time CPU total Cuda2 Events: 240 Tracks: 76144 Hits: 474872 = 6.964831e-01 s

Test for Good
To import-> Hits: 474872, Tracks: 76144 Events: 240
Filter with Cuda 1
Time GPU Kernel Cuda1 Events: 240 Tracks: 76144 Hits: 474872 = 9.489601e-04 s
Time CPU Kernel Cuda1 Events: 240 Tracks: 76144 Hits: 474872 = 9.667873e-04 s
Time CPU total Cuda1 Events: 240 Tracks: 76144 Hits: 474872 = 6.956921e-01 s

Test for Good
To import-> Hits: 474872, Tracks: 76144 Events: 240
Filter with Good method
Time CPU total Good Events: 240 Tracks: 76144 Hits: 474872 = 1.265597e-02 s

./opencl2.x: /opt/AMDAPPSDK-3.0-0-Beta/lib/x86/libOpenCL.so.1: no version information available (required by ./opencl2.x)
Test for OpenCL
To import-> Hits: 474872, Tracks: 76144 Events: 240
Filter with OpenCL 2
Time GPU Kernel OpenCl2 Events: 240 Tracks: 76144 Hits: 474872 = 0.00139023 s
Time CPU Kernel OpenCl2 Events: 240 Tracks: 76144 Hits: 474872 = 0.00151515 s
Time CPU total OpenCl2 Events: 240 Tracks: 76144 Hits: 474872 = 1.072817e+00 s

./opencl.x: /opt/AMDAPPSDK-3.0-0-Beta/lib/x86/libOpenCL.so.1: no version information available (required by ./opencl.x)
Test for OpenCL
To import-> Hits: 474872, Tracks: 76144 Events: 240
Filter with OpenCL 1
Time GPU Kernel OpenCl1 Events: 240 Tracks: 76144 Hits: 474872 = 0.00230729 s
Time CPU Kernel OpenCl1 Events: 240 Tracks: 76144 Hits: 474872 = 0.00237203 s
Time CPU total OpenCl1 Events: 240 Tracks: 76144 Hits: 474872 = 1.026213e+00 s

-----------------------------
Test for Bad
To import-> Hits: 493810, Tracks: 79172 Events: 250
Filter with Bad method
Time CPU total Bad Events: 250 Tracks: 79172 Hits: 493810 = 2.763391e-02 s

Test for Good
To import-> Hits: 493810, Tracks: 79172 Events: 250
Filter with Cuda 2
Time GPU Kernel Cuda2 Events: 250 Tracks: 79172 Hits: 493810 = 7.749440e-04 s
Time CPU Kernel Cuda2 Events: 250 Tracks: 79172 Hits: 493810 = 7.929802e-04 s
Time CPU total Cuda2 Events: 250 Tracks: 79172 Hits: 493810 = 7.844129e-01 s

Test for Good
To import-> Hits: 493810, Tracks: 79172 Events: 250
Filter with Cuda 1
Time GPU Kernel Cuda1 Events: 250 Tracks: 79172 Hits: 493810 = 9.808961e-04 s
Time CPU Kernel Cuda1 Events: 250 Tracks: 79172 Hits: 493810 = 9.977818e-04 s
Time CPU total Cuda1 Events: 250 Tracks: 79172 Hits: 493810 = 7.017121e-01 s

Test for Good
To import-> Hits: 493810, Tracks: 79172 Events: 250
Filter with Good method
Time CPU total Good Events: 250 Tracks: 79172 Hits: 493810 = 1.264501e-02 s

./opencl2.x: /opt/AMDAPPSDK-3.0-0-Beta/lib/x86/libOpenCL.so.1: no version information available (required by ./opencl2.x)
Test for OpenCL
To import-> Hits: 493810, Tracks: 79172 Events: 250
Filter with OpenCL 2
Time GPU Kernel OpenCl2 Events: 250 Tracks: 79172 Hits: 493810 = 0.00255363 s
Time CPU Kernel OpenCl2 Events: 250 Tracks: 79172 Hits: 493810 = 0.00264812 s
Time CPU total OpenCl2 Events: 250 Tracks: 79172 Hits: 493810 = 1.128012e+00 s

./opencl.x: /opt/AMDAPPSDK-3.0-0-Beta/lib/x86/libOpenCL.so.1: no version information available (required by ./opencl.x)
Test for OpenCL
To import-> Hits: 493810, Tracks: 79172 Events: 250
Filter with OpenCL 1
Time GPU Kernel OpenCl1 Events: 250 Tracks: 79172 Hits: 493810 = 0.00241871 s
Time CPU Kernel OpenCl1 Events: 250 Tracks: 79172 Hits: 493810 = 0.00248909 s
Time CPU total OpenCl1 Events: 250 Tracks: 79172 Hits: 493810 = 1.033292e+00 s

-----------------------------
Test for Bad
To import-> Hits: 514314, Tracks: 82444 Events: 260
Filter with Bad method
Time CPU total Bad Events: 260 Tracks: 82444 Hits: 514314 = 2.435088e-02 s

Test for Good
To import-> Hits: 514314, Tracks: 82444 Events: 260
Filter with Cuda 2
Time GPU Kernel Cuda2 Events: 260 Tracks: 82444 Hits: 514314 = 8.176641e-04 s
Time CPU Kernel Cuda2 Events: 260 Tracks: 82444 Hits: 514314 = 8.368492e-04 s
Time CPU total Cuda2 Events: 260 Tracks: 82444 Hits: 514314 = 7.191212e-01 s

Test for Good
To import-> Hits: 514314, Tracks: 82444 Events: 260
Filter with Cuda 1
Time GPU Kernel Cuda1 Events: 260 Tracks: 82444 Hits: 514314 = 1.020128e-03 s
Time CPU Kernel Cuda1 Events: 260 Tracks: 82444 Hits: 514314 = 1.039028e-03 s
Time CPU total Cuda1 Events: 260 Tracks: 82444 Hits: 514314 = 7.003100e-01 s

Test for Good
To import-> Hits: 514314, Tracks: 82444 Events: 260
Filter with Good method
Time CPU total Good Events: 260 Tracks: 82444 Hits: 514314 = 1.357102e-02 s

./opencl2.x: /opt/AMDAPPSDK-3.0-0-Beta/lib/x86/libOpenCL.so.1: no version information available (required by ./opencl2.x)
Test for OpenCL
To import-> Hits: 514314, Tracks: 82444 Events: 260
Filter with OpenCL 2
Time GPU Kernel OpenCl2 Events: 260 Tracks: 82444 Hits: 514314 = 0.00105723 s
Time CPU Kernel OpenCl2 Events: 260 Tracks: 82444 Hits: 514314 = 0.00111604 s
Time CPU total OpenCl2 Events: 260 Tracks: 82444 Hits: 514314 = 1.068632e+00 s

./opencl.x: /opt/AMDAPPSDK-3.0-0-Beta/lib/x86/libOpenCL.so.1: no version information available (required by ./opencl.x)
Test for OpenCL
To import-> Hits: 514314, Tracks: 82444 Events: 260
Filter with OpenCL 1
Time GPU Kernel OpenCl1 Events: 260 Tracks: 82444 Hits: 514314 = 0.000870777 s
Time CPU Kernel OpenCl1 Events: 260 Tracks: 82444 Hits: 514314 = 0.0009799 s
Time CPU total OpenCl1 Events: 260 Tracks: 82444 Hits: 514314 = 1.039888e+00 s

-----------------------------
Test for Bad
To import-> Hits: 534537, Tracks: 85661 Events: 270
Filter with Bad method
Time CPU total Bad Events: 270 Tracks: 85661 Hits: 534537 = 2.520514e-02 s

Test for Good
To import-> Hits: 534537, Tracks: 85661 Events: 270
Filter with Cuda 2
Time GPU Kernel Cuda2 Events: 270 Tracks: 85661 Hits: 534537 = 8.304641e-04 s
Time CPU Kernel Cuda2 Events: 270 Tracks: 85661 Hits: 534537 = 8.490086e-04 s
Time CPU total Cuda2 Events: 270 Tracks: 85661 Hits: 534537 = 6.986198e-01 s

Test for Good
To import-> Hits: 534537, Tracks: 85661 Events: 270
Filter with Cuda 1
Time GPU Kernel Cuda1 Events: 270 Tracks: 85661 Hits: 534537 = 1.057952e-03 s
Time CPU Kernel Cuda1 Events: 270 Tracks: 85661 Hits: 534537 = 1.079082e-03 s
Time CPU total Cuda1 Events: 270 Tracks: 85661 Hits: 534537 = 7.006068e-01 s

Test for Good
To import-> Hits: 534537, Tracks: 85661 Events: 270
Filter with Good method
Time CPU total Good Events: 270 Tracks: 85661 Hits: 534537 = 1.367688e-02 s

./opencl2.x: /opt/AMDAPPSDK-3.0-0-Beta/lib/x86/libOpenCL.so.1: no version information available (required by ./opencl2.x)
Test for OpenCL
To import-> Hits: 534537, Tracks: 85661 Events: 270
Filter with OpenCL 2
Time GPU Kernel OpenCl2 Events: 270 Tracks: 85661 Hits: 534537 = 0.00139542 s
Time CPU Kernel OpenCl2 Events: 270 Tracks: 85661 Hits: 534537 = 0.00145316 s
Time CPU total OpenCl2 Events: 270 Tracks: 85661 Hits: 534537 = 1.077957e+00 s

./opencl.x: /opt/AMDAPPSDK-3.0-0-Beta/lib/x86/libOpenCL.so.1: no version information available (required by ./opencl.x)
Test for OpenCL
To import-> Hits: 534537, Tracks: 85661 Events: 270
Filter with OpenCL 1
Time GPU Kernel OpenCl1 Events: 270 Tracks: 85661 Hits: 534537 = 0.00179782 s
Time CPU Kernel OpenCl1 Events: 270 Tracks: 85661 Hits: 534537 = 0.00189686 s
Time CPU total OpenCl1 Events: 270 Tracks: 85661 Hits: 534537 = 1.030584e+00 s

-----------------------------
Test for Bad
To import-> Hits: 557160, Tracks: 89234 Events: 280
Filter with Bad method
Time CPU total Bad Events: 280 Tracks: 89234 Hits: 557160 = 2.648592e-02 s

Test for Good
To import-> Hits: 557160, Tracks: 89234 Events: 280
Filter with Cuda 2
Time GPU Kernel Cuda2 Events: 280 Tracks: 89234 Hits: 557160 = 8.595840e-04 s
Time CPU Kernel Cuda2 Events: 280 Tracks: 89234 Hits: 557160 = 8.809566e-04 s
Time CPU total Cuda2 Events: 280 Tracks: 89234 Hits: 557160 = 7.029521e-01 s

Test for Good
To import-> Hits: 557160, Tracks: 89234 Events: 280
Filter with Cuda 1
Time GPU Kernel Cuda1 Events: 280 Tracks: 89234 Hits: 557160 = 1.102208e-03 s
Time CPU Kernel Cuda1 Events: 280 Tracks: 89234 Hits: 557160 = 1.123905e-03 s
Time CPU total Cuda1 Events: 280 Tracks: 89234 Hits: 557160 = 7.016468e-01 s

Test for Good
To import-> Hits: 557160, Tracks: 89234 Events: 280
Filter with Good method
Time CPU total Good Events: 280 Tracks: 89234 Hits: 557160 = 1.418710e-02 s

./opencl2.x: /opt/AMDAPPSDK-3.0-0-Beta/lib/x86/libOpenCL.so.1: no version information available (required by ./opencl2.x)
Test for OpenCL
To import-> Hits: 557160, Tracks: 89234 Events: 280
Filter with OpenCL 2
Time GPU Kernel OpenCl2 Events: 280 Tracks: 89234 Hits: 557160 = 0.00218903 s
Time CPU Kernel OpenCl2 Events: 280 Tracks: 89234 Hits: 557160 = 0.00228286 s
Time CPU total OpenCl2 Events: 280 Tracks: 89234 Hits: 557160 = 1.094472e+00 s

./opencl.x: /opt/AMDAPPSDK-3.0-0-Beta/lib/x86/libOpenCL.so.1: no version information available (required by ./opencl.x)
Test for OpenCL
To import-> Hits: 557160, Tracks: 89234 Events: 280
Filter with OpenCL 1
Time GPU Kernel OpenCl1 Events: 280 Tracks: 89234 Hits: 557160 = 0.00205087 s
Time CPU Kernel OpenCl1 Events: 280 Tracks: 89234 Hits: 557160 = 0.00220919 s
Time CPU total OpenCl1 Events: 280 Tracks: 89234 Hits: 557160 = 9.957559e-01 s

-----------------------------
Test for Bad
To import-> Hits: 576611, Tracks: 92347 Events: 290
Filter with Bad method
Time CPU total Bad Events: 290 Tracks: 92347 Hits: 576611 = 2.791405e-02 s

Test for Good
To import-> Hits: 576611, Tracks: 92347 Events: 290
Filter with Cuda 2
Time GPU Kernel Cuda2 Events: 290 Tracks: 92347 Hits: 576611 = 9.050241e-04 s
Time CPU Kernel Cuda2 Events: 290 Tracks: 92347 Hits: 576611 = 9.281635e-04 s
Time CPU total Cuda2 Events: 290 Tracks: 92347 Hits: 576611 = 7.028701e-01 s

Test for Good
To import-> Hits: 576611, Tracks: 92347 Events: 290
Filter with Cuda 1
Time GPU Kernel Cuda1 Events: 290 Tracks: 92347 Hits: 576611 = 1.135040e-03 s
Time CPU Kernel Cuda1 Events: 290 Tracks: 92347 Hits: 576611 = 1.156807e-03 s
Time CPU total Cuda1 Events: 290 Tracks: 92347 Hits: 576611 = 7.071249e-01 s

Test for Good
To import-> Hits: 576611, Tracks: 92347 Events: 290
Filter with Good method
Time CPU total Good Events: 290 Tracks: 92347 Hits: 576611 = 1.483202e-02 s

./opencl2.x: /opt/AMDAPPSDK-3.0-0-Beta/lib/x86/libOpenCL.so.1: no version information available (required by ./opencl2.x)
Test for OpenCL
To import-> Hits: 576611, Tracks: 92347 Events: 290
Filter with OpenCL 2
Time GPU Kernel OpenCl2 Events: 290 Tracks: 92347 Hits: 576611 = 0.0020518 s
Time CPU Kernel OpenCl2 Events: 290 Tracks: 92347 Hits: 576611 = 0.0021441 s
Time CPU total OpenCl2 Events: 290 Tracks: 92347 Hits: 576611 = 1.079786e+00 s

./opencl.x: /opt/AMDAPPSDK-3.0-0-Beta/lib/x86/libOpenCL.so.1: no version information available (required by ./opencl.x)
Test for OpenCL
To import-> Hits: 576611, Tracks: 92347 Events: 290
Filter with OpenCL 1
Time GPU Kernel OpenCl1 Events: 290 Tracks: 92347 Hits: 576611 = 0.00434469 s
Time CPU Kernel OpenCl1 Events: 290 Tracks: 92347 Hits: 576611 = 0.00441599 s
Time CPU total OpenCl1 Events: 290 Tracks: 92347 Hits: 576611 = 1.020213e+00 s

-----------------------------
Test for Bad
To import-> Hits: 598963, Tracks: 95876 Events: 300
Filter with Bad method
Time CPU total Bad Events: 300 Tracks: 95876 Hits: 598963 = 2.893209e-02 s

Test for Good
To import-> Hits: 598963, Tracks: 95876 Events: 300
Filter with Cuda 2
Time GPU Kernel Cuda2 Events: 300 Tracks: 95876 Hits: 598963 = 9.439680e-04 s
Time CPU Kernel Cuda2 Events: 300 Tracks: 95876 Hits: 598963 = 9.679794e-04 s
Time CPU total Cuda2 Events: 300 Tracks: 95876 Hits: 598963 = 7.043171e-01 s

Test for Good
To import-> Hits: 598963, Tracks: 95876 Events: 300
Filter with Cuda 1
Time GPU Kernel Cuda1 Events: 300 Tracks: 95876 Hits: 598963 = 1.178304e-03 s
Time CPU Kernel Cuda1 Events: 300 Tracks: 95876 Hits: 598963 = 1.203060e-03 s
Time CPU total Cuda1 Events: 300 Tracks: 95876 Hits: 598963 = 7.064729e-01 s

Test for Good
To import-> Hits: 598963, Tracks: 95876 Events: 300
Filter with Good method
Time CPU total Good Events: 300 Tracks: 95876 Hits: 598963 = 1.548195e-02 s

./opencl2.x: /opt/AMDAPPSDK-3.0-0-Beta/lib/x86/libOpenCL.so.1: no version information available (required by ./opencl2.x)
Test for OpenCL
To import-> Hits: 598963, Tracks: 95876 Events: 300
Filter with OpenCL 2
Time GPU Kernel OpenCl2 Events: 300 Tracks: 95876 Hits: 598963 = 0.00146506 s
Time CPU Kernel OpenCl2 Events: 300 Tracks: 95876 Hits: 598963 = 0.00154495 s
Time CPU total OpenCl2 Events: 300 Tracks: 95876 Hits: 598963 = 1.166788e+00 s

./opencl.x: /opt/AMDAPPSDK-3.0-0-Beta/lib/x86/libOpenCL.so.1: no version information available (required by ./opencl.x)
Test for OpenCL
To import-> Hits: 598963, Tracks: 95876 Events: 300
Filter with OpenCL 1
Time GPU Kernel OpenCl1 Events: 300 Tracks: 95876 Hits: 598963 = 0.00227069 s
Time CPU Kernel OpenCl1 Events: 300 Tracks: 95876 Hits: 598963 = 0.00234199 s
Time CPU total OpenCl1 Events: 300 Tracks: 95876 Hits: 598963 = 1.039272e+00 s

-----------------------------
