Test for Bad
To import-> Hits: 2093, Tracks: 358 Events: 1
Filter with Bad method
Time CPU total Bad Events: 1 Tracks: 358 Hits: 2093 = 1.599789e-04 s

Test for Good
To import-> Hits: 2093, Tracks: 358 Events: 1
Filter with Cuda 2
Time GPU Kernel Cuda2 Events: 1 Tracks: 358 Hits: 2093 = 7.980800e-05 s
Time CPU Kernel Cuda2 Events: 1 Tracks: 358 Hits: 2093 = 7.605553e-05 s
Time CPU total Cuda2 Events: 1 Tracks: 358 Hits: 2093 = 7.025700e-01 s

Test for Good
To import-> Hits: 2093, Tracks: 358 Events: 1
Filter with Cuda 1
Time GPU Kernel Cuda1 Events: 1 Tracks: 358 Hits: 2093 = 9.648000e-05 s
Time CPU Kernel Cuda1 Events: 1 Tracks: 358 Hits: 2093 = 9.298325e-05 s
Time CPU total Cuda1 Events: 1 Tracks: 358 Hits: 2093 = 6.912508e-01 s

Test for Good
To import-> Hits: 2093, Tracks: 358 Events: 1
Filter with Good method
Time CPU total Good Events: 1 Tracks: 358 Hits: 2093 = 5.793571e-05 s

Test for OpenCL
To import-> Hits: 2093, Tracks: 358 Events: 1
Filter with OpenCL 2
Time GPU Kernel OpenCl2 Events: 1 Tracks: 358 Hits: 2093 = 4.56e-05 s
Time CPU Kernel OpenCl2 Events: 1 Tracks: 358 Hits: 2093 = 7.20024e-05 s
Time CPU total OpenCl2 Events: 1 Tracks: 358 Hits: 2093 = 7.466850e-01 s

Test for OpenCL
To import-> Hits: 2093, Tracks: 358 Events: 1
Filter with OpenCL 1
Time GPU Kernel OpenCl1 Events: 1 Tracks: 358 Hits: 2093 = 5.3248e-05 s
Time CPU Kernel OpenCl1 Events: 1 Tracks: 358 Hits: 2093 = 8.29697e-05 s
Time CPU total OpenCl1 Events: 1 Tracks: 358 Hits: 2093 = 7.383480e-01 s

-----------------------------
Test for Bad
To import-> Hits: 3158, Tracks: 532 Events: 2
Filter with Bad method
Time CPU total Bad Events: 2 Tracks: 532 Hits: 3158 = 1.840591e-04 s

Test for Good
To import-> Hits: 3158, Tracks: 532 Events: 2
Filter with Cuda 2
Time GPU Kernel Cuda2 Events: 2 Tracks: 532 Hits: 3158 = 8.019200e-05 s
Time CPU Kernel Cuda2 Events: 2 Tracks: 532 Hits: 3158 = 7.700920e-05 s
Time CPU total Cuda2 Events: 2 Tracks: 532 Hits: 3158 = 6.794131e-01 s

Test for Good
To import-> Hits: 3158, Tracks: 532 Events: 2
Filter with Cuda 1
Time GPU Kernel Cuda1 Events: 2 Tracks: 532 Hits: 3158 = 9.673600e-05 s
Time CPU Kernel Cuda1 Events: 2 Tracks: 532 Hits: 3158 = 9.393692e-05 s
Time CPU total Cuda1 Events: 2 Tracks: 532 Hits: 3158 = 6.856692e-01 s

Test for Good
To import-> Hits: 3158, Tracks: 532 Events: 2
Filter with Good method
Time CPU total Good Events: 2 Tracks: 532 Hits: 3158 = 8.201599e-05 s

Test for OpenCL
To import-> Hits: 3158, Tracks: 532 Events: 2
Filter with OpenCL 2
Time GPU Kernel OpenCl2 Events: 2 Tracks: 532 Hits: 3158 = 4.6272e-05 s
Time CPU Kernel OpenCl2 Events: 2 Tracks: 532 Hits: 3158 = 7.29561e-05 s
Time CPU total OpenCl2 Events: 2 Tracks: 532 Hits: 3158 = 7.204890e-01 s

Test for OpenCL
To import-> Hits: 3158, Tracks: 532 Events: 2
Filter with OpenCL 1
Time GPU Kernel OpenCl1 Events: 2 Tracks: 532 Hits: 3158 = 5.5296e-05 s
Time CPU Kernel OpenCl1 Events: 2 Tracks: 532 Hits: 3158 = 8.58307e-05 s
Time CPU total OpenCl1 Events: 2 Tracks: 532 Hits: 3158 = 7.124021e-01 s

-----------------------------
Test for Bad
To import-> Hits: 4741, Tracks: 779 Events: 3
Filter with Bad method
Time CPU total Bad Events: 3 Tracks: 779 Hits: 4741 = 2.551079e-04 s

Test for Good
To import-> Hits: 4741, Tracks: 779 Events: 3
Filter with Cuda 2
Time GPU Kernel Cuda2 Events: 3 Tracks: 779 Hits: 4741 = 7.961601e-05 s
Time CPU Kernel Cuda2 Events: 3 Tracks: 779 Hits: 4741 = 7.700920e-05 s
Time CPU total Cuda2 Events: 3 Tracks: 779 Hits: 4741 = 6.876900e-01 s

Test for Good
To import-> Hits: 4741, Tracks: 779 Events: 3
Filter with Cuda 1
Time GPU Kernel Cuda1 Events: 3 Tracks: 779 Hits: 4741 = 1.028160e-04 s
Time CPU Kernel Cuda1 Events: 3 Tracks: 779 Hits: 4741 = 9.894371e-05 s
Time CPU total Cuda1 Events: 3 Tracks: 779 Hits: 4741 = 6.850300e-01 s

Test for Good
To import-> Hits: 4741, Tracks: 779 Events: 3
Filter with Good method
Time CPU total Good Events: 3 Tracks: 779 Hits: 4741 = 1.258850e-04 s

Test for OpenCL
To import-> Hits: 4741, Tracks: 779 Events: 3
Filter with OpenCL 2
Time GPU Kernel OpenCl2 Events: 3 Tracks: 779 Hits: 4741 = 4.8448e-05 s
Time CPU Kernel OpenCl2 Events: 3 Tracks: 779 Hits: 4741 = 7.60555e-05 s
Time CPU total OpenCl2 Events: 3 Tracks: 779 Hits: 4741 = 7.256579e-01 s

Test for OpenCL
To import-> Hits: 4741, Tracks: 779 Events: 3
Filter with OpenCL 1
Time GPU Kernel OpenCl1 Events: 3 Tracks: 779 Hits: 4741 = 5.536e-05 s
Time CPU Kernel OpenCl1 Events: 3 Tracks: 779 Hits: 4741 = 8.2016e-05 s
Time CPU total OpenCl1 Events: 3 Tracks: 779 Hits: 4741 = 7.156489e-01 s

-----------------------------
Test for Bad
To import-> Hits: 8061, Tracks: 1300 Events: 4
Filter with Bad method
Time CPU total Bad Events: 4 Tracks: 1300 Hits: 8061 = 5.590916e-04 s

Test for Good
To import-> Hits: 8061, Tracks: 1300 Events: 4
Filter with Cuda 2
Time GPU Kernel Cuda2 Events: 4 Tracks: 1300 Hits: 8061 = 8.361601e-05 s
Time CPU Kernel Cuda2 Events: 4 Tracks: 1300 Hits: 8061 = 7.987022e-05 s
Time CPU total Cuda2 Events: 4 Tracks: 1300 Hits: 8061 = 6.818051e-01 s

Test for Good
To import-> Hits: 8061, Tracks: 1300 Events: 4
Filter with Cuda 1
Time GPU Kernel Cuda1 Events: 4 Tracks: 1300 Hits: 8061 = 1.044480e-04 s
Time CPU Kernel Cuda1 Events: 4 Tracks: 1300 Hits: 8061 = 1.001358e-04 s
Time CPU total Cuda1 Events: 4 Tracks: 1300 Hits: 8061 = 6.825058e-01 s

Test for Good
To import-> Hits: 8061, Tracks: 1300 Events: 4
Filter with Good method
Time CPU total Good Events: 4 Tracks: 1300 Hits: 8061 = 2.100468e-04 s

Test for OpenCL
To import-> Hits: 8061, Tracks: 1300 Events: 4
Filter with OpenCL 2
Time GPU Kernel OpenCl2 Events: 4 Tracks: 1300 Hits: 8061 = 5.104e-05 s
Time CPU Kernel OpenCl2 Events: 4 Tracks: 1300 Hits: 8061 = 7.79629e-05 s
Time CPU total OpenCl2 Events: 4 Tracks: 1300 Hits: 8061 = 7.208691e-01 s

Test for OpenCL
To import-> Hits: 8061, Tracks: 1300 Events: 4
Filter with OpenCL 1
Time GPU Kernel OpenCl1 Events: 4 Tracks: 1300 Hits: 8061 = 5.8464e-05 s
Time CPU Kernel OpenCl1 Events: 4 Tracks: 1300 Hits: 8061 = 8.51154e-05 s
Time CPU total OpenCl1 Events: 4 Tracks: 1300 Hits: 8061 = 7.176230e-01 s

-----------------------------
Test for Bad
To import-> Hits: 11850, Tracks: 1914 Events: 5
Filter with Bad method
Time CPU total Bad Events: 5 Tracks: 1914 Hits: 11850 = 7.219315e-04 s

Test for Good
To import-> Hits: 11850, Tracks: 1914 Events: 5
Filter with Cuda 2
Time GPU Kernel Cuda2 Events: 5 Tracks: 1914 Hits: 11850 = 8.489600e-05 s
Time CPU Kernel Cuda2 Events: 5 Tracks: 1914 Hits: 11850 = 8.082390e-05 s
Time CPU total Cuda2 Events: 5 Tracks: 1914 Hits: 11850 = 6.874778e-01 s

Test for Good
To import-> Hits: 11850, Tracks: 1914 Events: 5
Filter with Cuda 1
Time GPU Kernel Cuda1 Events: 5 Tracks: 1914 Hits: 11850 = 1.043200e-04 s
Time CPU Kernel Cuda1 Events: 5 Tracks: 1914 Hits: 11850 = 1.010895e-04 s
Time CPU total Cuda1 Events: 5 Tracks: 1914 Hits: 11850 = 6.842458e-01 s

Test for Good
To import-> Hits: 11850, Tracks: 1914 Events: 5
Filter with Good method
Time CPU total Good Events: 5 Tracks: 1914 Hits: 11850 = 3.211498e-04 s

Test for OpenCL
To import-> Hits: 11850, Tracks: 1914 Events: 5
Filter with OpenCL 2
Time GPU Kernel OpenCl2 Events: 5 Tracks: 1914 Hits: 11850 = 5.472e-05 s
Time CPU Kernel OpenCl2 Events: 5 Tracks: 1914 Hits: 11850 = 8.2016e-05 s
Time CPU total OpenCl2 Events: 5 Tracks: 1914 Hits: 11850 = 7.222898e-01 s

Test for OpenCL
To import-> Hits: 11850, Tracks: 1914 Events: 5
Filter with OpenCL 1
Time GPU Kernel OpenCl1 Events: 5 Tracks: 1914 Hits: 11850 = 5.9936e-05 s
Time CPU Kernel OpenCl1 Events: 5 Tracks: 1914 Hits: 11850 = 8.91685e-05 s
Time CPU total OpenCl1 Events: 5 Tracks: 1914 Hits: 11850 = 7.182541e-01 s

-----------------------------
Test for Bad
To import-> Hits: 12849, Tracks: 2089 Events: 6
Filter with Bad method
Time CPU total Bad Events: 6 Tracks: 2089 Hits: 12849 = 7.538795e-04 s

Test for Good
To import-> Hits: 12849, Tracks: 2089 Events: 6
Filter with Cuda 2
Time GPU Kernel Cuda2 Events: 6 Tracks: 2089 Hits: 12849 = 8.547201e-05 s
Time CPU Kernel Cuda2 Events: 6 Tracks: 2089 Hits: 12849 = 8.106232e-05 s
Time CPU total Cuda2 Events: 6 Tracks: 2089 Hits: 12849 = 6.878378e-01 s

Test for Good
To import-> Hits: 12849, Tracks: 2089 Events: 6
Filter with Cuda 1
Time GPU Kernel Cuda1 Events: 6 Tracks: 2089 Hits: 12849 = 1.035520e-04 s
Time CPU Kernel Cuda1 Events: 6 Tracks: 2089 Hits: 12849 = 9.894371e-05 s
Time CPU total Cuda1 Events: 6 Tracks: 2089 Hits: 12849 = 6.885061e-01 s

Test for Good
To import-> Hits: 12849, Tracks: 2089 Events: 6
Filter with Good method
Time CPU total Good Events: 6 Tracks: 2089 Hits: 12849 = 3.349781e-04 s

Test for OpenCL
To import-> Hits: 12849, Tracks: 2089 Events: 6
Filter with OpenCL 2
Time GPU Kernel OpenCl2 Events: 6 Tracks: 2089 Hits: 12849 = 5.3984e-05 s
Time CPU Kernel OpenCl2 Events: 6 Tracks: 2089 Hits: 12849 = 8.10623e-05 s
Time CPU total OpenCl2 Events: 6 Tracks: 2089 Hits: 12849 = 7.228839e-01 s

Test for OpenCL
To import-> Hits: 12849, Tracks: 2089 Events: 6
Filter with OpenCL 1
Time GPU Kernel OpenCl1 Events: 6 Tracks: 2089 Hits: 12849 = 5.9712e-05 s
Time CPU Kernel OpenCl1 Events: 6 Tracks: 2089 Hits: 12849 = 8.98838e-05 s
Time CPU total OpenCl1 Events: 6 Tracks: 2089 Hits: 12849 = 7.234979e-01 s

-----------------------------
Test for Bad
To import-> Hits: 14812, Tracks: 2418 Events: 7
Filter with Bad method
Time CPU total Bad Events: 7 Tracks: 2418 Hits: 14812 = 8.969307e-04 s

Test for Good
To import-> Hits: 14812, Tracks: 2418 Events: 7
Filter with Cuda 2
Time GPU Kernel Cuda2 Events: 7 Tracks: 2418 Hits: 14812 = 8.774400e-05 s
Time CPU Kernel Cuda2 Events: 7 Tracks: 2418 Hits: 14812 = 8.487701e-05 s
Time CPU total Cuda2 Events: 7 Tracks: 2418 Hits: 14812 = 6.898921e-01 s

Test for Good
To import-> Hits: 14812, Tracks: 2418 Events: 7
Filter with Cuda 1
Time GPU Kernel Cuda1 Events: 7 Tracks: 2418 Hits: 14812 = 1.099200e-04 s
Time CPU Kernel Cuda1 Events: 7 Tracks: 2418 Hits: 14812 = 1.060963e-04 s
Time CPU total Cuda1 Events: 7 Tracks: 2418 Hits: 14812 = 6.858420e-01 s

Test for Good
To import-> Hits: 14812, Tracks: 2418 Events: 7
Filter with Good method
Time CPU total Good Events: 7 Tracks: 2418 Hits: 14812 = 3.981590e-04 s

Test for OpenCL
To import-> Hits: 14812, Tracks: 2418 Events: 7
Filter with OpenCL 2
Time GPU Kernel OpenCl2 Events: 7 Tracks: 2418 Hits: 14812 = 6.0352e-05 s
Time CPU Kernel OpenCl2 Events: 7 Tracks: 2418 Hits: 14812 = 8.70228e-05 s
Time CPU total OpenCl2 Events: 7 Tracks: 2418 Hits: 14812 = 7.227659e-01 s

Test for OpenCL
To import-> Hits: 14812, Tracks: 2418 Events: 7
Filter with OpenCL 1
Time GPU Kernel OpenCl1 Events: 7 Tracks: 2418 Hits: 14812 = 0.00011744 s
Time CPU Kernel OpenCl1 Events: 7 Tracks: 2418 Hits: 14812 = 0.000146866 s
Time CPU total OpenCl1 Events: 7 Tracks: 2418 Hits: 14812 = 7.204971e-01 s

-----------------------------
Test for Bad
To import-> Hits: 15814, Tracks: 2586 Events: 8
Filter with Bad method
Time CPU total Bad Events: 8 Tracks: 2586 Hits: 15814 = 9.360313e-04 s

Test for Good
To import-> Hits: 15814, Tracks: 2586 Events: 8
Filter with Cuda 2
Time GPU Kernel Cuda2 Events: 8 Tracks: 2586 Hits: 15814 = 8.832000e-05 s
Time CPU Kernel Cuda2 Events: 8 Tracks: 2586 Hits: 15814 = 8.487701e-05 s
Time CPU total Cuda2 Events: 8 Tracks: 2586 Hits: 15814 = 6.915059e-01 s

Test for Good
To import-> Hits: 15814, Tracks: 2586 Events: 8
Filter with Cuda 1
Time GPU Kernel Cuda1 Events: 8 Tracks: 2586 Hits: 15814 = 1.101120e-04 s
Time CPU Kernel Cuda1 Events: 8 Tracks: 2586 Hits: 15814 = 1.060963e-04 s
Time CPU total Cuda1 Events: 8 Tracks: 2586 Hits: 15814 = 6.863530e-01 s

Test for Good
To import-> Hits: 15814, Tracks: 2586 Events: 8
Filter with Good method
Time CPU total Good Events: 8 Tracks: 2586 Hits: 15814 = 4.179478e-04 s

Test for OpenCL
To import-> Hits: 15814, Tracks: 2586 Events: 8
Filter with OpenCL 2
Time GPU Kernel OpenCl2 Events: 8 Tracks: 2586 Hits: 15814 = 6.2944e-05 s
Time CPU Kernel OpenCl2 Events: 8 Tracks: 2586 Hits: 15814 = 9.20296e-05 s
Time CPU total OpenCl2 Events: 8 Tracks: 2586 Hits: 15814 = 7.273540e-01 s

Test for OpenCL
To import-> Hits: 15814, Tracks: 2586 Events: 8
Filter with OpenCL 1
Time GPU Kernel OpenCl1 Events: 8 Tracks: 2586 Hits: 15814 = 6.512e-05 s
Time CPU Kernel OpenCl1 Events: 8 Tracks: 2586 Hits: 15814 = 9.20296e-05 s
Time CPU total OpenCl1 Events: 8 Tracks: 2586 Hits: 15814 = 7.232511e-01 s

-----------------------------
Test for Bad
To import-> Hits: 16842, Tracks: 2764 Events: 9
Filter with Bad method
Time CPU total Bad Events: 9 Tracks: 2764 Hits: 16842 = 7.719994e-04 s

Test for Good
To import-> Hits: 16842, Tracks: 2764 Events: 9
Filter with Cuda 2
Time GPU Kernel Cuda2 Events: 9 Tracks: 2764 Hits: 16842 = 9.136001e-05 s
Time CPU Kernel Cuda2 Events: 9 Tracks: 2764 Hits: 16842 = 8.702278e-05 s
Time CPU total Cuda2 Events: 9 Tracks: 2764 Hits: 16842 = 6.869841e-01 s

Test for Good
To import-> Hits: 16842, Tracks: 2764 Events: 9
Filter with Cuda 1
Time GPU Kernel Cuda1 Events: 9 Tracks: 2764 Hits: 16842 = 1.095680e-04 s
Time CPU Kernel Cuda1 Events: 9 Tracks: 2764 Hits: 16842 = 1.058578e-04 s
Time CPU total Cuda1 Events: 9 Tracks: 2764 Hits: 16842 = 6.814721e-01 s

Test for Good
To import-> Hits: 16842, Tracks: 2764 Events: 9
Filter with Good method
Time CPU total Good Events: 9 Tracks: 2764 Hits: 16842 = 4.518032e-04 s

Test for OpenCL
To import-> Hits: 16842, Tracks: 2764 Events: 9
Filter with OpenCL 2
Time GPU Kernel OpenCl2 Events: 9 Tracks: 2764 Hits: 16842 = 6.16e-05 s
Time CPU Kernel OpenCl2 Events: 9 Tracks: 2764 Hits: 16842 = 8.79765e-05 s
Time CPU total OpenCl2 Events: 9 Tracks: 2764 Hits: 16842 = 7.228179e-01 s

Test for OpenCL
To import-> Hits: 16842, Tracks: 2764 Events: 9
Filter with OpenCL 1
Time GPU Kernel OpenCl1 Events: 9 Tracks: 2764 Hits: 16842 = 6.528e-05 s
Time CPU Kernel OpenCl1 Events: 9 Tracks: 2764 Hits: 16842 = 9.20296e-05 s
Time CPU total OpenCl1 Events: 9 Tracks: 2764 Hits: 16842 = 7.239349e-01 s

-----------------------------
Test for Bad
To import-> Hits: 18940, Tracks: 3094 Events: 10
Filter with Bad method
Time CPU total Bad Events: 10 Tracks: 3094 Hits: 18940 = 9.491444e-04 s

Test for Good
To import-> Hits: 18940, Tracks: 3094 Events: 10
Filter with Cuda 2
Time GPU Kernel Cuda2 Events: 10 Tracks: 3094 Hits: 18940 = 8.950401e-05 s
Time CPU Kernel Cuda2 Events: 10 Tracks: 3094 Hits: 18940 = 8.487701e-05 s
Time CPU total Cuda2 Events: 10 Tracks: 3094 Hits: 18940 = 6.900039e-01 s

Test for Good
To import-> Hits: 18940, Tracks: 3094 Events: 10
Filter with Cuda 1
Time GPU Kernel Cuda1 Events: 10 Tracks: 3094 Hits: 18940 = 1.104000e-04 s
Time CPU Kernel Cuda1 Events: 10 Tracks: 3094 Hits: 18940 = 1.058578e-04 s
Time CPU total Cuda1 Events: 10 Tracks: 3094 Hits: 18940 = 6.863830e-01 s

Test for Good
To import-> Hits: 18940, Tracks: 3094 Events: 10
Filter with Good method
Time CPU total Good Events: 10 Tracks: 3094 Hits: 18940 = 5.080700e-04 s

Test for OpenCL
To import-> Hits: 18940, Tracks: 3094 Events: 10
Filter with OpenCL 2
Time GPU Kernel OpenCl2 Events: 10 Tracks: 3094 Hits: 18940 = 6.8192e-05 s
Time CPU Kernel OpenCl2 Events: 10 Tracks: 3094 Hits: 18940 = 9.5129e-05 s
Time CPU total OpenCl2 Events: 10 Tracks: 3094 Hits: 18940 = 7.256641e-01 s

Test for OpenCL
To import-> Hits: 18940, Tracks: 3094 Events: 10
Filter with OpenCL 1
Time GPU Kernel OpenCl1 Events: 10 Tracks: 3094 Hits: 18940 = 6.7744e-05 s
Time CPU Kernel OpenCl1 Events: 10 Tracks: 3094 Hits: 18940 = 9.5129e-05 s
Time CPU total OpenCl1 Events: 10 Tracks: 3094 Hits: 18940 = 7.202880e-01 s

-----------------------------
Test for Bad
To import-> Hits: 22010, Tracks: 3613 Events: 11
Filter with Bad method
Time CPU total Bad Events: 11 Tracks: 3613 Hits: 22010 = 1.338005e-03 s

Test for Good
To import-> Hits: 22010, Tracks: 3613 Events: 11
Filter with Cuda 2
Time GPU Kernel Cuda2 Events: 11 Tracks: 3613 Hits: 22010 = 9.312000e-05 s
Time CPU Kernel Cuda2 Events: 11 Tracks: 3613 Hits: 22010 = 8.797646e-05 s
Time CPU total Cuda2 Events: 11 Tracks: 3613 Hits: 22010 = 6.912792e-01 s

Test for Good
To import-> Hits: 22010, Tracks: 3613 Events: 11
Filter with Cuda 1
Time GPU Kernel Cuda1 Events: 11 Tracks: 3613 Hits: 22010 = 1.148480e-04 s
Time CPU Kernel Cuda1 Events: 11 Tracks: 3613 Hits: 22010 = 1.108646e-04 s
Time CPU total Cuda1 Events: 11 Tracks: 3613 Hits: 22010 = 6.868320e-01 s

Test for Good
To import-> Hits: 22010, Tracks: 3613 Events: 11
Filter with Good method
Time CPU total Good Events: 11 Tracks: 3613 Hits: 22010 = 5.908012e-04 s

Test for OpenCL
To import-> Hits: 22010, Tracks: 3613 Events: 11
Filter with OpenCL 2
Time GPU Kernel OpenCl2 Events: 11 Tracks: 3613 Hits: 22010 = 7.4336e-05 s
Time CPU Kernel OpenCl2 Events: 11 Tracks: 3613 Hits: 22010 = 0.000104904 s
Time CPU total OpenCl2 Events: 11 Tracks: 3613 Hits: 22010 = 7.208660e-01 s

Test for OpenCL
To import-> Hits: 22010, Tracks: 3613 Events: 11
Filter with OpenCL 1
Time GPU Kernel OpenCl1 Events: 11 Tracks: 3613 Hits: 22010 = 7.5392e-05 s
Time CPU Kernel OpenCl1 Events: 11 Tracks: 3613 Hits: 22010 = 0.000109911 s
Time CPU total OpenCl1 Events: 11 Tracks: 3613 Hits: 22010 = 7.001338e-01 s

-----------------------------
Test for Bad
To import-> Hits: 22930, Tracks: 3745 Events: 12
Filter with Bad method
Time CPU total Bad Events: 12 Tracks: 3745 Hits: 22930 = 1.394033e-03 s

Test for Good
To import-> Hits: 22930, Tracks: 3745 Events: 12
Filter with Cuda 2
Time GPU Kernel Cuda2 Events: 12 Tracks: 3745 Hits: 22930 = 9.081600e-05 s
Time CPU Kernel Cuda2 Events: 12 Tracks: 3745 Hits: 22930 = 8.702278e-05 s
Time CPU total Cuda2 Events: 12 Tracks: 3745 Hits: 22930 = 6.520641e-01 s

Test for Good
To import-> Hits: 22930, Tracks: 3745 Events: 12
Filter with Cuda 1
Time GPU Kernel Cuda1 Events: 12 Tracks: 3745 Hits: 22930 = 1.081600e-04 s
Time CPU Kernel Cuda1 Events: 12 Tracks: 3745 Hits: 22930 = 1.051426e-04 s
Time CPU total Cuda1 Events: 12 Tracks: 3745 Hits: 22930 = 6.862900e-01 s

Test for Good
To import-> Hits: 22930, Tracks: 3745 Events: 12
Filter with Good method
Time CPU total Good Events: 12 Tracks: 3745 Hits: 22930 = 6.120205e-04 s

Test for OpenCL
To import-> Hits: 22930, Tracks: 3745 Events: 12
Filter with OpenCL 2
Time GPU Kernel OpenCl2 Events: 12 Tracks: 3745 Hits: 22930 = 7.376e-05 s
Time CPU Kernel OpenCl2 Events: 12 Tracks: 3745 Hits: 22930 = 0.000101089 s
Time CPU total OpenCl2 Events: 12 Tracks: 3745 Hits: 22930 = 7.278121e-01 s

Test for OpenCL
To import-> Hits: 22930, Tracks: 3745 Events: 12
Filter with OpenCL 1
Time GPU Kernel OpenCl1 Events: 12 Tracks: 3745 Hits: 22930 = 7.5616e-05 s
Time CPU Kernel OpenCl1 Events: 12 Tracks: 3745 Hits: 22930 = 0.000102043 s
Time CPU total OpenCl1 Events: 12 Tracks: 3745 Hits: 22930 = 7.126591e-01 s

-----------------------------
Test for Bad
To import-> Hits: 27034, Tracks: 4414 Events: 13
Filter with Bad method
Time CPU total Bad Events: 13 Tracks: 4414 Hits: 27034 = 1.592875e-03 s

Test for Good
To import-> Hits: 27034, Tracks: 4414 Events: 13
Filter with Cuda 2
Time GPU Kernel Cuda2 Events: 13 Tracks: 4414 Hits: 27034 = 9.587200e-05 s
Time CPU Kernel Cuda2 Events: 13 Tracks: 4414 Hits: 27034 = 9.202957e-05 s
Time CPU total Cuda2 Events: 13 Tracks: 4414 Hits: 27034 = 6.820269e-01 s

Test for Good
To import-> Hits: 27034, Tracks: 4414 Events: 13
Filter with Cuda 1
Time GPU Kernel Cuda1 Events: 13 Tracks: 4414 Hits: 27034 = 1.116480e-04 s
Time CPU Kernel Cuda1 Events: 13 Tracks: 4414 Hits: 27034 = 1.080036e-04 s
Time CPU total Cuda1 Events: 13 Tracks: 4414 Hits: 27034 = 6.885312e-01 s

Test for Good
To import-> Hits: 27034, Tracks: 4414 Events: 13
Filter with Good method
Time CPU total Good Events: 13 Tracks: 4414 Hits: 27034 = 7.297993e-04 s

Test for OpenCL
To import-> Hits: 27034, Tracks: 4414 Events: 13
Filter with OpenCL 2
Time GPU Kernel OpenCl2 Events: 13 Tracks: 4414 Hits: 27034 = 8.928e-05 s
Time CPU Kernel OpenCl2 Events: 13 Tracks: 4414 Hits: 27034 = 0.000118971 s
Time CPU total OpenCl2 Events: 13 Tracks: 4414 Hits: 27034 = 7.239470e-01 s

Test for OpenCL
To import-> Hits: 27034, Tracks: 4414 Events: 13
Filter with OpenCL 1
Time GPU Kernel OpenCl1 Events: 13 Tracks: 4414 Hits: 27034 = 8.2304e-05 s
Time CPU Kernel OpenCl1 Events: 13 Tracks: 4414 Hits: 27034 = 0.000108957 s
Time CPU total OpenCl1 Events: 13 Tracks: 4414 Hits: 27034 = 7.204661e-01 s

-----------------------------
Test for Bad
To import-> Hits: 28064, Tracks: 4587 Events: 14
Filter with Bad method
Time CPU total Bad Events: 14 Tracks: 4587 Hits: 28064 = 1.731873e-03 s

Test for Good
To import-> Hits: 28064, Tracks: 4587 Events: 14
Filter with Cuda 2
Time GPU Kernel Cuda2 Events: 14 Tracks: 4587 Hits: 28064 = 9.849600e-05 s
Time CPU Kernel Cuda2 Events: 14 Tracks: 4587 Hits: 28064 = 9.393692e-05 s
Time CPU total Cuda2 Events: 14 Tracks: 4587 Hits: 28064 = 6.854219e-01 s

Test for Good
To import-> Hits: 28064, Tracks: 4587 Events: 14
Filter with Cuda 1
Time GPU Kernel Cuda1 Events: 14 Tracks: 4587 Hits: 28064 = 1.164800e-04 s
Time CPU Kernel Cuda1 Events: 14 Tracks: 4587 Hits: 28064 = 1.120567e-04 s
Time CPU total Cuda1 Events: 14 Tracks: 4587 Hits: 28064 = 6.878829e-01 s

Test for Good
To import-> Hits: 28064, Tracks: 4587 Events: 14
Filter with Good method
Time CPU total Good Events: 14 Tracks: 4587 Hits: 28064 = 7.410049e-04 s

Test for OpenCL
To import-> Hits: 28064, Tracks: 4587 Events: 14
Filter with OpenCL 2
Time GPU Kernel OpenCl2 Events: 14 Tracks: 4587 Hits: 28064 = 8.688e-05 s
Time CPU Kernel OpenCl2 Events: 14 Tracks: 4587 Hits: 28064 = 0.000118017 s
Time CPU total OpenCl2 Events: 14 Tracks: 4587 Hits: 28064 = 7.240348e-01 s

Test for OpenCL
To import-> Hits: 28064, Tracks: 4587 Events: 14
Filter with OpenCL 1
Time GPU Kernel OpenCl1 Events: 14 Tracks: 4587 Hits: 28064 = 8.4192e-05 s
Time CPU Kernel OpenCl1 Events: 14 Tracks: 4587 Hits: 28064 = 0.000121117 s
Time CPU total OpenCl1 Events: 14 Tracks: 4587 Hits: 28064 = 7.218652e-01 s

-----------------------------
Test for Bad
To import-> Hits: 30895, Tracks: 5044 Events: 15
Filter with Bad method
Time CPU total Bad Events: 15 Tracks: 5044 Hits: 30895 = 1.897097e-03 s

Test for Good
To import-> Hits: 30895, Tracks: 5044 Events: 15
Filter with Cuda 2
Time GPU Kernel Cuda2 Events: 15 Tracks: 5044 Hits: 30895 = 1.091840e-04 s
Time CPU Kernel Cuda2 Events: 15 Tracks: 5044 Hits: 30895 = 1.049042e-04 s
Time CPU total Cuda2 Events: 15 Tracks: 5044 Hits: 30895 = 6.852770e-01 s

Test for Good
To import-> Hits: 30895, Tracks: 5044 Events: 15
Filter with Cuda 1
Time GPU Kernel Cuda1 Events: 15 Tracks: 5044 Hits: 30895 = 1.305920e-04 s
Time CPU Kernel Cuda1 Events: 15 Tracks: 5044 Hits: 30895 = 1.230240e-04 s
Time CPU total Cuda1 Events: 15 Tracks: 5044 Hits: 30895 = 6.842330e-01 s

Test for Good
To import-> Hits: 30895, Tracks: 5044 Events: 15
Filter with Good method
Time CPU total Good Events: 15 Tracks: 5044 Hits: 30895 = 8.220673e-04 s

Test for OpenCL
To import-> Hits: 30895, Tracks: 5044 Events: 15
Filter with OpenCL 2
Time GPU Kernel OpenCl2 Events: 15 Tracks: 5044 Hits: 30895 = 9.088e-05 s
Time CPU Kernel OpenCl2 Events: 15 Tracks: 5044 Hits: 30895 = 0.000123978 s
Time CPU total OpenCl2 Events: 15 Tracks: 5044 Hits: 30895 = 7.282801e-01 s

Test for OpenCL
To import-> Hits: 30895, Tracks: 5044 Events: 15
Filter with OpenCL 1
Time GPU Kernel OpenCl1 Events: 15 Tracks: 5044 Hits: 30895 = 9.0944e-05 s
Time CPU Kernel OpenCl1 Events: 15 Tracks: 5044 Hits: 30895 = 0.000121117 s
Time CPU total OpenCl1 Events: 15 Tracks: 5044 Hits: 30895 = 7.240460e-01 s

-----------------------------
Test for Bad
To import-> Hits: 31449, Tracks: 5141 Events: 16
Filter with Bad method
Time CPU total Bad Events: 16 Tracks: 5141 Hits: 31449 = 1.913071e-03 s

Test for Good
To import-> Hits: 31449, Tracks: 5141 Events: 16
Filter with Cuda 2
Time GPU Kernel Cuda2 Events: 16 Tracks: 5141 Hits: 31449 = 1.152960e-04 s
Time CPU Kernel Cuda2 Events: 16 Tracks: 5141 Hits: 31449 = 1.118183e-04 s
Time CPU total Cuda2 Events: 16 Tracks: 5141 Hits: 31449 = 6.869168e-01 s

Test for Good
To import-> Hits: 31449, Tracks: 5141 Events: 16
Filter with Cuda 1
Time GPU Kernel Cuda1 Events: 16 Tracks: 5141 Hits: 31449 = 1.256640e-04 s
Time CPU Kernel Cuda1 Events: 16 Tracks: 5141 Hits: 31449 = 1.218319e-04 s
Time CPU total Cuda1 Events: 16 Tracks: 5141 Hits: 31449 = 6.917901e-01 s

Test for Good
To import-> Hits: 31449, Tracks: 5141 Events: 16
Filter with Good method
Time CPU total Good Events: 16 Tracks: 5141 Hits: 31449 = 8.428097e-04 s

Test for OpenCL
To import-> Hits: 31449, Tracks: 5141 Events: 16
Filter with OpenCL 2
Time GPU Kernel OpenCl2 Events: 16 Tracks: 5141 Hits: 31449 = 9.5424e-05 s
Time CPU Kernel OpenCl2 Events: 16 Tracks: 5141 Hits: 31449 = 0.000127077 s
Time CPU total OpenCl2 Events: 16 Tracks: 5141 Hits: 31449 = 7.265282e-01 s

Test for OpenCL
To import-> Hits: 31449, Tracks: 5141 Events: 16
Filter with OpenCL 1
Time GPU Kernel OpenCl1 Events: 16 Tracks: 5141 Hits: 31449 = 8.9376e-05 s
Time CPU Kernel OpenCl1 Events: 16 Tracks: 5141 Hits: 31449 = 0.000117064 s
Time CPU total OpenCl1 Events: 16 Tracks: 5141 Hits: 31449 = 7.289660e-01 s

-----------------------------
Test for Bad
To import-> Hits: 32810, Tracks: 5353 Events: 17
Filter with Bad method
Time CPU total Bad Events: 17 Tracks: 5353 Hits: 32810 = 1.652002e-03 s

Test for Good
To import-> Hits: 32810, Tracks: 5353 Events: 17
Filter with Cuda 2
Time GPU Kernel Cuda2 Events: 17 Tracks: 5353 Hits: 32810 = 1.163840e-04 s
Time CPU Kernel Cuda2 Events: 17 Tracks: 5353 Hits: 32810 = 1.130104e-04 s
Time CPU total Cuda2 Events: 17 Tracks: 5353 Hits: 32810 = 6.901851e-01 s

Test for Good
To import-> Hits: 32810, Tracks: 5353 Events: 17
Filter with Cuda 1
Time GPU Kernel Cuda1 Events: 17 Tracks: 5353 Hits: 32810 = 1.312640e-04 s
Time CPU Kernel Cuda1 Events: 17 Tracks: 5353 Hits: 32810 = 1.280308e-04 s
Time CPU total Cuda1 Events: 17 Tracks: 5353 Hits: 32810 = 6.878669e-01 s

Test for Good
To import-> Hits: 32810, Tracks: 5353 Events: 17
Filter with Good method
Time CPU total Good Events: 17 Tracks: 5353 Hits: 32810 = 8.859634e-04 s

Test for OpenCL
To import-> Hits: 32810, Tracks: 5353 Events: 17
Filter with OpenCL 2
Time GPU Kernel OpenCl2 Events: 17 Tracks: 5353 Hits: 32810 = 9.776e-05 s
Time CPU Kernel OpenCl2 Events: 17 Tracks: 5353 Hits: 32810 = 0.000124931 s
Time CPU total OpenCl2 Events: 17 Tracks: 5353 Hits: 32810 = 7.314382e-01 s

Test for OpenCL
To import-> Hits: 32810, Tracks: 5353 Events: 17
Filter with OpenCL 1
Time GPU Kernel OpenCl1 Events: 17 Tracks: 5353 Hits: 32810 = 9.4016e-05 s
Time CPU Kernel OpenCl1 Events: 17 Tracks: 5353 Hits: 32810 = 0.000121832 s
Time CPU total OpenCl1 Events: 17 Tracks: 5353 Hits: 32810 = 7.287152e-01 s

-----------------------------
Test for Bad
To import-> Hits: 35226, Tracks: 5750 Events: 18
Filter with Bad method
Time CPU total Bad Events: 18 Tracks: 5750 Hits: 35226 = 1.749039e-03 s

Test for Good
To import-> Hits: 35226, Tracks: 5750 Events: 18
Filter with Cuda 2
Time GPU Kernel Cuda2 Events: 18 Tracks: 5750 Hits: 35226 = 1.088960e-04 s
Time CPU Kernel Cuda2 Events: 18 Tracks: 5750 Hits: 35226 = 1.051426e-04 s
Time CPU total Cuda2 Events: 18 Tracks: 5750 Hits: 35226 = 6.880419e-01 s

Test for Good
To import-> Hits: 35226, Tracks: 5750 Events: 18
Filter with Cuda 1
Time GPU Kernel Cuda1 Events: 18 Tracks: 5750 Hits: 35226 = 1.342400e-04 s
Time CPU Kernel Cuda1 Events: 18 Tracks: 5750 Hits: 35226 = 1.299381e-04 s
Time CPU total Cuda1 Events: 18 Tracks: 5750 Hits: 35226 = 6.863911e-01 s

Test for Good
To import-> Hits: 35226, Tracks: 5750 Events: 18
Filter with Good method
Time CPU total Good Events: 18 Tracks: 5750 Hits: 35226 = 9.360313e-04 s

Test for OpenCL
To import-> Hits: 35226, Tracks: 5750 Events: 18
Filter with OpenCL 2
Time GPU Kernel OpenCl2 Events: 18 Tracks: 5750 Hits: 35226 = 0.00010432 s
Time CPU Kernel OpenCl2 Events: 18 Tracks: 5750 Hits: 35226 = 0.000266075 s
Time CPU total OpenCl2 Events: 18 Tracks: 5750 Hits: 35226 = 7.177160e-01 s

Test for OpenCL
To import-> Hits: 35226, Tracks: 5750 Events: 18
Filter with OpenCL 1
Time GPU Kernel OpenCl1 Events: 18 Tracks: 5750 Hits: 35226 = 0.000100928 s
Time CPU Kernel OpenCl1 Events: 18 Tracks: 5750 Hits: 35226 = 0.000257969 s
Time CPU total OpenCl1 Events: 18 Tracks: 5750 Hits: 35226 = 7.258182e-01 s

-----------------------------
Test for Bad
To import-> Hits: 38329, Tracks: 6260 Events: 19
Filter with Bad method
Time CPU total Bad Events: 19 Tracks: 6260 Hits: 38329 = 1.883030e-03 s

Test for Good
To import-> Hits: 38329, Tracks: 6260 Events: 19
Filter with Cuda 2
Time GPU Kernel Cuda2 Events: 19 Tracks: 6260 Hits: 38329 = 1.172480e-04 s
Time CPU Kernel Cuda2 Events: 19 Tracks: 6260 Hits: 38329 = 1.130104e-04 s
Time CPU total Cuda2 Events: 19 Tracks: 6260 Hits: 38329 = 6.878462e-01 s

Test for Good
To import-> Hits: 38329, Tracks: 6260 Events: 19
Filter with Cuda 1
Time GPU Kernel Cuda1 Events: 19 Tracks: 6260 Hits: 38329 = 1.397120e-04 s
Time CPU Kernel Cuda1 Events: 19 Tracks: 6260 Hits: 38329 = 1.358986e-04 s
Time CPU total Cuda1 Events: 19 Tracks: 6260 Hits: 38329 = 6.849298e-01 s

Test for Good
To import-> Hits: 38329, Tracks: 6260 Events: 19
Filter with Good method
Time CPU total Good Events: 19 Tracks: 6260 Hits: 38329 = 1.003981e-03 s

Test for OpenCL
To import-> Hits: 38329, Tracks: 6260 Events: 19
Filter with OpenCL 2
Time GPU Kernel OpenCl2 Events: 19 Tracks: 6260 Hits: 38329 = 0.000101984 s
Time CPU Kernel OpenCl2 Events: 19 Tracks: 6260 Hits: 38329 = 0.000260115 s
Time CPU total OpenCl2 Events: 19 Tracks: 6260 Hits: 38329 = 7.246470e-01 s

Test for OpenCL
To import-> Hits: 38329, Tracks: 6260 Events: 19
Filter with OpenCL 1
Time GPU Kernel OpenCl1 Events: 19 Tracks: 6260 Hits: 38329 = 0.000103168 s
Time CPU Kernel OpenCl1 Events: 19 Tracks: 6260 Hits: 38329 = 0.000267029 s
Time CPU total OpenCl1 Events: 19 Tracks: 6260 Hits: 38329 = 7.210660e-01 s

-----------------------------
Test for Bad
To import-> Hits: 40004, Tracks: 6560 Events: 20
Filter with Bad method
Time CPU total Bad Events: 20 Tracks: 6560 Hits: 40004 = 2.012968e-03 s

Test for Good
To import-> Hits: 40004, Tracks: 6560 Events: 20
Filter with Cuda 2
Time GPU Kernel Cuda2 Events: 20 Tracks: 6560 Hits: 40004 = 1.142080e-04 s
Time CPU Kernel Cuda2 Events: 20 Tracks: 6560 Hits: 40004 = 1.101494e-04 s
Time CPU total Cuda2 Events: 20 Tracks: 6560 Hits: 40004 = 6.888220e-01 s

Test for Good
To import-> Hits: 40004, Tracks: 6560 Events: 20
Filter with Cuda 1
Time GPU Kernel Cuda1 Events: 20 Tracks: 6560 Hits: 40004 = 1.396480e-04 s
Time CPU Kernel Cuda1 Events: 20 Tracks: 6560 Hits: 40004 = 1.351833e-04 s
Time CPU total Cuda1 Events: 20 Tracks: 6560 Hits: 40004 = 6.868021e-01 s

Test for Good
To import-> Hits: 40004, Tracks: 6560 Events: 20
Filter with Good method
Time CPU total Good Events: 20 Tracks: 6560 Hits: 40004 = 1.050949e-03 s

Test for OpenCL
To import-> Hits: 40004, Tracks: 6560 Events: 20
Filter with OpenCL 2
Time GPU Kernel OpenCl2 Events: 20 Tracks: 6560 Hits: 40004 = 0.000107936 s
Time CPU Kernel OpenCl2 Events: 20 Tracks: 6560 Hits: 40004 = 0.000285864 s
Time CPU total OpenCl2 Events: 20 Tracks: 6560 Hits: 40004 = 7.245340e-01 s

Test for OpenCL
To import-> Hits: 40004, Tracks: 6560 Events: 20
Filter with OpenCL 1
Time GPU Kernel OpenCl1 Events: 20 Tracks: 6560 Hits: 40004 = 0.000103072 s
Time CPU Kernel OpenCl1 Events: 20 Tracks: 6560 Hits: 40004 = 0.000261068 s
Time CPU total OpenCl1 Events: 20 Tracks: 6560 Hits: 40004 = 7.241731e-01 s

-----------------------------
Test for Bad
To import-> Hits: 57158, Tracks: 9310 Events: 30
Filter with Bad method
Time CPU total Bad Events: 30 Tracks: 9310 Hits: 57158 = 3.343105e-03 s

Test for Good
To import-> Hits: 57158, Tracks: 9310 Events: 30
Filter with Cuda 2
Time GPU Kernel Cuda2 Events: 30 Tracks: 9310 Hits: 57158 = 1.451200e-04 s
Time CPU Kernel Cuda2 Events: 30 Tracks: 9310 Hits: 57158 = 1.399517e-04 s
Time CPU total Cuda2 Events: 30 Tracks: 9310 Hits: 57158 = 6.882770e-01 s

Test for Good
To import-> Hits: 57158, Tracks: 9310 Events: 30
Filter with Cuda 1
Time GPU Kernel Cuda1 Events: 30 Tracks: 9310 Hits: 57158 = 1.779200e-04 s
Time CPU Kernel Cuda1 Events: 30 Tracks: 9310 Hits: 57158 = 1.730919e-04 s
Time CPU total Cuda1 Events: 30 Tracks: 9310 Hits: 57158 = 6.871109e-01 s

Test for Good
To import-> Hits: 57158, Tracks: 9310 Events: 30
Filter with Good method
Time CPU total Good Events: 30 Tracks: 9310 Hits: 57158 = 1.513004e-03 s

Test for OpenCL
To import-> Hits: 57158, Tracks: 9310 Events: 30
Filter with OpenCL 2
Time GPU Kernel OpenCl2 Events: 30 Tracks: 9310 Hits: 57158 = 0.000138688 s
Time CPU Kernel OpenCl2 Events: 30 Tracks: 9310 Hits: 57158 = 0.000166893 s
Time CPU total OpenCl2 Events: 30 Tracks: 9310 Hits: 57158 = 7.270899e-01 s

Test for OpenCL
To import-> Hits: 57158, Tracks: 9310 Events: 30
Filter with OpenCL 1
Time GPU Kernel OpenCl1 Events: 30 Tracks: 9310 Hits: 57158 = 0.000130112 s
Time CPU Kernel OpenCl1 Events: 30 Tracks: 9310 Hits: 57158 = 0.000158072 s
Time CPU total OpenCl1 Events: 30 Tracks: 9310 Hits: 57158 = 7.245789e-01 s

-----------------------------
Test for Bad
To import-> Hits: 75953, Tracks: 12174 Events: 40
Filter with Bad method
Time CPU total Bad Events: 40 Tracks: 12174 Hits: 75953 = 3.761053e-03 s

Test for Good
To import-> Hits: 75953, Tracks: 12174 Events: 40
Filter with Cuda 2
Time GPU Kernel Cuda2 Events: 40 Tracks: 12174 Hits: 75953 = 1.593920e-04 s
Time CPU Kernel Cuda2 Events: 40 Tracks: 12174 Hits: 75953 = 1.561642e-04 s
Time CPU total Cuda2 Events: 40 Tracks: 12174 Hits: 75953 = 6.939130e-01 s

Test for Good
To import-> Hits: 75953, Tracks: 12174 Events: 40
Filter with Cuda 1
Time GPU Kernel Cuda1 Events: 40 Tracks: 12174 Hits: 75953 = 2.021120e-04 s
Time CPU Kernel Cuda1 Events: 40 Tracks: 12174 Hits: 75953 = 1.969337e-04 s
Time CPU total Cuda1 Events: 40 Tracks: 12174 Hits: 75953 = 6.939099e-01 s

Test for Good
To import-> Hits: 75953, Tracks: 12174 Events: 40
Filter with Good method
Time CPU total Good Events: 40 Tracks: 12174 Hits: 75953 = 1.996040e-03 s

Test for OpenCL
To import-> Hits: 75953, Tracks: 12174 Events: 40
Filter with OpenCL 2
Time GPU Kernel OpenCl2 Events: 40 Tracks: 12174 Hits: 75953 = 0.000176736 s
Time CPU Kernel OpenCl2 Events: 40 Tracks: 12174 Hits: 75953 = 0.00020504 s
Time CPU total OpenCl2 Events: 40 Tracks: 12174 Hits: 75953 = 7.271800e-01 s

Test for OpenCL
To import-> Hits: 75953, Tracks: 12174 Events: 40
Filter with OpenCL 1
Time GPU Kernel OpenCl1 Events: 40 Tracks: 12174 Hits: 75953 = 0.000151424 s
Time CPU Kernel OpenCl1 Events: 40 Tracks: 12174 Hits: 75953 = 0.000182152 s
Time CPU total OpenCl1 Events: 40 Tracks: 12174 Hits: 75953 = 7.283890e-01 s

-----------------------------
Test for Bad
To import-> Hits: 93663, Tracks: 15024 Events: 50
Filter with Bad method
Time CPU total Bad Events: 50 Tracks: 15024 Hits: 93663 = 5.002022e-03 s

Test for Good
To import-> Hits: 93663, Tracks: 15024 Events: 50
Filter with Cuda 2
Time GPU Kernel Cuda2 Events: 50 Tracks: 15024 Hits: 93663 = 1.748800e-04 s
Time CPU Kernel Cuda2 Events: 50 Tracks: 15024 Hits: 93663 = 1.730919e-04 s
Time CPU total Cuda2 Events: 50 Tracks: 15024 Hits: 93663 = 6.921029e-01 s

Test for Good
To import-> Hits: 93663, Tracks: 15024 Events: 50
Filter with Cuda 1
Time GPU Kernel Cuda1 Events: 50 Tracks: 15024 Hits: 93663 = 2.242560e-04 s
Time CPU Kernel Cuda1 Events: 50 Tracks: 15024 Hits: 93663 = 2.219677e-04 s
Time CPU total Cuda1 Events: 50 Tracks: 15024 Hits: 93663 = 6.877460e-01 s

Test for Good
To import-> Hits: 93663, Tracks: 15024 Events: 50
Filter with Good method
Time CPU total Good Events: 50 Tracks: 15024 Hits: 93663 = 2.478838e-03 s

Test for OpenCL
To import-> Hits: 93663, Tracks: 15024 Events: 50
Filter with OpenCL 2
Time GPU Kernel OpenCl2 Events: 50 Tracks: 15024 Hits: 93663 = 0.000185824 s
Time CPU Kernel OpenCl2 Events: 50 Tracks: 15024 Hits: 93663 = 0.0002141 s
Time CPU total OpenCl2 Events: 50 Tracks: 15024 Hits: 93663 = 7.275181e-01 s

Test for OpenCL
To import-> Hits: 93663, Tracks: 15024 Events: 50
Filter with OpenCL 1
Time GPU Kernel OpenCl1 Events: 50 Tracks: 15024 Hits: 93663 = 0.000174624 s
Time CPU Kernel OpenCl1 Events: 50 Tracks: 15024 Hits: 93663 = 0.000205994 s
Time CPU total OpenCl1 Events: 50 Tracks: 15024 Hits: 93663 = 7.227769e-01 s

-----------------------------
Test for Bad
To import-> Hits: 114400, Tracks: 18356 Events: 60
Filter with Bad method
Time CPU total Bad Events: 60 Tracks: 18356 Hits: 114400 = 6.636858e-03 s

Test for Good
To import-> Hits: 114400, Tracks: 18356 Events: 60
Filter with Cuda 2
Time GPU Kernel Cuda2 Events: 60 Tracks: 18356 Hits: 114400 = 1.980160e-04 s
Time CPU Kernel Cuda2 Events: 60 Tracks: 18356 Hits: 114400 = 1.950264e-04 s
Time CPU total Cuda2 Events: 60 Tracks: 18356 Hits: 114400 = 6.939020e-01 s

Test for Good
To import-> Hits: 114400, Tracks: 18356 Events: 60
Filter with Cuda 1
Time GPU Kernel Cuda1 Events: 60 Tracks: 18356 Hits: 114400 = 2.424320e-04 s
Time CPU Kernel Cuda1 Events: 60 Tracks: 18356 Hits: 114400 = 2.410412e-04 s
Time CPU total Cuda1 Events: 60 Tracks: 18356 Hits: 114400 = 6.863081e-01 s

Test for Good
To import-> Hits: 114400, Tracks: 18356 Events: 60
Filter with Good method
Time CPU total Good Events: 60 Tracks: 18356 Hits: 114400 = 3.039122e-03 s

Test for OpenCL
To import-> Hits: 114400, Tracks: 18356 Events: 60
Filter with OpenCL 2
Time GPU Kernel OpenCl2 Events: 60 Tracks: 18356 Hits: 114400 = 0.000236384 s
Time CPU Kernel OpenCl2 Events: 60 Tracks: 18356 Hits: 114400 = 0.000392199 s
Time CPU total OpenCl2 Events: 60 Tracks: 18356 Hits: 114400 = 7.277660e-01 s

Test for OpenCL
To import-> Hits: 114400, Tracks: 18356 Events: 60
Filter with OpenCL 1
Time GPU Kernel OpenCl1 Events: 60 Tracks: 18356 Hits: 114400 = 0.000201792 s
Time CPU Kernel OpenCl1 Events: 60 Tracks: 18356 Hits: 114400 = 0.000397921 s
Time CPU total OpenCl1 Events: 60 Tracks: 18356 Hits: 114400 = 7.090921e-01 s

-----------------------------
Test for Bad
To import-> Hits: 135212, Tracks: 21691 Events: 70
Filter with Bad method
Time CPU total Bad Events: 70 Tracks: 21691 Hits: 135212 = 6.376982e-03 s

Test for Good
To import-> Hits: 135212, Tracks: 21691 Events: 70
Filter with Cuda 2
Time GPU Kernel Cuda2 Events: 70 Tracks: 21691 Hits: 135212 = 2.164800e-04 s
Time CPU Kernel Cuda2 Events: 70 Tracks: 21691 Hits: 135212 = 2.160072e-04 s
Time CPU total Cuda2 Events: 70 Tracks: 21691 Hits: 135212 = 6.948051e-01 s

Test for Good
To import-> Hits: 135212, Tracks: 21691 Events: 70
Filter with Cuda 1
Time GPU Kernel Cuda1 Events: 70 Tracks: 21691 Hits: 135212 = 2.743360e-04 s
Time CPU Kernel Cuda1 Events: 70 Tracks: 21691 Hits: 135212 = 2.751350e-04 s
Time CPU total Cuda1 Events: 70 Tracks: 21691 Hits: 135212 = 6.901031e-01 s

Test for Good
To import-> Hits: 135212, Tracks: 21691 Events: 70
Filter with Good method
Time CPU total Good Events: 70 Tracks: 21691 Hits: 135212 = 3.582001e-03 s

Test for OpenCL
To import-> Hits: 135212, Tracks: 21691 Events: 70
Filter with OpenCL 2
Time GPU Kernel OpenCl2 Events: 70 Tracks: 21691 Hits: 135212 = 0.000267328 s
Time CPU Kernel OpenCl2 Events: 70 Tracks: 21691 Hits: 135212 = 0.000421047 s
Time CPU total OpenCl2 Events: 70 Tracks: 21691 Hits: 135212 = 7.369549e-01 s

Test for OpenCL
To import-> Hits: 135212, Tracks: 21691 Events: 70
Filter with OpenCL 1
Time GPU Kernel OpenCl1 Events: 70 Tracks: 21691 Hits: 135212 = 0.000222592 s
Time CPU Kernel OpenCl1 Events: 70 Tracks: 21691 Hits: 135212 = 0.000375986 s
Time CPU total OpenCl1 Events: 70 Tracks: 21691 Hits: 135212 = 7.204869e-01 s

-----------------------------
Test for Bad
To import-> Hits: 155915, Tracks: 24967 Events: 80
Filter with Bad method
Time CPU total Bad Events: 80 Tracks: 24967 Hits: 155915 = 7.736921e-03 s

Test for Good
To import-> Hits: 155915, Tracks: 24967 Events: 80
Filter with Cuda 2
Time GPU Kernel Cuda2 Events: 80 Tracks: 24967 Hits: 155915 = 2.385280e-04 s
Time CPU Kernel Cuda2 Events: 80 Tracks: 24967 Hits: 155915 = 2.391338e-04 s
Time CPU total Cuda2 Events: 80 Tracks: 24967 Hits: 155915 = 6.951010e-01 s

Test for Good
To import-> Hits: 155915, Tracks: 24967 Events: 80
Filter with Cuda 1
Time GPU Kernel Cuda1 Events: 80 Tracks: 24967 Hits: 155915 = 3.081280e-04 s
Time CPU Kernel Cuda1 Events: 80 Tracks: 24967 Hits: 155915 = 3.099442e-04 s
Time CPU total Cuda1 Events: 80 Tracks: 24967 Hits: 155915 = 6.873040e-01 s

Test for Good
To import-> Hits: 155915, Tracks: 24967 Events: 80
Filter with Good method
Time CPU total Good Events: 80 Tracks: 24967 Hits: 155915 = 4.112005e-03 s

Test for OpenCL
To import-> Hits: 155915, Tracks: 24967 Events: 80
Filter with OpenCL 2
Time GPU Kernel OpenCl2 Events: 80 Tracks: 24967 Hits: 155915 = 0.000304832 s
Time CPU Kernel OpenCl2 Events: 80 Tracks: 24967 Hits: 155915 = 0.000466108 s
Time CPU total OpenCl2 Events: 80 Tracks: 24967 Hits: 155915 = 7.252772e-01 s

Test for OpenCL
To import-> Hits: 155915, Tracks: 24967 Events: 80
Filter with OpenCL 1
Time GPU Kernel OpenCl1 Events: 80 Tracks: 24967 Hits: 155915 = 0.000247232 s
Time CPU Kernel OpenCl1 Events: 80 Tracks: 24967 Hits: 155915 = 0.000402927 s
Time CPU total OpenCl1 Events: 80 Tracks: 24967 Hits: 155915 = 7.281799e-01 s

-----------------------------
Test for Bad
To import-> Hits: 175352, Tracks: 28121 Events: 90
Filter with Bad method
Time CPU total Bad Events: 90 Tracks: 28121 Hits: 175352 = 9.252071e-03 s

Test for Good
To import-> Hits: 175352, Tracks: 28121 Events: 90
Filter with Cuda 2
Time GPU Kernel Cuda2 Events: 90 Tracks: 28121 Hits: 175352 = 2.612160e-04 s
Time CPU Kernel Cuda2 Events: 90 Tracks: 28121 Hits: 175352 = 2.629757e-04 s
Time CPU total Cuda2 Events: 90 Tracks: 28121 Hits: 175352 = 6.912169e-01 s

Test for Good
To import-> Hits: 175352, Tracks: 28121 Events: 90
Filter with Cuda 1
Time GPU Kernel Cuda1 Events: 90 Tracks: 28121 Hits: 175352 = 3.323200e-04 s
Time CPU Kernel Cuda1 Events: 90 Tracks: 28121 Hits: 175352 = 3.340244e-04 s
Time CPU total Cuda1 Events: 90 Tracks: 28121 Hits: 175352 = 6.909652e-01 s

Test for Good
To import-> Hits: 175352, Tracks: 28121 Events: 90
Filter with Good method
Time CPU total Good Events: 90 Tracks: 28121 Hits: 175352 = 4.658937e-03 s

Test for OpenCL
To import-> Hits: 175352, Tracks: 28121 Events: 90
Filter with OpenCL 2
Time GPU Kernel OpenCl2 Events: 90 Tracks: 28121 Hits: 175352 = 0.000350688 s
Time CPU Kernel OpenCl2 Events: 90 Tracks: 28121 Hits: 175352 = 0.000503063 s
Time CPU total OpenCl2 Events: 90 Tracks: 28121 Hits: 175352 = 7.358220e-01 s

Test for OpenCL
To import-> Hits: 175352, Tracks: 28121 Events: 90
Filter with OpenCL 1
Time GPU Kernel OpenCl1 Events: 90 Tracks: 28121 Hits: 175352 = 0.000272736 s
Time CPU Kernel OpenCl1 Events: 90 Tracks: 28121 Hits: 175352 = 0.000427961 s
Time CPU total OpenCl1 Events: 90 Tracks: 28121 Hits: 175352 = 7.324898e-01 s

-----------------------------
Test for Bad
To import-> Hits: 196714, Tracks: 31506 Events: 100
Filter with Bad method
Time CPU total Bad Events: 100 Tracks: 31506 Hits: 196714 = 1.079202e-02 s

Test for Good
To import-> Hits: 196714, Tracks: 31506 Events: 100
Filter with Cuda 2
Time GPU Kernel Cuda2 Events: 100 Tracks: 31506 Hits: 196714 = 2.796160e-04 s
Time CPU Kernel Cuda2 Events: 100 Tracks: 31506 Hits: 196714 = 2.839565e-04 s
Time CPU total Cuda2 Events: 100 Tracks: 31506 Hits: 196714 = 6.961460e-01 s

Test for Good
To import-> Hits: 196714, Tracks: 31506 Events: 100
Filter with Cuda 1
Time GPU Kernel Cuda1 Events: 100 Tracks: 31506 Hits: 196714 = 3.671680e-04 s
Time CPU Kernel Cuda1 Events: 100 Tracks: 31506 Hits: 196714 = 3.700256e-04 s
Time CPU total Cuda1 Events: 100 Tracks: 31506 Hits: 196714 = 6.933599e-01 s

Test for Good
To import-> Hits: 196714, Tracks: 31506 Events: 100
Filter with Good method
Time CPU total Good Events: 100 Tracks: 31506 Hits: 196714 = 5.219936e-03 s

Test for OpenCL
To import-> Hits: 196714, Tracks: 31506 Events: 100
Filter with OpenCL 2
Time GPU Kernel OpenCl2 Events: 100 Tracks: 31506 Hits: 196714 = 0.000356512 s
Time CPU Kernel OpenCl2 Events: 100 Tracks: 31506 Hits: 196714 = 0.00051403 s
Time CPU total OpenCl2 Events: 100 Tracks: 31506 Hits: 196714 = 7.394991e-01 s

Test for OpenCL
To import-> Hits: 196714, Tracks: 31506 Events: 100
Filter with OpenCL 1
Time GPU Kernel OpenCl1 Events: 100 Tracks: 31506 Hits: 196714 = 0.000297984 s
Time CPU Kernel OpenCl1 Events: 100 Tracks: 31506 Hits: 196714 = 0.000453949 s
Time CPU total OpenCl1 Events: 100 Tracks: 31506 Hits: 196714 = 7.358060e-01 s

-----------------------------
Test for Bad
To import-> Hits: 214801, Tracks: 34413 Events: 110
Filter with Bad method
Time CPU total Bad Events: 110 Tracks: 34413 Hits: 214801 = 1.205611e-02 s

Test for Good
To import-> Hits: 214801, Tracks: 34413 Events: 110
Filter with Cuda 2
Time GPU Kernel Cuda2 Events: 110 Tracks: 34413 Hits: 214801 = 3.018240e-04 s
Time CPU Kernel Cuda2 Events: 110 Tracks: 34413 Hits: 214801 = 3.061295e-04 s
Time CPU total Cuda2 Events: 110 Tracks: 34413 Hits: 214801 = 6.983759e-01 s

Test for Good
To import-> Hits: 214801, Tracks: 34413 Events: 110
Filter with Cuda 1
Time GPU Kernel Cuda1 Events: 110 Tracks: 34413 Hits: 214801 = 3.858880e-04 s
Time CPU Kernel Cuda1 Events: 110 Tracks: 34413 Hits: 214801 = 3.910065e-04 s
Time CPU total Cuda1 Events: 110 Tracks: 34413 Hits: 214801 = 6.811020e-01 s

Test for Good
To import-> Hits: 214801, Tracks: 34413 Events: 110
Filter with Good method
Time CPU total Good Events: 110 Tracks: 34413 Hits: 214801 = 5.694866e-03 s

Test for OpenCL
To import-> Hits: 214801, Tracks: 34413 Events: 110
Filter with OpenCL 2
Time GPU Kernel OpenCl2 Events: 110 Tracks: 34413 Hits: 214801 = 0.00038896 s
Time CPU Kernel OpenCl2 Events: 110 Tracks: 34413 Hits: 214801 = 0.000544071 s
Time CPU total OpenCl2 Events: 110 Tracks: 34413 Hits: 214801 = 7.324522e-01 s

Test for OpenCL
To import-> Hits: 214801, Tracks: 34413 Events: 110
Filter with OpenCL 1
Time GPU Kernel OpenCl1 Events: 110 Tracks: 34413 Hits: 214801 = 0.000322176 s
Time CPU Kernel OpenCl1 Events: 110 Tracks: 34413 Hits: 214801 = 0.000478983 s
Time CPU total OpenCl1 Events: 110 Tracks: 34413 Hits: 214801 = 7.304111e-01 s

-----------------------------
Test for Bad
To import-> Hits: 233881, Tracks: 37459 Events: 120
Filter with Bad method
Time CPU total Bad Events: 120 Tracks: 37459 Hits: 233881 = 1.332998e-02 s

Test for Good
To import-> Hits: 233881, Tracks: 37459 Events: 120
Filter with Cuda 2
Time GPU Kernel Cuda2 Events: 120 Tracks: 37459 Hits: 233881 = 3.328640e-04 s
Time CPU Kernel Cuda2 Events: 120 Tracks: 37459 Hits: 233881 = 3.368855e-04 s
Time CPU total Cuda2 Events: 120 Tracks: 37459 Hits: 233881 = 6.857100e-01 s

Test for Good
To import-> Hits: 233881, Tracks: 37459 Events: 120
Filter with Cuda 1
Time GPU Kernel Cuda1 Events: 120 Tracks: 37459 Hits: 233881 = 4.270080e-04 s
Time CPU Kernel Cuda1 Events: 120 Tracks: 37459 Hits: 233881 = 4.320145e-04 s
Time CPU total Cuda1 Events: 120 Tracks: 37459 Hits: 233881 = 6.889782e-01 s

Test for Good
To import-> Hits: 233881, Tracks: 37459 Events: 120
Filter with Good method
Time CPU total Good Events: 120 Tracks: 37459 Hits: 233881 = 6.119013e-03 s

Test for OpenCL
To import-> Hits: 233881, Tracks: 37459 Events: 120
Filter with OpenCL 2
Time GPU Kernel OpenCl2 Events: 120 Tracks: 37459 Hits: 233881 = 0.00044848 s
Time CPU Kernel OpenCl2 Events: 120 Tracks: 37459 Hits: 233881 = 0.000605106 s
Time CPU total OpenCl2 Events: 120 Tracks: 37459 Hits: 233881 = 7.356000e-01 s

Test for OpenCL
To import-> Hits: 233881, Tracks: 37459 Events: 120
Filter with OpenCL 1
Time GPU Kernel OpenCl1 Events: 120 Tracks: 37459 Hits: 233881 = 0.000349344 s
Time CPU Kernel OpenCl1 Events: 120 Tracks: 37459 Hits: 233881 = 0.000505924 s
Time CPU total OpenCl1 Events: 120 Tracks: 37459 Hits: 233881 = 7.285719e-01 s

-----------------------------
Test for Bad
To import-> Hits: 254225, Tracks: 40754 Events: 130
Filter with Bad method
Time CPU total Bad Events: 130 Tracks: 40754 Hits: 254225 = 1.179910e-02 s

Test for Good
To import-> Hits: 254225, Tracks: 40754 Events: 130
Filter with Cuda 2
Time GPU Kernel Cuda2 Events: 130 Tracks: 40754 Hits: 254225 = 3.476480e-04 s
Time CPU Kernel Cuda2 Events: 130 Tracks: 40754 Hits: 254225 = 3.540516e-04 s
Time CPU total Cuda2 Events: 130 Tracks: 40754 Hits: 254225 = 6.987119e-01 s

Test for Good
To import-> Hits: 254225, Tracks: 40754 Events: 130
Filter with Cuda 1
Time GPU Kernel Cuda1 Events: 130 Tracks: 40754 Hits: 254225 = 4.599680e-04 s
Time CPU Kernel Cuda1 Events: 130 Tracks: 40754 Hits: 254225 = 4.661083e-04 s
Time CPU total Cuda1 Events: 130 Tracks: 40754 Hits: 254225 = 6.953061e-01 s

Test for Good
To import-> Hits: 254225, Tracks: 40754 Events: 130
Filter with Good method
Time CPU total Good Events: 130 Tracks: 40754 Hits: 254225 = 6.726980e-03 s

Test for OpenCL
To import-> Hits: 254225, Tracks: 40754 Events: 130
Filter with OpenCL 2
Time GPU Kernel OpenCl2 Events: 130 Tracks: 40754 Hits: 254225 = 0.00047376 s
Time CPU Kernel OpenCl2 Events: 130 Tracks: 40754 Hits: 254225 = 0.000635147 s
Time CPU total OpenCl2 Events: 130 Tracks: 40754 Hits: 254225 = 7.293320e-01 s

Test for OpenCL
To import-> Hits: 254225, Tracks: 40754 Events: 130
Filter with OpenCL 1
Time GPU Kernel OpenCl1 Events: 130 Tracks: 40754 Hits: 254225 = 0.000371808 s
Time CPU Kernel OpenCl1 Events: 130 Tracks: 40754 Hits: 254225 = 0.000528097 s
Time CPU total OpenCl1 Events: 130 Tracks: 40754 Hits: 254225 = 7.297268e-01 s

-----------------------------
Test for Bad
To import-> Hits: 278857, Tracks: 44705 Events: 140
Filter with Bad method
Time CPU total Bad Events: 140 Tracks: 44705 Hits: 278857 = 1.341891e-02 s

Test for Good
To import-> Hits: 278857, Tracks: 44705 Events: 140
Filter with Cuda 2
Time GPU Kernel Cuda2 Events: 140 Tracks: 44705 Hits: 278857 = 3.800000e-04 s
Time CPU Kernel Cuda2 Events: 140 Tracks: 44705 Hits: 278857 = 3.869534e-04 s
Time CPU total Cuda2 Events: 140 Tracks: 44705 Hits: 278857 = 6.965871e-01 s

Test for Good
To import-> Hits: 278857, Tracks: 44705 Events: 140
Filter with Cuda 1
Time GPU Kernel Cuda1 Events: 140 Tracks: 44705 Hits: 278857 = 5.036160e-04 s
Time CPU Kernel Cuda1 Events: 140 Tracks: 44705 Hits: 278857 = 5.021095e-04 s
Time CPU total Cuda1 Events: 140 Tracks: 44705 Hits: 278857 = 6.944051e-01 s

Test for Good
To import-> Hits: 278857, Tracks: 44705 Events: 140
Filter with Good method
Time CPU total Good Events: 140 Tracks: 44705 Hits: 278857 = 7.392168e-03 s

Test for OpenCL
To import-> Hits: 278857, Tracks: 44705 Events: 140
Filter with OpenCL 2
Time GPU Kernel OpenCl2 Events: 140 Tracks: 44705 Hits: 278857 = 0.00052512 s
Time CPU Kernel OpenCl2 Events: 140 Tracks: 44705 Hits: 278857 = 0.000681162 s
Time CPU total OpenCl2 Events: 140 Tracks: 44705 Hits: 278857 = 7.322121e-01 s

Test for OpenCL
To import-> Hits: 278857, Tracks: 44705 Events: 140
Filter with OpenCL 1
Time GPU Kernel OpenCl1 Events: 140 Tracks: 44705 Hits: 278857 = 0.000411904 s
Time CPU Kernel OpenCl1 Events: 140 Tracks: 44705 Hits: 278857 = 0.000567913 s
Time CPU total OpenCl1 Events: 140 Tracks: 44705 Hits: 278857 = 7.280149e-01 s

-----------------------------
Test for Bad
To import-> Hits: 299938, Tracks: 48106 Events: 150
Filter with Bad method
Time CPU total Bad Events: 150 Tracks: 48106 Hits: 299938 = 1.428890e-02 s

Test for Good
To import-> Hits: 299938, Tracks: 48106 Events: 150
Filter with Cuda 2
Time GPU Kernel Cuda2 Events: 150 Tracks: 48106 Hits: 299938 = 3.990720e-04 s
Time CPU Kernel Cuda2 Events: 150 Tracks: 48106 Hits: 299938 = 4.069805e-04 s
Time CPU total Cuda2 Events: 150 Tracks: 48106 Hits: 299938 = 7.015259e-01 s

Test for Good
To import-> Hits: 299938, Tracks: 48106 Events: 150
Filter with Cuda 1
Time GPU Kernel Cuda1 Events: 150 Tracks: 48106 Hits: 299938 = 5.145920e-04 s
Time CPU Kernel Cuda1 Events: 150 Tracks: 48106 Hits: 299938 = 5.218983e-04 s
Time CPU total Cuda1 Events: 150 Tracks: 48106 Hits: 299938 = 7.035120e-01 s

Test for Good
To import-> Hits: 299938, Tracks: 48106 Events: 150
Filter with Good method
Time CPU total Good Events: 150 Tracks: 48106 Hits: 299938 = 7.922888e-03 s

Test for OpenCL
To import-> Hits: 299938, Tracks: 48106 Events: 150
Filter with OpenCL 2
Time GPU Kernel OpenCl2 Events: 150 Tracks: 48106 Hits: 299938 = 0.000558432 s
Time CPU Kernel OpenCl2 Events: 150 Tracks: 48106 Hits: 299938 = 0.000720024 s
Time CPU total OpenCl2 Events: 150 Tracks: 48106 Hits: 299938 = 7.442372e-01 s

Test for OpenCL
To import-> Hits: 299938, Tracks: 48106 Events: 150
Filter with OpenCL 1
Time GPU Kernel OpenCl1 Events: 150 Tracks: 48106 Hits: 299938 = 0.000428544 s
Time CPU Kernel OpenCl1 Events: 150 Tracks: 48106 Hits: 299938 = 0.000585794 s
Time CPU total OpenCl1 Events: 150 Tracks: 48106 Hits: 299938 = 7.346060e-01 s

-----------------------------
Test for Bad
To import-> Hits: 321407, Tracks: 51627 Events: 160
Filter with Bad method
Time CPU total Bad Events: 160 Tracks: 51627 Hits: 321407 = 1.578498e-02 s

Test for Good
To import-> Hits: 321407, Tracks: 51627 Events: 160
Filter with Cuda 2
Time GPU Kernel Cuda2 Events: 160 Tracks: 51627 Hits: 321407 = 4.169280e-04 s
Time CPU Kernel Cuda2 Events: 160 Tracks: 51627 Hits: 321407 = 4.260540e-04 s
Time CPU total Cuda2 Events: 160 Tracks: 51627 Hits: 321407 = 6.962910e-01 s

Test for Good
To import-> Hits: 321407, Tracks: 51627 Events: 160
Filter with Cuda 1
Time GPU Kernel Cuda1 Events: 160 Tracks: 51627 Hits: 321407 = 5.501441e-04 s
Time CPU Kernel Cuda1 Events: 160 Tracks: 51627 Hits: 321407 = 5.600452e-04 s
Time CPU total Cuda1 Events: 160 Tracks: 51627 Hits: 321407 = 6.925321e-01 s

Test for Good
To import-> Hits: 321407, Tracks: 51627 Events: 160
Filter with Good method
Time CPU total Good Events: 160 Tracks: 51627 Hits: 321407 = 8.579969e-03 s

Test for OpenCL
To import-> Hits: 321407, Tracks: 51627 Events: 160
Filter with OpenCL 2
Time GPU Kernel OpenCl2 Events: 160 Tracks: 51627 Hits: 321407 = 0.00058256 s
Time CPU Kernel OpenCl2 Events: 160 Tracks: 51627 Hits: 321407 = 0.000733137 s
Time CPU total OpenCl2 Events: 160 Tracks: 51627 Hits: 321407 = 7.424450e-01 s

Test for OpenCL
To import-> Hits: 321407, Tracks: 51627 Events: 160
Filter with OpenCL 1
Time GPU Kernel OpenCl1 Events: 160 Tracks: 51627 Hits: 321407 = 0.00045376 s
Time CPU Kernel OpenCl1 Events: 160 Tracks: 51627 Hits: 321407 = 0.000607014 s
Time CPU total OpenCl1 Events: 160 Tracks: 51627 Hits: 321407 = 7.362690e-01 s

-----------------------------
Test for Bad
To import-> Hits: 339287, Tracks: 54445 Events: 170
Filter with Bad method
Time CPU total Bad Events: 170 Tracks: 54445 Hits: 339287 = 1.687288e-02 s

Test for Good
To import-> Hits: 339287, Tracks: 54445 Events: 170
Filter with Cuda 2
Time GPU Kernel Cuda2 Events: 170 Tracks: 54445 Hits: 339287 = 4.387840e-04 s
Time CPU Kernel Cuda2 Events: 170 Tracks: 54445 Hits: 339287 = 4.491806e-04 s
Time CPU total Cuda2 Events: 170 Tracks: 54445 Hits: 339287 = 6.973541e-01 s

Test for Good
To import-> Hits: 339287, Tracks: 54445 Events: 170
Filter with Cuda 1
Time GPU Kernel Cuda1 Events: 170 Tracks: 54445 Hits: 339287 = 5.721280e-04 s
Time CPU Kernel Cuda1 Events: 170 Tracks: 54445 Hits: 339287 = 5.810261e-04 s
Time CPU total Cuda1 Events: 170 Tracks: 54445 Hits: 339287 = 6.960981e-01 s

Test for Good
To import-> Hits: 339287, Tracks: 54445 Events: 170
Filter with Good method
Time CPU total Good Events: 170 Tracks: 54445 Hits: 339287 = 9.001017e-03 s

Test for OpenCL
To import-> Hits: 339287, Tracks: 54445 Events: 170
Filter with OpenCL 2
Time GPU Kernel OpenCl2 Events: 170 Tracks: 54445 Hits: 339287 = 0.000620192 s
Time CPU Kernel OpenCl2 Events: 170 Tracks: 54445 Hits: 339287 = 0.000770092 s
Time CPU total OpenCl2 Events: 170 Tracks: 54445 Hits: 339287 = 7.368300e-01 s

Test for OpenCL
To import-> Hits: 339287, Tracks: 54445 Events: 170
Filter with OpenCL 1
Time GPU Kernel OpenCl1 Events: 170 Tracks: 54445 Hits: 339287 = 0.000480352 s
Time CPU Kernel OpenCl1 Events: 170 Tracks: 54445 Hits: 339287 = 0.000629902 s
Time CPU total OpenCl1 Events: 170 Tracks: 54445 Hits: 339287 = 7.358658e-01 s

-----------------------------
Test for Bad
To import-> Hits: 357414, Tracks: 57335 Events: 180
Filter with Bad method
Time CPU total Bad Events: 180 Tracks: 57335 Hits: 357414 = 1.826096e-02 s

Test for Good
To import-> Hits: 357414, Tracks: 57335 Events: 180
Filter with Cuda 2
Time GPU Kernel Cuda2 Events: 180 Tracks: 57335 Hits: 357414 = 4.590080e-04 s
Time CPU Kernel Cuda2 Events: 180 Tracks: 57335 Hits: 357414 = 4.699230e-04 s
Time CPU total Cuda2 Events: 180 Tracks: 57335 Hits: 357414 = 6.985540e-01 s

Test for Good
To import-> Hits: 357414, Tracks: 57335 Events: 180
Filter with Cuda 1
Time GPU Kernel Cuda1 Events: 180 Tracks: 57335 Hits: 357414 = 6.083200e-04 s
Time CPU Kernel Cuda1 Events: 180 Tracks: 57335 Hits: 357414 = 6.179810e-04 s
Time CPU total Cuda1 Events: 180 Tracks: 57335 Hits: 357414 = 6.579251e-01 s

Test for Good
To import-> Hits: 357414, Tracks: 57335 Events: 180
Filter with Good method
Time CPU total Good Events: 180 Tracks: 57335 Hits: 357414 = 9.282112e-03 s

Test for OpenCL
To import-> Hits: 357414, Tracks: 57335 Events: 180
Filter with OpenCL 2
Time GPU Kernel OpenCl2 Events: 180 Tracks: 57335 Hits: 357414 = 0.00065456 s
Time CPU Kernel OpenCl2 Events: 180 Tracks: 57335 Hits: 357414 = 0.000804186 s
Time CPU total OpenCl2 Events: 180 Tracks: 57335 Hits: 357414 = 7.330351e-01 s

Test for OpenCL
To import-> Hits: 357414, Tracks: 57335 Events: 180
Filter with OpenCL 1
Time GPU Kernel OpenCl1 Events: 180 Tracks: 57335 Hits: 357414 = 0.000502048 s
Time CPU Kernel OpenCl1 Events: 180 Tracks: 57335 Hits: 357414 = 0.000655174 s
Time CPU total OpenCl1 Events: 180 Tracks: 57335 Hits: 357414 = 7.308619e-01 s

-----------------------------
Test for Bad
To import-> Hits: 377316, Tracks: 60572 Events: 190
Filter with Bad method
Time CPU total Bad Events: 190 Tracks: 60572 Hits: 377316 = 1.955009e-02 s

Test for Good
To import-> Hits: 377316, Tracks: 60572 Events: 190
Filter with Cuda 2
Time GPU Kernel Cuda2 Events: 190 Tracks: 60572 Hits: 377316 = 4.734400e-04 s
Time CPU Kernel Cuda2 Events: 190 Tracks: 60572 Hits: 377316 = 4.858971e-04 s
Time CPU total Cuda2 Events: 190 Tracks: 60572 Hits: 377316 = 6.916380e-01 s

Test for Good
To import-> Hits: 377316, Tracks: 60572 Events: 190
Filter with Cuda 1
Time GPU Kernel Cuda1 Events: 190 Tracks: 60572 Hits: 377316 = 6.279360e-04 s
Time CPU Kernel Cuda1 Events: 190 Tracks: 60572 Hits: 377316 = 6.401539e-04 s
Time CPU total Cuda1 Events: 190 Tracks: 60572 Hits: 377316 = 6.970530e-01 s

Test for Good
To import-> Hits: 377316, Tracks: 60572 Events: 190
Filter with Good method
Time CPU total Good Events: 190 Tracks: 60572 Hits: 377316 = 1.013708e-02 s

Test for OpenCL
To import-> Hits: 377316, Tracks: 60572 Events: 190
Filter with OpenCL 2
Time GPU Kernel OpenCl2 Events: 190 Tracks: 60572 Hits: 377316 = 0.000669824 s
Time CPU Kernel OpenCl2 Events: 190 Tracks: 60572 Hits: 377316 = 0.000847816 s
Time CPU total OpenCl2 Events: 190 Tracks: 60572 Hits: 377316 = 7.350011e-01 s

Test for OpenCL
To import-> Hits: 377316, Tracks: 60572 Events: 190
Filter with OpenCL 1
Time GPU Kernel OpenCl1 Events: 190 Tracks: 60572 Hits: 377316 = 0.00052544 s
Time CPU Kernel OpenCl1 Events: 190 Tracks: 60572 Hits: 377316 = 0.000678062 s
Time CPU total OpenCl1 Events: 190 Tracks: 60572 Hits: 377316 = 7.331300e-01 s

-----------------------------
Test for Bad
To import-> Hits: 398354, Tracks: 63921 Events: 200
Filter with Bad method
Time CPU total Bad Events: 200 Tracks: 63921 Hits: 398354 = 2.127004e-02 s

Test for Good
To import-> Hits: 398354, Tracks: 63921 Events: 200
Filter with Cuda 2
Time GPU Kernel Cuda2 Events: 200 Tracks: 63921 Hits: 398354 = 5.009920e-04 s
Time CPU Kernel Cuda2 Events: 200 Tracks: 63921 Hits: 398354 = 5.140305e-04 s
Time CPU total Cuda2 Events: 200 Tracks: 63921 Hits: 398354 = 7.045259e-01 s

Test for Good
To import-> Hits: 398354, Tracks: 63921 Events: 200
Filter with Cuda 1
Time GPU Kernel Cuda1 Events: 200 Tracks: 63921 Hits: 398354 = 6.657280e-04 s
Time CPU Kernel Cuda1 Events: 200 Tracks: 63921 Hits: 398354 = 6.802082e-04 s
Time CPU total Cuda1 Events: 200 Tracks: 63921 Hits: 398354 = 6.886299e-01 s

Test for Good
To import-> Hits: 398354, Tracks: 63921 Events: 200
Filter with Good method
Time CPU total Good Events: 200 Tracks: 63921 Hits: 398354 = 9.279013e-03 s

Test for OpenCL
To import-> Hits: 398354, Tracks: 63921 Events: 200
Filter with OpenCL 2
Time GPU Kernel OpenCl2 Events: 200 Tracks: 63921 Hits: 398354 = 0.000711808 s
Time CPU Kernel OpenCl2 Events: 200 Tracks: 63921 Hits: 398354 = 0.000860929 s
Time CPU total OpenCl2 Events: 200 Tracks: 63921 Hits: 398354 = 7.353849e-01 s

Test for OpenCL
To import-> Hits: 398354, Tracks: 63921 Events: 200
Filter with OpenCL 1
Time GPU Kernel OpenCl1 Events: 200 Tracks: 63921 Hits: 398354 = 0.000557696 s
Time CPU Kernel OpenCl1 Events: 200 Tracks: 63921 Hits: 398354 = 0.000714064 s
Time CPU total OpenCl1 Events: 200 Tracks: 63921 Hits: 398354 = 7.311392e-01 s

-----------------------------
Test for Bad
To import-> Hits: 416406, Tracks: 66802 Events: 210
Filter with Bad method
Time CPU total Bad Events: 210 Tracks: 66802 Hits: 416406 = 2.263713e-02 s

Test for Good
To import-> Hits: 416406, Tracks: 66802 Events: 210
Filter with Cuda 2
Time GPU Kernel Cuda2 Events: 210 Tracks: 66802 Hits: 416406 = 5.278721e-04 s
Time CPU Kernel Cuda2 Events: 210 Tracks: 66802 Hits: 416406 = 5.431175e-04 s
Time CPU total Cuda2 Events: 210 Tracks: 66802 Hits: 416406 = 7.022610e-01 s

Test for Good
To import-> Hits: 416406, Tracks: 66802 Events: 210
Filter with Cuda 1
Time GPU Kernel Cuda1 Events: 210 Tracks: 66802 Hits: 416406 = 7.010881e-04 s
Time CPU Kernel Cuda1 Events: 210 Tracks: 66802 Hits: 416406 = 7.159710e-04 s
Time CPU total Cuda1 Events: 210 Tracks: 66802 Hits: 416406 = 6.973028e-01 s

Test for Good
To import-> Hits: 416406, Tracks: 66802 Events: 210
Filter with Good method
Time CPU total Good Events: 210 Tracks: 66802 Hits: 416406 = 1.056910e-02 s

Test for OpenCL
To import-> Hits: 416406, Tracks: 66802 Events: 210
Filter with OpenCL 2
Time GPU Kernel OpenCl2 Events: 210 Tracks: 66802 Hits: 416406 = 0.000757824 s
Time CPU Kernel OpenCl2 Events: 210 Tracks: 66802 Hits: 416406 = 0.00090909 s
Time CPU total OpenCl2 Events: 210 Tracks: 66802 Hits: 416406 = 7.372169e-01 s

Test for OpenCL
To import-> Hits: 416406, Tracks: 66802 Events: 210
Filter with OpenCL 1
Time GPU Kernel OpenCl1 Events: 210 Tracks: 66802 Hits: 416406 = 0.000582752 s
Time CPU Kernel OpenCl1 Events: 210 Tracks: 66802 Hits: 416406 = 0.00073719 s
Time CPU total OpenCl1 Events: 210 Tracks: 66802 Hits: 416406 = 7.439342e-01 s

-----------------------------
Test for Bad
To import-> Hits: 435132, Tracks: 69786 Events: 220
Filter with Bad method
Time CPU total Bad Events: 220 Tracks: 69786 Hits: 435132 = 2.403688e-02 s

Test for Good
To import-> Hits: 435132, Tracks: 69786 Events: 220
Filter with Cuda 2
Time GPU Kernel Cuda2 Events: 220 Tracks: 69786 Hits: 435132 = 5.429441e-04 s
Time CPU Kernel Cuda2 Events: 220 Tracks: 69786 Hits: 435132 = 5.578995e-04 s
Time CPU total Cuda2 Events: 220 Tracks: 69786 Hits: 435132 = 7.026200e-01 s

Test for Good
To import-> Hits: 435132, Tracks: 69786 Events: 220
Filter with Cuda 1
Time GPU Kernel Cuda1 Events: 220 Tracks: 69786 Hits: 435132 = 7.151360e-04 s
Time CPU Kernel Cuda1 Events: 220 Tracks: 69786 Hits: 435132 = 7.309914e-04 s
Time CPU total Cuda1 Events: 220 Tracks: 69786 Hits: 435132 = 6.789649e-01 s

Test for Good
To import-> Hits: 435132, Tracks: 69786 Events: 220
Filter with Good method
Time CPU total Good Events: 220 Tracks: 69786 Hits: 435132 = 1.141691e-02 s

Test for OpenCL
To import-> Hits: 435132, Tracks: 69786 Events: 220
Filter with OpenCL 2
Time GPU Kernel OpenCl2 Events: 220 Tracks: 69786 Hits: 435132 = 0.000804352 s
Time CPU Kernel OpenCl2 Events: 220 Tracks: 69786 Hits: 435132 = 0.000956059 s
Time CPU total OpenCl2 Events: 220 Tracks: 69786 Hits: 435132 = 3.468244e+00 s

Test for OpenCL
To import-> Hits: 435132, Tracks: 69786 Events: 220
Filter with OpenCL 1
Time GPU Kernel OpenCl1 Events: 220 Tracks: 69786 Hits: 435132 = 0.000603616 s
Time CPU Kernel OpenCl1 Events: 220 Tracks: 69786 Hits: 435132 = 0.00075388 s
Time CPU total OpenCl1 Events: 220 Tracks: 69786 Hits: 435132 = 7.393181e-01 s

-----------------------------
Test for Bad
To import-> Hits: 452586, Tracks: 72547 Events: 230
Filter with Bad method
Time CPU total Bad Events: 230 Tracks: 72547 Hits: 452586 = 2.529907e-02 s

Test for Good
To import-> Hits: 452586, Tracks: 72547 Events: 230
Filter with Cuda 2
Time GPU Kernel Cuda2 Events: 230 Tracks: 72547 Hits: 452586 = 5.685760e-04 s
Time CPU Kernel Cuda2 Events: 230 Tracks: 72547 Hits: 452586 = 5.841255e-04 s
Time CPU total Cuda2 Events: 230 Tracks: 72547 Hits: 452586 = 7.017660e-01 s

Test for Good
To import-> Hits: 452586, Tracks: 72547 Events: 230
Filter with Cuda 1
Time GPU Kernel Cuda1 Events: 230 Tracks: 72547 Hits: 452586 = 7.540800e-04 s
Time CPU Kernel Cuda1 Events: 230 Tracks: 72547 Hits: 452586 = 7.698536e-04 s
Time CPU total Cuda1 Events: 230 Tracks: 72547 Hits: 452586 = 6.954629e-01 s

Test for Good
To import-> Hits: 452586, Tracks: 72547 Events: 230
Filter with Good method
Time CPU total Good Events: 230 Tracks: 72547 Hits: 452586 = 1.152492e-02 s

Test for OpenCL
To import-> Hits: 452586, Tracks: 72547 Events: 230
Filter with OpenCL 2
Time GPU Kernel OpenCl2 Events: 230 Tracks: 72547 Hits: 452586 = 0.00081712 s
Time CPU Kernel OpenCl2 Events: 230 Tracks: 72547 Hits: 452586 = 0.000967026 s
Time CPU total OpenCl2 Events: 230 Tracks: 72547 Hits: 452586 = 7.372410e-01 s

Test for OpenCL
To import-> Hits: 452586, Tracks: 72547 Events: 230
Filter with OpenCL 1
Time GPU Kernel OpenCl1 Events: 230 Tracks: 72547 Hits: 452586 = 0.000625792 s
Time CPU Kernel OpenCl1 Events: 230 Tracks: 72547 Hits: 452586 = 0.000778913 s
Time CPU total OpenCl1 Events: 230 Tracks: 72547 Hits: 452586 = 7.479250e-01 s

-----------------------------
Test for Bad
To import-> Hits: 474872, Tracks: 76144 Events: 240
Filter with Bad method
Time CPU total Bad Events: 240 Tracks: 76144 Hits: 474872 = 2.680182e-02 s

Test for Good
To import-> Hits: 474872, Tracks: 76144 Events: 240
Filter with Cuda 2
Time GPU Kernel Cuda2 Events: 240 Tracks: 76144 Hits: 474872 = 5.825280e-04 s
Time CPU Kernel Cuda2 Events: 240 Tracks: 76144 Hits: 474872 = 6.000996e-04 s
Time CPU total Cuda2 Events: 240 Tracks: 76144 Hits: 474872 = 7.002141e-01 s

Test for Good
To import-> Hits: 474872, Tracks: 76144 Events: 240
Filter with Cuda 1
Time GPU Kernel Cuda1 Events: 240 Tracks: 76144 Hits: 474872 = 7.733120e-04 s
Time CPU Kernel Cuda1 Events: 240 Tracks: 76144 Hits: 474872 = 7.920265e-04 s
Time CPU total Cuda1 Events: 240 Tracks: 76144 Hits: 474872 = 6.997921e-01 s

Test for Good
To import-> Hits: 474872, Tracks: 76144 Events: 240
Filter with Good method
Time CPU total Good Events: 240 Tracks: 76144 Hits: 474872 = 1.253295e-02 s

Test for OpenCL
To import-> Hits: 474872, Tracks: 76144 Events: 240
Filter with OpenCL 2
Time GPU Kernel OpenCl2 Events: 240 Tracks: 76144 Hits: 474872 = 0.000868608 s
Time CPU Kernel OpenCl2 Events: 240 Tracks: 76144 Hits: 474872 = 0.001019 s
Time CPU total OpenCl2 Events: 240 Tracks: 76144 Hits: 474872 = 7.432418e-01 s

Test for OpenCL
To import-> Hits: 474872, Tracks: 76144 Events: 240
Filter with OpenCL 1
Time GPU Kernel OpenCl1 Events: 240 Tracks: 76144 Hits: 474872 = 0.000646304 s
Time CPU Kernel OpenCl1 Events: 240 Tracks: 76144 Hits: 474872 = 0.000800133 s
Time CPU total OpenCl1 Events: 240 Tracks: 76144 Hits: 474872 = 7.349491e-01 s

-----------------------------
Test for Bad
To import-> Hits: 493810, Tracks: 79172 Events: 250
Filter with Bad method
Time CPU total Bad Events: 250 Tracks: 79172 Hits: 493810 = 2.825594e-02 s

Test for Good
To import-> Hits: 493810, Tracks: 79172 Events: 250
Filter with Cuda 2
Time GPU Kernel Cuda2 Events: 250 Tracks: 79172 Hits: 493810 = 6.099840e-04 s
Time CPU Kernel Cuda2 Events: 250 Tracks: 79172 Hits: 493810 = 6.279945e-04 s
Time CPU total Cuda2 Events: 250 Tracks: 79172 Hits: 493810 = 6.996162e-01 s

Test for Good
To import-> Hits: 493810, Tracks: 79172 Events: 250
Filter with Cuda 1
Time GPU Kernel Cuda1 Events: 250 Tracks: 79172 Hits: 493810 = 7.988160e-04 s
Time CPU Kernel Cuda1 Events: 250 Tracks: 79172 Hits: 493810 = 8.170605e-04 s
Time CPU total Cuda1 Events: 250 Tracks: 79172 Hits: 493810 = 6.998360e-01 s

Test for Good
To import-> Hits: 493810, Tracks: 79172 Events: 250
Filter with Good method
Time CPU total Good Events: 250 Tracks: 79172 Hits: 493810 = 1.262593e-02 s

Test for OpenCL
To import-> Hits: 493810, Tracks: 79172 Events: 250
Filter with OpenCL 2
Time GPU Kernel OpenCl2 Events: 250 Tracks: 79172 Hits: 493810 = 0.000868544 s
Time CPU Kernel OpenCl2 Events: 250 Tracks: 79172 Hits: 493810 = 0.001019 s
Time CPU total OpenCl2 Events: 250 Tracks: 79172 Hits: 493810 = 7.421010e-01 s

Test for OpenCL
To import-> Hits: 493810, Tracks: 79172 Events: 250
Filter with OpenCL 1
Time GPU Kernel OpenCl1 Events: 250 Tracks: 79172 Hits: 493810 = 0.000668128 s
Time CPU Kernel OpenCl1 Events: 250 Tracks: 79172 Hits: 493810 = 0.000823021 s
Time CPU total OpenCl1 Events: 250 Tracks: 79172 Hits: 493810 = 7.486339e-01 s

-----------------------------
Test for Bad
To import-> Hits: 514314, Tracks: 82444 Events: 260
Filter with Bad method
Time CPU total Bad Events: 260 Tracks: 82444 Hits: 514314 = 2.454495e-02 s

Test for Good
To import-> Hits: 514314, Tracks: 82444 Events: 260
Filter with Cuda 2
Time GPU Kernel Cuda2 Events: 260 Tracks: 82444 Hits: 514314 = 6.248640e-04 s
Time CPU Kernel Cuda2 Events: 260 Tracks: 82444 Hits: 514314 = 6.439686e-04 s
Time CPU total Cuda2 Events: 260 Tracks: 82444 Hits: 514314 = 7.034571e-01 s

Test for Good
To import-> Hits: 514314, Tracks: 82444 Events: 260
Filter with Cuda 1
Time GPU Kernel Cuda1 Events: 260 Tracks: 82444 Hits: 514314 = 8.286080e-04 s
Time CPU Kernel Cuda1 Events: 260 Tracks: 82444 Hits: 514314 = 8.480549e-04 s
Time CPU total Cuda1 Events: 260 Tracks: 82444 Hits: 514314 = 6.962361e-01 s

Test for Good
To import-> Hits: 514314, Tracks: 82444 Events: 260
Filter with Good method
Time CPU total Good Events: 260 Tracks: 82444 Hits: 514314 = 1.312017e-02 s

Test for OpenCL
To import-> Hits: 514314, Tracks: 82444 Events: 260
Filter with OpenCL 2
Time GPU Kernel OpenCl2 Events: 260 Tracks: 82444 Hits: 514314 = 0.00094016 s
Time CPU Kernel OpenCl2 Events: 260 Tracks: 82444 Hits: 514314 = 0.001091 s
Time CPU total OpenCl2 Events: 260 Tracks: 82444 Hits: 514314 = 7.509458e-01 s

Test for OpenCL
To import-> Hits: 514314, Tracks: 82444 Events: 260
Filter with OpenCL 1
Time GPU Kernel OpenCl1 Events: 260 Tracks: 82444 Hits: 514314 = 0.000702688 s
Time CPU Kernel OpenCl1 Events: 260 Tracks: 82444 Hits: 514314 = 0.000859976 s
Time CPU total OpenCl1 Events: 260 Tracks: 82444 Hits: 514314 = 7.409110e-01 s

-----------------------------
Test for Bad
To import-> Hits: 534537, Tracks: 85661 Events: 270
Filter with Bad method
Time CPU total Bad Events: 270 Tracks: 85661 Hits: 534537 = 2.551794e-02 s

Test for Good
To import-> Hits: 534537, Tracks: 85661 Events: 270
Filter with Cuda 2
Time GPU Kernel Cuda2 Events: 270 Tracks: 85661 Hits: 534537 = 6.435841e-04 s
Time CPU Kernel Cuda2 Events: 270 Tracks: 85661 Hits: 534537 = 6.642342e-04 s
Time CPU total Cuda2 Events: 270 Tracks: 85661 Hits: 534537 = 7.077041e-01 s

Test for Good
To import-> Hits: 534537, Tracks: 85661 Events: 270
Filter with Cuda 1
Time GPU Kernel Cuda1 Events: 270 Tracks: 85661 Hits: 534537 = 8.609921e-04 s
Time CPU Kernel Cuda1 Events: 270 Tracks: 85661 Hits: 534537 = 8.809566e-04 s
Time CPU total Cuda1 Events: 270 Tracks: 85661 Hits: 534537 = 6.877360e-01 s

Test for Good
To import-> Hits: 534537, Tracks: 85661 Events: 270
Filter with Good method
Time CPU total Good Events: 270 Tracks: 85661 Hits: 534537 = 1.417017e-02 s

Test for OpenCL
To import-> Hits: 534537, Tracks: 85661 Events: 270
Filter with OpenCL 2
Time GPU Kernel OpenCl2 Events: 270 Tracks: 85661 Hits: 534537 = 0.000974016 s
Time CPU Kernel OpenCl2 Events: 270 Tracks: 85661 Hits: 534537 = 0.00112915 s
Time CPU total OpenCl2 Events: 270 Tracks: 85661 Hits: 534537 = 7.351179e-01 s

Test for OpenCL
To import-> Hits: 534537, Tracks: 85661 Events: 270
Filter with OpenCL 1
Time GPU Kernel OpenCl1 Events: 270 Tracks: 85661 Hits: 534537 = 0.000722048 s
Time CPU Kernel OpenCl1 Events: 270 Tracks: 85661 Hits: 534537 = 0.000873804 s
Time CPU total OpenCl1 Events: 270 Tracks: 85661 Hits: 534537 = 7.299891e-01 s

-----------------------------
Test for Bad
To import-> Hits: 557160, Tracks: 89234 Events: 280
Filter with Bad method
Time CPU total Bad Events: 280 Tracks: 89234 Hits: 557160 = 2.662992e-02 s

Test for Good
To import-> Hits: 557160, Tracks: 89234 Events: 280
Filter with Cuda 2
Time GPU Kernel Cuda2 Events: 280 Tracks: 89234 Hits: 557160 = 6.765440e-04 s
Time CPU Kernel Cuda2 Events: 280 Tracks: 89234 Hits: 557160 = 6.990433e-04 s
Time CPU total Cuda2 Events: 280 Tracks: 89234 Hits: 557160 = 7.037330e-01 s

Test for Good
To import-> Hits: 557160, Tracks: 89234 Events: 280
Filter with Cuda 1
Time GPU Kernel Cuda1 Events: 280 Tracks: 89234 Hits: 557160 = 8.967040e-04 s
Time CPU Kernel Cuda1 Events: 280 Tracks: 89234 Hits: 557160 = 9.191036e-04 s
Time CPU total Cuda1 Events: 280 Tracks: 89234 Hits: 557160 = 6.962359e-01 s

Test for Good
To import-> Hits: 557160, Tracks: 89234 Events: 280
Filter with Good method
Time CPU total Good Events: 280 Tracks: 89234 Hits: 557160 = 1.423907e-02 s

Test for OpenCL
To import-> Hits: 557160, Tracks: 89234 Events: 280
Filter with OpenCL 2
Time GPU Kernel OpenCl2 Events: 280 Tracks: 89234 Hits: 557160 = 0.000990208 s
Time CPU Kernel OpenCl2 Events: 280 Tracks: 89234 Hits: 557160 = 0.00114894 s
Time CPU total OpenCl2 Events: 280 Tracks: 89234 Hits: 557160 = 7.347260e-01 s

Test for OpenCL
To import-> Hits: 557160, Tracks: 89234 Events: 280
Filter with OpenCL 1
Time GPU Kernel OpenCl1 Events: 280 Tracks: 89234 Hits: 557160 = 0.000748064 s
Time CPU Kernel OpenCl1 Events: 280 Tracks: 89234 Hits: 557160 = 0.000901937 s
Time CPU total OpenCl1 Events: 280 Tracks: 89234 Hits: 557160 = 7.386160e-01 s

-----------------------------
Test for Bad
To import-> Hits: 576611, Tracks: 92347 Events: 290
Filter with Bad method
Time CPU total Bad Events: 290 Tracks: 92347 Hits: 576611 = 2.846408e-02 s

Test for Good
To import-> Hits: 576611, Tracks: 92347 Events: 290
Filter with Cuda 2
Time GPU Kernel Cuda2 Events: 290 Tracks: 92347 Hits: 576611 = 6.944960e-04 s
Time CPU Kernel Cuda2 Events: 290 Tracks: 92347 Hits: 576611 = 7.178783e-04 s
Time CPU total Cuda2 Events: 290 Tracks: 92347 Hits: 576611 = 7.050111e-01 s

Test for Good
To import-> Hits: 576611, Tracks: 92347 Events: 290
Filter with Cuda 1
Time GPU Kernel Cuda1 Events: 290 Tracks: 92347 Hits: 576611 = 9.251200e-04 s
Time CPU Kernel Cuda1 Events: 290 Tracks: 92347 Hits: 576611 = 9.491444e-04 s
Time CPU total Cuda1 Events: 290 Tracks: 92347 Hits: 576611 = 7.033830e-01 s

Test for Good
To import-> Hits: 576611, Tracks: 92347 Events: 290
Filter with Good method
Time CPU total Good Events: 290 Tracks: 92347 Hits: 576611 = 1.480103e-02 s

Test for OpenCL
To import-> Hits: 576611, Tracks: 92347 Events: 290
Filter with OpenCL 2
Time GPU Kernel OpenCl2 Events: 290 Tracks: 92347 Hits: 576611 = 0.0010425 s
Time CPU Kernel OpenCl2 Events: 290 Tracks: 92347 Hits: 576611 = 0.00119591 s
Time CPU total OpenCl2 Events: 290 Tracks: 92347 Hits: 576611 = 7.507479e-01 s

Test for OpenCL
To import-> Hits: 576611, Tracks: 92347 Events: 290
Filter with OpenCL 1
Time GPU Kernel OpenCl1 Events: 290 Tracks: 92347 Hits: 576611 = 0.000773792 s
Time CPU Kernel OpenCl1 Events: 290 Tracks: 92347 Hits: 576611 = 0.000925064 s
Time CPU total OpenCl1 Events: 290 Tracks: 92347 Hits: 576611 = 7.441339e-01 s

-----------------------------
Test for Bad
To import-> Hits: 598963, Tracks: 95876 Events: 300
Filter with Bad method
Time CPU total Bad Events: 300 Tracks: 95876 Hits: 598963 = 2.868700e-02 s

Test for Good
To import-> Hits: 598963, Tracks: 95876 Events: 300
Filter with Cuda 2
Time GPU Kernel Cuda2 Events: 300 Tracks: 95876 Hits: 598963 = 7.186561e-04 s
Time CPU Kernel Cuda2 Events: 300 Tracks: 95876 Hits: 598963 = 7.419586e-04 s
Time CPU total Cuda2 Events: 300 Tracks: 95876 Hits: 598963 = 7.045360e-01 s

Test for Good
To import-> Hits: 598963, Tracks: 95876 Events: 300
Filter with Cuda 1
Time GPU Kernel Cuda1 Events: 300 Tracks: 95876 Hits: 598963 = 9.608000e-04 s
Time CPU Kernel Cuda1 Events: 300 Tracks: 95876 Hits: 598963 = 9.860992e-04 s
Time CPU total Cuda1 Events: 300 Tracks: 95876 Hits: 598963 = 7.005060e-01 s

Test for Good
To import-> Hits: 598963, Tracks: 95876 Events: 300
Filter with Good method
Time CPU total Good Events: 300 Tracks: 95876 Hits: 598963 = 1.556420e-02 s

Test for OpenCL
To import-> Hits: 598963, Tracks: 95876 Events: 300
Filter with OpenCL 2
Time GPU Kernel OpenCl2 Events: 300 Tracks: 95876 Hits: 598963 = 0.00107917 s
Time CPU Kernel OpenCl2 Events: 300 Tracks: 95876 Hits: 598963 = 0.00123286 s
Time CPU total OpenCl2 Events: 300 Tracks: 95876 Hits: 598963 = 7.486010e-01 s

Test for OpenCL
To import-> Hits: 598963, Tracks: 95876 Events: 300
Filter with OpenCL 1
Time GPU Kernel OpenCl1 Events: 300 Tracks: 95876 Hits: 598963 = 0.000806208 s
Time CPU Kernel OpenCl1 Events: 300 Tracks: 95876 Hits: 598963 = 0.000957012 s
Time CPU total OpenCl1 Events: 300 Tracks: 95876 Hits: 598963 = 7.369111e-01 s

-----------------------------
